digraph "Call graph" {
	label="Call graph";

	Node0x5582628a7d40 [shape=record,label="{external node}"];
	Node0x5582628a7d40 -> Node0x5582628a8290;
	Node0x5582628a7d40 -> Node0x5582628a8440;
	Node0x5582628a7d40 -> Node0x5582628a8440;
	Node0x5582628a7d40 -> Node0x5582628a8340;
	Node0x5582628a7d40 -> Node0x5582628a85d0;
	Node0x5582628a7d40 -> Node0x5582628a8510;
	Node0x5582628a7d40 -> Node0x5582628a8790;
	Node0x5582628a7d40 -> Node0x5582628a8810;
	Node0x5582628a7d40 -> Node0x5582628a8a30;
	Node0x5582628a8a30 [shape=record,label="{_GLOBAL__sub_I_41.cpp}"];
	Node0x5582628a8a30 -> Node0x5582628a7e00;
	Node0x5582628a7e00 [shape=record,label="{__cxx_global_var_init}"];
	Node0x5582628a7e00 -> Node0x5582628a8290;
	Node0x5582628a7e00 -> Node0x5582628a8340;
	Node0x5582628a8290 [shape=record,label="{_ZNSt8ios_base4InitC1Ev}"];
	Node0x5582628a8290 -> Node0x5582628a7d80;
	Node0x5582628a8440 [shape=record,label="{_ZNSt8ios_base4InitD1Ev}"];
	Node0x5582628a8440 -> Node0x5582628a7d80;
	Node0x5582628a8340 [shape=record,label="{__cxa_atexit}"];
	Node0x5582628a8340 -> Node0x5582628a7d80;
	Node0x5582628a85d0 [shape=record,label="{main}"];
	Node0x5582628a85d0 -> Node0x5582628a8510;
	Node0x5582628a85d0 -> Node0x5582628a8790;
	Node0x5582628a85d0 -> Node0x5582628a8810;
	Node0x5582628a85d0 -> Node0x5582628a8810;
	Node0x5582628a85d0 -> Node0x5582628a8810;
	Node0x5582628a8510 [shape=record,label="{scanf}"];
	Node0x5582628a8510 -> Node0x5582628a7d80;
	Node0x5582628a8790 [shape=record,label="{strlen}"];
	Node0x5582628a8790 -> Node0x5582628a7d80;
	Node0x5582628a8810 [shape=record,label="{printf}"];
	Node0x5582628a8810 -> Node0x5582628a7d80;
}
