digraph "CFG for '_GLOBAL__sub_I_41.cpp' function" {
	label="CFG for '_GLOBAL__sub_I_41.cpp' function";

	Node0x5570da859f20 [shape=record,label="{%0:\l  call void @__cxx_global_var_init()\l  ret void\l}"];
}
