digraph "CFG for 'main' function" {
	label="CFG for 'main' function";

	Node0x5570da852930 [shape=record,label="{%0:\l  %1 = alloca i32, align 4\l  %a = alloca [300 x [20 x i8]], align 16\l  %i = alloca i32, align 4\l  %len = alloca [300 x i32], align 16\l  %l = alloca i32, align 4\l  store i32 0, i32* %1, align 4\l  store i32 0, i32* %i, align 4\l  br label %2\l}"];
	Node0x5570da852930 -> Node0x5570da856180;
	Node0x5570da856180 [shape=record,label="{%2:\l\l  %3 = load i32, i32* %i, align 4\l  %4 = sext i32 %3 to i64\l  %5 = getelementptr inbounds [300 x [20 x i8]], [300 x [20 x i8]]* %a, i64 0,\l... i64 %4\l  %6 = getelementptr inbounds [20 x i8], [20 x i8]* %5, i32 0, i32 0\l  %7 = call i32 (i8*, ...) @scanf(i8* getelementptr inbounds ([3 x i8], [3 x\l... i8]* @.str, i32 0, i32 0), i8* %6)\l  %8 = icmp ne i32 %7, -1\l  br i1 %8, label %9, label %22\l|{<s0>T|<s1>F}}"];
	Node0x5570da856180:s0 -> Node0x5570da856210;
	Node0x5570da856180:s1 -> Node0x5570da8567b0;
	Node0x5570da856210 [shape=record,label="{%9:\l\l  %10 = load i32, i32* %i, align 4\l  %11 = sext i32 %10 to i64\l  %12 = getelementptr inbounds [300 x [20 x i8]], [300 x [20 x i8]]* %a, i64\l... 0, i64 %11\l  %13 = getelementptr inbounds [20 x i8], [20 x i8]* %12, i32 0, i32 0\l  %14 = call i64 @strlen(i8* %13) #5\l  %15 = trunc i64 %14 to i32\l  %16 = load i32, i32* %i, align 4\l  %17 = sext i32 %16 to i64\l  %18 = getelementptr inbounds [300 x i32], [300 x i32]* %len, i64 0, i64 %17\l  store i32 %15, i32* %18, align 4\l  br label %19\l}"];
	Node0x5570da856210 -> Node0x5570da857040;
	Node0x5570da857040 [shape=record,label="{%19:\l\l  %20 = load i32, i32* %i, align 4\l  %21 = add nsw i32 %20, 1\l  store i32 %21, i32* %i, align 4\l  br label %2\l}"];
	Node0x5570da857040 -> Node0x5570da856180;
	Node0x5570da8567b0 [shape=record,label="{%22:\l\l  %23 = load i32, i32* %i, align 4\l  store i32 %23, i32* %l, align 4\l  store i32 0, i32* %i, align 4\l  br label %24\l}"];
	Node0x5570da8567b0 -> Node0x5570da857410;
	Node0x5570da857410 [shape=record,label="{%24:\l\l  %25 = load i32, i32* %i, align 4\l  %26 = load i32, i32* %l, align 4\l  %27 = icmp slt i32 %25, %26\l  br i1 %27, label %28, label %44\l|{<s0>T|<s1>F}}"];
	Node0x5570da857410:s0 -> Node0x5570da857600;
	Node0x5570da857410:s1 -> Node0x5570da857650;
	Node0x5570da857600 [shape=record,label="{%28:\l\l  %29 = load i32, i32* %i, align 4\l  %30 = sext i32 %29 to i64\l  %31 = getelementptr inbounds [300 x i32], [300 x i32]* %len, i64 0, i64 %30\l  %32 = load i32, i32* %31, align 4\l  %33 = call i32 (i8*, ...) @printf(i8* getelementptr inbounds ([3 x i8], [3 x\l... i8]* @.str.1, i32 0, i32 0), i32 %32)\l  %34 = load i32, i32* %i, align 4\l  %35 = load i32, i32* %l, align 4\l  %36 = sub nsw i32 %35, 1\l  %37 = icmp ne i32 %34, %36\l  br i1 %37, label %38, label %40\l|{<s0>T|<s1>F}}"];
	Node0x5570da857600:s0 -> Node0x5570da857ec0;
	Node0x5570da857600:s1 -> Node0x5570da857f10;
	Node0x5570da857ec0 [shape=record,label="{%38:\l\l  %39 = call i32 (i8*, ...) @printf(i8* getelementptr inbounds ([2 x i8], [2 x\l... i8]* @.str.2, i32 0, i32 0))\l  br label %40\l}"];
	Node0x5570da857ec0 -> Node0x5570da857f10;
	Node0x5570da857f10 [shape=record,label="{%40:\l\l  br label %41\l}"];
	Node0x5570da857f10 -> Node0x5570da858180;
	Node0x5570da858180 [shape=record,label="{%41:\l\l  %42 = load i32, i32* %i, align 4\l  %43 = add nsw i32 %42, 1\l  store i32 %43, i32* %i, align 4\l  br label %24\l}"];
	Node0x5570da858180 -> Node0x5570da857410;
	Node0x5570da857650 [shape=record,label="{%44:\l\l  %45 = call i32 (i8*, ...) @printf(i8* getelementptr inbounds ([2 x i8], [2 x\l... i8]* @.str.3, i32 0, i32 0))\l  %46 = load i32, i32* %1, align 4\l  ret i32 %46\l}"];
}
