digraph "CFG for '_GLOBAL__sub_I_19.cpp' function" {
	label="CFG for '_GLOBAL__sub_I_19.cpp' function";

	Node0x55f78e7aa320 [shape=record,label="{%0:\l  call void @__cxx_global_var_init()\l  ret void\l}"];
}
