digraph "CFG for 'main' function" {
	label="CFG for 'main' function";

	Node0x5621f7657e50 [shape=record,label="{%0:\l  %1 = alloca i32, align 4\l  %i = alloca i32, align 4\l  %n = alloca i32, align 4\l  %d = alloca double, align 8\l  %e = alloca double, align 8\l  %p = alloca double, align 8\l  %q = alloca double, align 8\l  %t = alloca double, align 8\l  %a = alloca [100 x double], align 16\l  %b = alloca [100 x double], align 16\l  %c = alloca [100 x double], align 16\l  store i32 0, i32* %1, align 4\l  %2 = call i32 (i8*, ...) @scanf(i8* getelementptr inbounds ([3 x i8], [3 x\l... i8]* @.str, i32 0, i32 0), i32* %n)\l  store i32 0, i32* %i, align 4\l  br label %3\l}"];
	Node0x5621f7657e50 -> Node0x5621f76588c0;
	Node0x5621f76588c0 [shape=record,label="{%3:\l\l  %4 = load i32, i32* %i, align 4\l  %5 = load i32, i32* %n, align 4\l  %6 = icmp slt i32 %4, %5\l  br i1 %6, label %7, label %21\l|{<s0>T|<s1>F}}"];
	Node0x5621f76588c0:s0 -> Node0x5621f7658a80;
	Node0x5621f76588c0:s1 -> Node0x5621f7658ad0;
	Node0x5621f7658a80 [shape=record,label="{%7:\l\l  %8 = load i32, i32* %i, align 4\l  %9 = sext i32 %8 to i64\l  %10 = getelementptr inbounds [100 x double], [100 x double]* %a, i64 0, i64\l... %9\l  %11 = load i32, i32* %i, align 4\l  %12 = sext i32 %11 to i64\l  %13 = getelementptr inbounds [100 x double], [100 x double]* %b, i64 0, i64\l... %12\l  %14 = load i32, i32* %i, align 4\l  %15 = sext i32 %14 to i64\l  %16 = getelementptr inbounds [100 x double], [100 x double]* %c, i64 0, i64\l... %15\l  %17 = call i32 (i8*, ...) @scanf(i8* getelementptr inbounds ([12 x i8], [12\l... x i8]* @.str.1, i32 0, i32 0), double* %10, double* %13, double* %16)\l  br label %18\l}"];
	Node0x5621f7658a80 -> Node0x5621f7659280;
	Node0x5621f7659280 [shape=record,label="{%18:\l\l  %19 = load i32, i32* %i, align 4\l  %20 = add nsw i32 %19, 1\l  store i32 %20, i32* %i, align 4\l  br label %3\l}"];
	Node0x5621f7659280 -> Node0x5621f76588c0;
	Node0x5621f7658ad0 [shape=record,label="{%21:\l\l  store i32 0, i32* %i, align 4\l  br label %22\l}"];
	Node0x5621f7658ad0 -> Node0x5621f76595b0;
	Node0x5621f76595b0 [shape=record,label="{%22:\l\l  %23 = load i32, i32* %i, align 4\l  %24 = load i32, i32* %n, align 4\l  %25 = icmp slt i32 %23, %24\l  br i1 %25, label %26, label %144\l|{<s0>T|<s1>F}}"];
	Node0x5621f76595b0:s0 -> Node0x5621f76597a0;
	Node0x5621f76595b0:s1 -> Node0x5621f76597f0;
	Node0x5621f76597a0 [shape=record,label="{%26:\l\l  %27 = load i32, i32* %i, align 4\l  %28 = sext i32 %27 to i64\l  %29 = getelementptr inbounds [100 x double], [100 x double]* %b, i64 0, i64\l... %28\l  %30 = load double, double* %29, align 8\l  %31 = load i32, i32* %i, align 4\l  %32 = sext i32 %31 to i64\l  %33 = getelementptr inbounds [100 x double], [100 x double]* %b, i64 0, i64\l... %32\l  %34 = load double, double* %33, align 8\l  %35 = fmul double %30, %34\l  %36 = load i32, i32* %i, align 4\l  %37 = sext i32 %36 to i64\l  %38 = getelementptr inbounds [100 x double], [100 x double]* %a, i64 0, i64\l... %37\l  %39 = load double, double* %38, align 8\l  %40 = fmul double 4.000000e+00, %39\l  %41 = load i32, i32* %i, align 4\l  %42 = sext i32 %41 to i64\l  %43 = getelementptr inbounds [100 x double], [100 x double]* %c, i64 0, i64\l... %42\l  %44 = load double, double* %43, align 8\l  %45 = fmul double %40, %44\l  %46 = fsub double %35, %45\l  store double %46, double* %t, align 8\l  %47 = load double, double* %t, align 8\l  %48 = fcmp olt double %47, 0.000000e+00\l  br i1 %48, label %49, label %88\l|{<s0>T|<s1>F}}"];
	Node0x5621f76597a0:s0 -> Node0x5621f765a480;
	Node0x5621f76597a0:s1 -> Node0x5621f765dcf0;
	Node0x5621f765a480 [shape=record,label="{%49:\l\l  %50 = load i32, i32* %i, align 4\l  %51 = sext i32 %50 to i64\l  %52 = getelementptr inbounds [100 x double], [100 x double]* %b, i64 0, i64\l... %51\l  %53 = load double, double* %52, align 8\l  %54 = fsub double -0.000000e+00, %53\l  %55 = load i32, i32* %i, align 4\l  %56 = sext i32 %55 to i64\l  %57 = getelementptr inbounds [100 x double], [100 x double]* %a, i64 0, i64\l... %56\l  %58 = load double, double* %57, align 8\l  %59 = fmul double %58, 2.000000e+00\l  %60 = fdiv double %54, %59\l  store double %60, double* %d, align 8\l  %61 = load double, double* %t, align 8\l  %62 = fsub double -0.000000e+00, %61\l  %63 = call double @sqrt(double %62) #2\l  %64 = load i32, i32* %i, align 4\l  %65 = sext i32 %64 to i64\l  %66 = getelementptr inbounds [100 x double], [100 x double]* %a, i64 0, i64\l... %65\l  %67 = load double, double* %66, align 8\l  %68 = fmul double 2.000000e+00, %67\l  %69 = fdiv double %63, %68\l  store double %69, double* %p, align 8\l  %70 = load double, double* %t, align 8\l  %71 = fsub double -0.000000e+00, %70\l  %72 = call double @sqrt(double %71) #2\l  %73 = load i32, i32* %i, align 4\l  %74 = sext i32 %73 to i64\l  %75 = getelementptr inbounds [100 x double], [100 x double]* %a, i64 0, i64\l... %74\l  %76 = load double, double* %75, align 8\l  %77 = fmul double 2.000000e+00, %76\l  %78 = fdiv double %72, %77\l  store double %78, double* %q, align 8\l  %79 = load double, double* %d, align 8\l  %80 = fcmp oeq double %79, 0.000000e+00\l  br i1 %80, label %81, label %82\l|{<s0>T|<s1>F}}"];
	Node0x5621f765a480:s0 -> Node0x5621f765f210;
	Node0x5621f765a480:s1 -> Node0x5621f765f2a0;
	Node0x5621f765f210 [shape=record,label="{%81:\l\l  store double 0.000000e+00, double* %d, align 8\l  br label %82\l}"];
	Node0x5621f765f210 -> Node0x5621f765f2a0;
	Node0x5621f765f2a0 [shape=record,label="{%82:\l\l  %83 = load double, double* %d, align 8\l  %84 = load double, double* %p, align 8\l  %85 = load double, double* %d, align 8\l  %86 = load double, double* %q, align 8\l  %87 = call i32 (i8*, ...) @printf(i8* getelementptr inbounds ([33 x i8], [33\l... x i8]* @.str.2, i32 0, i32 0), double %83, double %84, double %85, double %86)\l  br label %140\l}"];
	Node0x5621f765f2a0 -> Node0x5621f765f8f0;
	Node0x5621f765dcf0 [shape=record,label="{%88:\l\l  %89 = load double, double* %t, align 8\l  %90 = fsub double %89, 0.000000e+00\l  %91 = call double @fabs(double %90) #6\l  %92 = fcmp olt double %91, 1.000000e-08\l  br i1 %92, label %93, label %107\l|{<s0>T|<s1>F}}"];
	Node0x5621f765dcf0:s0 -> Node0x5621f765fd80;
	Node0x5621f765dcf0:s1 -> Node0x5621f765fdd0;
	Node0x5621f765fd80 [shape=record,label="{%93:\l\l  %94 = load i32, i32* %i, align 4\l  %95 = sext i32 %94 to i64\l  %96 = getelementptr inbounds [100 x double], [100 x double]* %b, i64 0, i64\l... %95\l  %97 = load double, double* %96, align 8\l  %98 = fsub double -0.000000e+00, %97\l  %99 = load i32, i32* %i, align 4\l  %100 = sext i32 %99 to i64\l  %101 = getelementptr inbounds [100 x double], [100 x double]* %a, i64 0, i64\l... %100\l  %102 = load double, double* %101, align 8\l  %103 = fmul double 2.000000e+00, %102\l  %104 = fdiv double %98, %103\l  store double %104, double* %d, align 8\l  %105 = load double, double* %d, align 8\l  %106 = call i32 (i8*, ...) @printf(i8* getelementptr inbounds ([13 x i8],\l... [13 x i8]* @.str.3, i32 0, i32 0), double %105)\l  br label %139\l}"];
	Node0x5621f765fd80 -> Node0x5621f7660640;
	Node0x5621f765fdd0 [shape=record,label="{%107:\l\l  %108 = load i32, i32* %i, align 4\l  %109 = sext i32 %108 to i64\l  %110 = getelementptr inbounds [100 x double], [100 x double]* %b, i64 0, i64\l... %109\l  %111 = load double, double* %110, align 8\l  %112 = fsub double -0.000000e+00, %111\l  %113 = load double, double* %t, align 8\l  %114 = call double @sqrt(double %113) #2\l  %115 = fadd double %112, %114\l  %116 = load i32, i32* %i, align 4\l  %117 = sext i32 %116 to i64\l  %118 = getelementptr inbounds [100 x double], [100 x double]* %a, i64 0, i64\l... %117\l  %119 = load double, double* %118, align 8\l  %120 = fmul double 2.000000e+00, %119\l  %121 = fdiv double %115, %120\l  store double %121, double* %d, align 8\l  %122 = load i32, i32* %i, align 4\l  %123 = sext i32 %122 to i64\l  %124 = getelementptr inbounds [100 x double], [100 x double]* %b, i64 0, i64\l... %123\l  %125 = load double, double* %124, align 8\l  %126 = fsub double -0.000000e+00, %125\l  %127 = load double, double* %t, align 8\l  %128 = call double @sqrt(double %127) #2\l  %129 = fsub double %126, %128\l  %130 = load i32, i32* %i, align 4\l  %131 = sext i32 %130 to i64\l  %132 = getelementptr inbounds [100 x double], [100 x double]* %a, i64 0, i64\l... %131\l  %133 = load double, double* %132, align 8\l  %134 = fmul double 2.000000e+00, %133\l  %135 = fdiv double %129, %134\l  store double %135, double* %e, align 8\l  %136 = load double, double* %d, align 8\l  %137 = load double, double* %e, align 8\l  %138 = call i32 (i8*, ...) @printf(i8* getelementptr inbounds ([19 x i8],\l... [19 x i8]* @.str.4, i32 0, i32 0), double %136, double %137)\l  br label %139\l}"];
	Node0x5621f765fdd0 -> Node0x5621f7660640;
	Node0x5621f7660640 [shape=record,label="{%139:\l\l  br label %140\l}"];
	Node0x5621f7660640 -> Node0x5621f765f8f0;
	Node0x5621f765f8f0 [shape=record,label="{%140:\l\l  br label %141\l}"];
	Node0x5621f765f8f0 -> Node0x5621f7661cc0;
	Node0x5621f7661cc0 [shape=record,label="{%141:\l\l  %142 = load i32, i32* %i, align 4\l  %143 = add nsw i32 %142, 1\l  store i32 %143, i32* %i, align 4\l  br label %22\l}"];
	Node0x5621f7661cc0 -> Node0x5621f76595b0;
	Node0x5621f76597f0 [shape=record,label="{%144:\l\l  %145 = load i32, i32* %1, align 4\l  ret i32 %145\l}"];
}
