digraph "Call graph" {
	label="Call graph";

	Node0x560b3623a870 [shape=record,label="{external node}"];
	Node0x560b3623a870 -> Node0x560b3623a9b0;
	Node0x560b3623a870 -> Node0x560b3623ab30;
	Node0x560b3623a870 -> Node0x560b3623ab30;
	Node0x560b3623a870 -> Node0x560b3623aa30;
	Node0x560b3623a870 -> Node0x560b362348f0;
	Node0x560b3623a870 -> Node0x560b36247090;
	Node0x560b3623a870 -> Node0x560b36234830;
	Node0x560b3623a870 -> Node0x560b36234ab0;
	Node0x560b3623a870 -> Node0x560b36234b30;
	Node0x560b3623a870 -> Node0x560b362349a0;
	Node0x560b362349a0 [shape=record,label="{_GLOBAL__sub_I_24.cpp}"];
	Node0x560b362349a0 -> Node0x560b3623a930;
	Node0x560b3623a930 [shape=record,label="{__cxx_global_var_init}"];
	Node0x560b3623a930 -> Node0x560b3623a9b0;
	Node0x560b3623a930 -> Node0x560b3623aa30;
	Node0x560b3623a9b0 [shape=record,label="{_ZNSt8ios_base4InitC1Ev}"];
	Node0x560b3623a9b0 -> Node0x560b3623a8b0;
	Node0x560b3623ab30 [shape=record,label="{_ZNSt8ios_base4InitD1Ev}"];
	Node0x560b3623ab30 -> Node0x560b3623a8b0;
	Node0x560b3623aa30 [shape=record,label="{__cxa_atexit}"];
	Node0x560b3623aa30 -> Node0x560b3623a8b0;
	Node0x560b362348f0 [shape=record,label="{main}"];
	Node0x560b362348f0 -> Node0x560b36234830;
	Node0x560b362348f0 -> Node0x560b36234ab0;
	Node0x560b362348f0 -> Node0x560b36234b30;
	Node0x560b362348f0 -> Node0x560b36234b30;
	Node0x560b36247090 [shape=record,label="{llvm.memset.p0i8.i64}"];
	Node0x560b36234830 [shape=record,label="{gets}"];
	Node0x560b36234830 -> Node0x560b3623a8b0;
	Node0x560b36234ab0 [shape=record,label="{strlen}"];
	Node0x560b36234ab0 -> Node0x560b3623a8b0;
	Node0x560b36234b30 [shape=record,label="{printf}"];
	Node0x560b36234b30 -> Node0x560b3623a8b0;
}
