digraph "Call graph" {
	label="Call graph";

	Node0x560bb90dbda0 [shape=record,label="{external node}"];
	Node0x560bb90dbda0 -> Node0x560bb90ebd50;
	Node0x560bb90dbda0 -> Node0x560bb90f1b60;
	Node0x560bb90dbda0 -> Node0x560bb90f1b60;
	Node0x560bb90dbda0 -> Node0x560bb90f1a60;
	Node0x560bb90dbda0 -> Node0x560bb90f1cf0;
	Node0x560bb90dbda0 -> Node0x560bb90fdf60;
	Node0x560bb90dbda0 -> Node0x560bb90f1d70;
	Node0x560bb90dbda0 -> Node0x560bb90fdee0;
	Node0x560bb90dbda0 -> Node0x560bb90fdff0;
	Node0x560bb90dbda0 -> Node0x560bb90fde40;
	Node0x560bb90fde40 [shape=record,label="{_GLOBAL__sub_I_70.cpp}"];
	Node0x560bb90fde40 -> Node0x560bb90ebcd0;
	Node0x560bb90ebcd0 [shape=record,label="{__cxx_global_var_init}"];
	Node0x560bb90ebcd0 -> Node0x560bb90ebd50;
	Node0x560bb90ebcd0 -> Node0x560bb90f1a60;
	Node0x560bb90ebd50 [shape=record,label="{_ZNSt8ios_base4InitC1Ev}"];
	Node0x560bb90ebd50 -> Node0x560bb90ebc50;
	Node0x560bb90f1b60 [shape=record,label="{_ZNSt8ios_base4InitD1Ev}"];
	Node0x560bb90f1b60 -> Node0x560bb90ebc50;
	Node0x560bb90f1a60 [shape=record,label="{__cxa_atexit}"];
	Node0x560bb90f1a60 -> Node0x560bb90ebc50;
	Node0x560bb90f1cf0 [shape=record,label="{main}"];
	Node0x560bb90f1cf0 -> Node0x560bb90f1d70;
	Node0x560bb90f1cf0 -> Node0x560bb90fdee0;
	Node0x560bb90f1cf0 -> Node0x560bb90fdee0;
	Node0x560bb90f1cf0 -> Node0x560bb90fdff0;
	Node0x560bb90f1cf0 -> Node0x560bb90fdee0;
	Node0x560bb90f1cf0 -> Node0x560bb90fdff0;
	Node0x560bb90f1cf0 -> Node0x560bb90fdee0;
	Node0x560bb90f1cf0 -> Node0x560bb90fdff0;
	Node0x560bb90fdf60 [shape=record,label="{llvm.memset.p0i8.i64}"];
	Node0x560bb90f1d70 [shape=record,label="{scanf}"];
	Node0x560bb90f1d70 -> Node0x560bb90ebc50;
	Node0x560bb90fdee0 [shape=record,label="{strlen}"];
	Node0x560bb90fdee0 -> Node0x560bb90ebc50;
	Node0x560bb90fdff0 [shape=record,label="{printf}"];
	Node0x560bb90fdff0 -> Node0x560bb90ebc50;
}
