digraph "Call graph" {
	label="Call graph";

	Node0x55b12f19ea40 [shape=record,label="{external node}"];
	Node0x55b12f19ea40 -> Node0x55b12f1a8460;
	Node0x55b12f19ea40 -> Node0x55b12f19b3e0;
	Node0x55b12f19ea40 -> Node0x55b12f19b3e0;
	Node0x55b12f19ea40 -> Node0x55b12f19d920;
	Node0x55b12f19ea40 -> Node0x55b12f192ed0;
	Node0x55b12f19ea40 -> Node0x55b12f1a8180;
	Node0x55b12f19ea40 -> Node0x55b12f192e80;
	Node0x55b12f19ea40 -> Node0x55b12f1a3e00;
	Node0x55b12f19ea40 -> Node0x55b12f1a3f00;
	Node0x55b12f19ea40 -> Node0x55b12f1b9860;
	Node0x55b12f19ea40 -> Node0x55b12f1a8140;
	Node0x55b12f19ea40 -> Node0x55b12f1a80b0;
	Node0x55b12f19ea40 -> Node0x55b12f1b98e0;
	Node0x55b12f19ea40 -> Node0x55b12f1b98e0;
	Node0x55b12f19ea40 -> Node0x55b12f1b9990;
	Node0x55b12f19ea40 -> Node0x55b12f1b9a10;
	Node0x55b12f19ea40 -> Node0x55b12f1a3e80;
	Node0x55b12f19ea40 -> Node0x55b12f1a3f80;
	Node0x55b12f1a3f80 [shape=record,label="{_GLOBAL__sub_I_18.cpp}"];
	Node0x55b12f1a3f80 -> Node0x55b12f1a9850;
	Node0x55b12f1a9850 [shape=record,label="{__cxx_global_var_init}"];
	Node0x55b12f1a9850 -> Node0x55b12f1a8460;
	Node0x55b12f1a9850 -> Node0x55b12f19d920;
	Node0x55b12f1a8460 [shape=record,label="{_ZNSt8ios_base4InitC1Ev}"];
	Node0x55b12f1a8460 -> Node0x55b12f19ea80;
	Node0x55b12f19b3e0 [shape=record,label="{_ZNSt8ios_base4InitD1Ev}"];
	Node0x55b12f19b3e0 -> Node0x55b12f19ea80;
	Node0x55b12f19d920 [shape=record,label="{__cxa_atexit}"];
	Node0x55b12f19d920 -> Node0x55b12f19ea80;
	Node0x55b12f192ed0 [shape=record,label="{_Z2ddiiii}"];
	Node0x55b12f192ed0 -> Node0x55b12f192ed0;
	Node0x55b12f1a8180 [shape=record,label="{_Z4q_ysi}"];
	Node0x55b12f192e80 [shape=record,label="{_Z4m_ysi}"];
	Node0x55b12f192e80 -> Node0x55b12f1a3e00;
	Node0x55b12f1a3e00 [shape=record,label="{_ZSt4sqrtIiEN9__gnu_cxx11__enable_ifIXsr12__is_integerIT_EE7__valueEdE6__typeES2_}"];
	Node0x55b12f1a3e00 -> Node0x55b12f1a3e80;
	Node0x55b12f1a3e80 [shape=record,label="{sqrt}"];
	Node0x55b12f1a3e80 -> Node0x55b12f19ea80;
	Node0x55b12f1a3f00 [shape=record,label="{_Z6outputi}"];
	Node0x55b12f1a3f00 -> Node0x55b12f1a8180;
	Node0x55b12f1a3f00 -> Node0x55b12f192e80;
	Node0x55b12f1a3f00 -> Node0x55b12f192e80;
	Node0x55b12f1a3f00 -> Node0x55b12f192ed0;
	Node0x55b12f1a3f00 -> Node0x55b12f1a8140;
	Node0x55b12f1a3f00 -> Node0x55b12f1a80b0;
	Node0x55b12f1b9860 [shape=record,label="{llvm.memset.p0i8.i64}"];
	Node0x55b12f1a8140 [shape=record,label="{_ZNSolsEi}"];
	Node0x55b12f1a8140 -> Node0x55b12f19ea80;
	Node0x55b12f1b98e0 [shape=record,label="{_ZSt4endlIcSt11char_traitsIcEERSt13basic_ostreamIT_T0_ES6_}"];
	Node0x55b12f1b98e0 -> Node0x55b12f19ea80;
	Node0x55b12f1a80b0 [shape=record,label="{_ZNSolsEPFRSoS_E}"];
	Node0x55b12f1a80b0 -> Node0x55b12f19ea80;
	Node0x55b12f1b9990 [shape=record,label="{main}"];
	Node0x55b12f1b9990 -> Node0x55b12f1b9a10;
	Node0x55b12f1b9990 -> Node0x55b12f1b9a10;
	Node0x55b12f1b9990 -> Node0x55b12f1a3f00;
	Node0x55b12f1b9a10 [shape=record,label="{_ZNSirsERi}"];
	Node0x55b12f1b9a10 -> Node0x55b12f19ea80;
}
