digraph "CFG for '_Z4calcii' function" {
	label="CFG for '_Z4calcii' function";

	Node0x556a1fca7bd0 [shape=record,label="{%0:\l  %1 = alloca i32, align 4\l  %2 = alloca i32, align 4\l  %i = alloca i32, align 4\l  store i32 %a, i32* %1, align 4\l  store i32 %d, i32* %2, align 4\l  %3 = load i32, i32* %1, align 4\l  %4 = icmp eq i32 %3, 1\l  br i1 %4, label %5, label %8\l|{<s0>T|<s1>F}}"];
	Node0x556a1fca7bd0:s0 -> Node0x556a1fca7fb0;
	Node0x556a1fca7bd0:s1 -> Node0x556a1fca8040;
	Node0x556a1fca7fb0 [shape=record,label="{%5:\l\l  %6 = load i32, i32* @t, align 4\l  %7 = add nsw i32 %6, 1\l  store i32 %7, i32* @t, align 4\l  br label %34\l}"];
	Node0x556a1fca7fb0 -> Node0x556a1fca8260;
	Node0x556a1fca8040 [shape=record,label="{%8:\l\l  %9 = load i32, i32* %1, align 4\l  %10 = load i32, i32* %2, align 4\l  %11 = icmp sge i32 %9, %10\l  br i1 %11, label %12, label %33\l|{<s0>T|<s1>F}}"];
	Node0x556a1fca8040:s0 -> Node0x556a1fca7f60;
	Node0x556a1fca8040:s1 -> Node0x556a1fca8480;
	Node0x556a1fca7f60 [shape=record,label="{%12:\l\l  %13 = load i32, i32* %2, align 4\l  store i32 %13, i32* %i, align 4\l  br label %14\l}"];
	Node0x556a1fca7f60 -> Node0x556a1fca8680;
	Node0x556a1fca8680 [shape=record,label="{%14:\l\l  %15 = load i32, i32* %i, align 4\l  %16 = load i32, i32* %1, align 4\l  %17 = icmp sle i32 %15, %16\l  br i1 %17, label %18, label %32\l|{<s0>T|<s1>F}}"];
	Node0x556a1fca8680:s0 -> Node0x556a1fca8900;
	Node0x556a1fca8680:s1 -> Node0x556a1fca8950;
	Node0x556a1fca8900 [shape=record,label="{%18:\l\l  %19 = load i32, i32* %1, align 4\l  %20 = load i32, i32* %i, align 4\l  %21 = srem i32 %19, %20\l  %22 = icmp eq i32 %21, 0\l  br i1 %22, label %23, label %28\l|{<s0>T|<s1>F}}"];
	Node0x556a1fca8900:s0 -> Node0x556a1fca8c30;
	Node0x556a1fca8900:s1 -> Node0x556a1fca8c80;
	Node0x556a1fca8c30 [shape=record,label="{%23:\l\l  %24 = load i32, i32* %1, align 4\l  %25 = load i32, i32* %i, align 4\l  %26 = sdiv i32 %24, %25\l  %27 = load i32, i32* %i, align 4\l  call void @_Z4calcii(i32 %26, i32 %27)\l  br label %28\l}"];
	Node0x556a1fca8c30 -> Node0x556a1fca8c80;
	Node0x556a1fca8c80 [shape=record,label="{%28:\l\l  br label %29\l}"];
	Node0x556a1fca8c80 -> Node0x556a1fca90b0;
	Node0x556a1fca90b0 [shape=record,label="{%29:\l\l  %30 = load i32, i32* %i, align 4\l  %31 = add nsw i32 %30, 1\l  store i32 %31, i32* %i, align 4\l  br label %14\l}"];
	Node0x556a1fca90b0 -> Node0x556a1fca8680;
	Node0x556a1fca8950 [shape=record,label="{%32:\l\l  br label %33\l}"];
	Node0x556a1fca8950 -> Node0x556a1fca8480;
	Node0x556a1fca8480 [shape=record,label="{%33:\l\l  br label %34\l}"];
	Node0x556a1fca8480 -> Node0x556a1fca8260;
	Node0x556a1fca8260 [shape=record,label="{%34:\l\l  ret void\l}"];
}
