digraph "CFG for 'main' function" {
	label="CFG for 'main' function";

	Node0x5593165a2e30 [shape=record,label="{%0:\l  %1 = alloca i32, align 4\l  %n = alloca i32, align 4\l  %i = alloca i32, align 4\l  %j = alloca i32, align 4\l  %k = alloca i32, align 4\l  %max = alloca i32, align 4\l  %name = alloca [2000 x [30 x i8]], align 16\l  %alp = alloca [27 x i8], align 16\l  %No = alloca [2000 x i32], align 16\l  %num = alloca [30 x i32], align 16\l  store i32 0, i32* %1, align 4\l  %2 = bitcast [27 x i8]* %alp to i8*\l  call void @llvm.memcpy.p0i8.p0i8.i64(i8* %2, i8* getelementptr inbounds ([27\l... x i8], [27 x i8]* @_ZZ4mainE3alp, i32 0, i32 0), i64 27, i32 16, i1 false)\l  %3 = bitcast [30 x i32]* %num to i8*\l  call void @llvm.memset.p0i8.i64(i8* %3, i8 0, i64 120, i32 16, i1 false)\l  %4 = call i32 (i8*, ...) @scanf(i8* getelementptr inbounds ([3 x i8], [3 x\l... i8]* @.str, i32 0, i32 0), i32* %n)\l  store i32 0, i32* %i, align 4\l  br label %5\l}"];
	Node0x5593165a2e30 -> Node0x5593165a4260;
	Node0x5593165a4260 [shape=record,label="{%5:\l\l  %6 = load i32, i32* %i, align 4\l  %7 = load i32, i32* %n, align 4\l  %8 = icmp slt i32 %6, %7\l  br i1 %8, label %9, label %21\l|{<s0>T|<s1>F}}"];
	Node0x5593165a4260:s0 -> Node0x5593165a4190;
	Node0x5593165a4260:s1 -> Node0x5593165a4520;
	Node0x5593165a4190 [shape=record,label="{%9:\l\l  %10 = load i32, i32* %i, align 4\l  %11 = sext i32 %10 to i64\l  %12 = getelementptr inbounds [2000 x i32], [2000 x i32]* %No, i64 0, i64 %11\l  %13 = load i32, i32* %i, align 4\l  %14 = sext i32 %13 to i64\l  %15 = getelementptr inbounds [2000 x [30 x i8]], [2000 x [30 x i8]]* %name,\l... i64 0, i64 %14\l  %16 = getelementptr inbounds [30 x i8], [30 x i8]* %15, i32 0, i32 0\l  %17 = call i32 (i8*, ...) @scanf(i8* getelementptr inbounds ([6 x i8], [6 x\l... i8]* @.str.1, i32 0, i32 0), i32* %12, i8* %16)\l  br label %18\l}"];
	Node0x5593165a4190 -> Node0x5593165a4c40;
	Node0x5593165a4c40 [shape=record,label="{%18:\l\l  %19 = load i32, i32* %i, align 4\l  %20 = add nsw i32 %19, 1\l  store i32 %20, i32* %i, align 4\l  br label %5\l}"];
	Node0x5593165a4c40 -> Node0x5593165a4260;
	Node0x5593165a4520 [shape=record,label="{%21:\l\l  store i32 0, i32* %i, align 4\l  br label %22\l}"];
	Node0x5593165a4520 -> Node0x5593165a4f70;
	Node0x5593165a4f70 [shape=record,label="{%22:\l\l  %23 = load i32, i32* %i, align 4\l  %24 = icmp slt i32 %23, 26\l  br i1 %24, label %25, label %73\l|{<s0>T|<s1>F}}"];
	Node0x5593165a4f70:s0 -> Node0x5593165a5100;
	Node0x5593165a4f70:s1 -> Node0x5593165a5150;
	Node0x5593165a5100 [shape=record,label="{%25:\l\l  store i32 0, i32* %k, align 4\l  br label %26\l}"];
	Node0x5593165a5100 -> Node0x5593165a52f0;
	Node0x5593165a52f0 [shape=record,label="{%26:\l\l  %27 = load i32, i32* %k, align 4\l  %28 = load i32, i32* %n, align 4\l  %29 = icmp slt i32 %27, %28\l  br i1 %29, label %30, label %69\l|{<s0>T|<s1>F}}"];
	Node0x5593165a52f0:s0 -> Node0x5593165a44b0;
	Node0x5593165a52f0:s1 -> Node0x5593165a54e0;
	Node0x5593165a44b0 [shape=record,label="{%30:\l\l  store i32 0, i32* %j, align 4\l  br label %31\l}"];
	Node0x5593165a44b0 -> Node0x5593165a8b80;
	Node0x5593165a8b80 [shape=record,label="{%31:\l\l  %32 = load i32, i32* %j, align 4\l  %33 = sext i32 %32 to i64\l  %34 = load i32, i32* %k, align 4\l  %35 = sext i32 %34 to i64\l  %36 = getelementptr inbounds [2000 x [30 x i8]], [2000 x [30 x i8]]* %name,\l... i64 0, i64 %35\l  %37 = getelementptr inbounds [30 x i8], [30 x i8]* %36, i32 0, i32 0\l  %38 = call i64 @strlen(i8* %37) #6\l  %39 = icmp ult i64 %33, %38\l  br i1 %39, label %40, label %65\l|{<s0>T|<s1>F}}"];
	Node0x5593165a8b80:s0 -> Node0x5593165a9260;
	Node0x5593165a8b80:s1 -> Node0x5593165a92b0;
	Node0x5593165a9260 [shape=record,label="{%40:\l\l  %41 = load i32, i32* %j, align 4\l  %42 = sext i32 %41 to i64\l  %43 = load i32, i32* %k, align 4\l  %44 = sext i32 %43 to i64\l  %45 = getelementptr inbounds [2000 x [30 x i8]], [2000 x [30 x i8]]* %name,\l... i64 0, i64 %44\l  %46 = getelementptr inbounds [30 x i8], [30 x i8]* %45, i64 0, i64 %42\l  %47 = load i8, i8* %46, align 1\l  %48 = sext i8 %47 to i32\l  %49 = load i32, i32* %i, align 4\l  %50 = sext i32 %49 to i64\l  %51 = getelementptr inbounds [27 x i8], [27 x i8]* %alp, i64 0, i64 %50\l  %52 = load i8, i8* %51, align 1\l  %53 = sext i8 %52 to i32\l  %54 = icmp eq i32 %48, %53\l  br i1 %54, label %55, label %61\l|{<s0>T|<s1>F}}"];
	Node0x5593165a9260:s0 -> Node0x5593165a99f0;
	Node0x5593165a9260:s1 -> Node0x5593165a9a40;
	Node0x5593165a99f0 [shape=record,label="{%55:\l\l  %56 = load i32, i32* %i, align 4\l  %57 = sext i32 %56 to i64\l  %58 = getelementptr inbounds [30 x i32], [30 x i32]* %num, i64 0, i64 %57\l  %59 = load i32, i32* %58, align 4\l  %60 = add nsw i32 %59, 1\l  store i32 %60, i32* %58, align 4\l  br label %65\l}"];
	Node0x5593165a99f0 -> Node0x5593165a92b0;
	Node0x5593165a9a40 [shape=record,label="{%61:\l\l  br label %62\l}"];
	Node0x5593165a9a40 -> Node0x5593165a9e80;
	Node0x5593165a9e80 [shape=record,label="{%62:\l\l  %63 = load i32, i32* %j, align 4\l  %64 = add nsw i32 %63, 1\l  store i32 %64, i32* %j, align 4\l  br label %31\l}"];
	Node0x5593165a9e80 -> Node0x5593165a8b80;
	Node0x5593165a92b0 [shape=record,label="{%65:\l\l  br label %66\l}"];
	Node0x5593165a92b0 -> Node0x5593165a8d70;
	Node0x5593165a8d70 [shape=record,label="{%66:\l\l  %67 = load i32, i32* %k, align 4\l  %68 = add nsw i32 %67, 1\l  store i32 %68, i32* %k, align 4\l  br label %26\l}"];
	Node0x5593165a8d70 -> Node0x5593165a52f0;
	Node0x5593165a54e0 [shape=record,label="{%69:\l\l  br label %70\l}"];
	Node0x5593165a54e0 -> Node0x5593165aa580;
	Node0x5593165aa580 [shape=record,label="{%70:\l\l  %71 = load i32, i32* %i, align 4\l  %72 = add nsw i32 %71, 1\l  store i32 %72, i32* %i, align 4\l  br label %22\l}"];
	Node0x5593165aa580 -> Node0x5593165a4f70;
	Node0x5593165a5150 [shape=record,label="{%73:\l\l  %74 = getelementptr inbounds [30 x i32], [30 x i32]* %num, i64 0, i64 0\l  %75 = load i32, i32* %74, align 16\l  store i32 %75, i32* %max, align 4\l  store i32 1, i32* %i, align 4\l  br label %76\l}"];
	Node0x5593165a5150 -> Node0x5593165aa9f0;
	Node0x5593165aa9f0 [shape=record,label="{%76:\l\l  %77 = load i32, i32* %i, align 4\l  %78 = icmp slt i32 %77, 26\l  br i1 %78, label %79, label %95\l|{<s0>T|<s1>F}}"];
	Node0x5593165aa9f0:s0 -> Node0x5593165aab80;
	Node0x5593165aa9f0:s1 -> Node0x5593165aabd0;
	Node0x5593165aab80 [shape=record,label="{%79:\l\l  %80 = load i32, i32* %i, align 4\l  %81 = sext i32 %80 to i64\l  %82 = getelementptr inbounds [30 x i32], [30 x i32]* %num, i64 0, i64 %81\l  %83 = load i32, i32* %82, align 4\l  %84 = load i32, i32* %max, align 4\l  %85 = icmp sgt i32 %83, %84\l  br i1 %85, label %86, label %91\l|{<s0>T|<s1>F}}"];
	Node0x5593165aab80:s0 -> Node0x5593165aaf50;
	Node0x5593165aab80:s1 -> Node0x5593165aafa0;
	Node0x5593165aaf50 [shape=record,label="{%86:\l\l  %87 = load i32, i32* %i, align 4\l  %88 = sext i32 %87 to i64\l  %89 = getelementptr inbounds [30 x i32], [30 x i32]* %num, i64 0, i64 %88\l  %90 = load i32, i32* %89, align 4\l  store i32 %90, i32* %max, align 4\l  br label %91\l}"];
	Node0x5593165aaf50 -> Node0x5593165aafa0;
	Node0x5593165aafa0 [shape=record,label="{%91:\l\l  br label %92\l}"];
	Node0x5593165aafa0 -> Node0x5593165ab320;
	Node0x5593165ab320 [shape=record,label="{%92:\l\l  %93 = load i32, i32* %i, align 4\l  %94 = add nsw i32 %93, 1\l  store i32 %94, i32* %i, align 4\l  br label %76\l}"];
	Node0x5593165ab320 -> Node0x5593165aa9f0;
	Node0x5593165aabd0 [shape=record,label="{%95:\l\l  store i32 0, i32* %i, align 4\l  br label %96\l}"];
	Node0x5593165aabd0 -> Node0x5593165ab610;
	Node0x5593165ab610 [shape=record,label="{%96:\l\l  %97 = load i32, i32* %i, align 4\l  %98 = icmp slt i32 %97, 26\l  br i1 %98, label %99, label %156\l|{<s0>T|<s1>F}}"];
	Node0x5593165ab610:s0 -> Node0x5593165ab7a0;
	Node0x5593165ab610:s1 -> Node0x5593165ab7f0;
	Node0x5593165ab7a0 [shape=record,label="{%99:\l\l  %100 = load i32, i32* %i, align 4\l  %101 = sext i32 %100 to i64\l  %102 = getelementptr inbounds [30 x i32], [30 x i32]* %num, i64 0, i64 %101\l  %103 = load i32, i32* %102, align 4\l  %104 = load i32, i32* %max, align 4\l  %105 = icmp eq i32 %103, %104\l  br i1 %105, label %106, label %152\l|{<s0>T|<s1>F}}"];
	Node0x5593165ab7a0:s0 -> Node0x5593165abb70;
	Node0x5593165ab7a0:s1 -> Node0x5593165abbc0;
	Node0x5593165abb70 [shape=record,label="{%106:\l\l  %107 = load i32, i32* %i, align 4\l  %108 = sext i32 %107 to i64\l  %109 = getelementptr inbounds [27 x i8], [27 x i8]* %alp, i64 0, i64 %108\l  %110 = load i8, i8* %109, align 1\l  %111 = sext i8 %110 to i32\l  %112 = load i32, i32* %max, align 4\l  %113 = call i32 (i8*, ...) @printf(i8* getelementptr inbounds ([7 x i8], [7\l... x i8]* @.str.2, i32 0, i32 0), i32 %111, i32 %112)\l  store i32 0, i32* %k, align 4\l  br label %114\l}"];
	Node0x5593165abb70 -> Node0x5593165ac240;
	Node0x5593165ac240 [shape=record,label="{%114:\l\l  %115 = load i32, i32* %k, align 4\l  %116 = load i32, i32* %n, align 4\l  %117 = icmp slt i32 %115, %116\l  br i1 %117, label %118, label %151\l|{<s0>T|<s1>F}}"];
	Node0x5593165ac240:s0 -> Node0x5593165ac430;
	Node0x5593165ac240:s1 -> Node0x5593165ac480;
	Node0x5593165ac430 [shape=record,label="{%118:\l\l  store i32 0, i32* %j, align 4\l  br label %119\l}"];
	Node0x5593165ac430 -> Node0x5593165ac5e0;
	Node0x5593165ac5e0 [shape=record,label="{%119:\l\l  %120 = load i32, i32* %j, align 4\l  %121 = icmp slt i32 %120, 27\l  br i1 %121, label %122, label %147\l|{<s0>T|<s1>F}}"];
	Node0x5593165ac5e0:s0 -> Node0x5593165ac770;
	Node0x5593165ac5e0:s1 -> Node0x5593165ac800;
	Node0x5593165ac770 [shape=record,label="{%122:\l\l  %123 = load i32, i32* %j, align 4\l  %124 = sext i32 %123 to i64\l  %125 = load i32, i32* %k, align 4\l  %126 = sext i32 %125 to i64\l  %127 = getelementptr inbounds [2000 x [30 x i8]], [2000 x [30 x i8]]* %name,\l... i64 0, i64 %126\l  %128 = getelementptr inbounds [30 x i8], [30 x i8]* %127, i64 0, i64 %124\l  %129 = load i8, i8* %128, align 1\l  %130 = sext i8 %129 to i32\l  %131 = load i32, i32* %i, align 4\l  %132 = sext i32 %131 to i64\l  %133 = getelementptr inbounds [27 x i8], [27 x i8]* %alp, i64 0, i64 %132\l  %134 = load i8, i8* %133, align 1\l  %135 = sext i8 %134 to i32\l  %136 = icmp eq i32 %130, %135\l  br i1 %136, label %137, label %143\l|{<s0>T|<s1>F}}"];
	Node0x5593165ac770:s0 -> Node0x5593165aa370;
	Node0x5593165ac770:s1 -> Node0x5593165aa3c0;
	Node0x5593165aa370 [shape=record,label="{%137:\l\l  %138 = load i32, i32* %k, align 4\l  %139 = sext i32 %138 to i64\l  %140 = getelementptr inbounds [2000 x i32], [2000 x i32]* %No, i64 0, i64\l... %139\l  %141 = load i32, i32* %140, align 4\l  %142 = call i32 (i8*, ...) @printf(i8* getelementptr inbounds ([4 x i8], [4\l... x i8]* @.str.3, i32 0, i32 0), i32 %141)\l  br label %147\l}"];
	Node0x5593165aa370 -> Node0x5593165ac800;
	Node0x5593165aa3c0 [shape=record,label="{%143:\l\l  br label %144\l}"];
	Node0x5593165aa3c0 -> Node0x5593165ad850;
	Node0x5593165ad850 [shape=record,label="{%144:\l\l  %145 = load i32, i32* %j, align 4\l  %146 = add nsw i32 %145, 1\l  store i32 %146, i32* %j, align 4\l  br label %119\l}"];
	Node0x5593165ad850 -> Node0x5593165ac5e0;
	Node0x5593165ac800 [shape=record,label="{%147:\l\l  br label %148\l}"];
	Node0x5593165ac800 -> Node0x5593165adac0;
	Node0x5593165adac0 [shape=record,label="{%148:\l\l  %149 = load i32, i32* %k, align 4\l  %150 = add nsw i32 %149, 1\l  store i32 %150, i32* %k, align 4\l  br label %114\l}"];
	Node0x5593165adac0 -> Node0x5593165ac240;
	Node0x5593165ac480 [shape=record,label="{%151:\l\l  br label %152\l}"];
	Node0x5593165ac480 -> Node0x5593165abbc0;
	Node0x5593165abbc0 [shape=record,label="{%152:\l\l  br label %153\l}"];
	Node0x5593165abbc0 -> Node0x5593165add90;
	Node0x5593165add90 [shape=record,label="{%153:\l\l  %154 = load i32, i32* %i, align 4\l  %155 = add nsw i32 %154, 1\l  store i32 %155, i32* %i, align 4\l  br label %96\l}"];
	Node0x5593165add90 -> Node0x5593165ab610;
	Node0x5593165ab7f0 [shape=record,label="{%156:\l\l  ret i32 0\l}"];
}
