digraph "Call graph" {
	label="Call graph";

	Node0x55662f658a00 [shape=record,label="{external node}"];
	Node0x55662f658a00 -> Node0x55662f658b40;
	Node0x55662f658a00 -> Node0x55662f658cf0;
	Node0x55662f658a00 -> Node0x55662f658cf0;
	Node0x55662f658a00 -> Node0x55662f658bf0;
	Node0x55662f658a00 -> Node0x55662f670fd0;
	Node0x55662f658a00 -> Node0x55662f671210;
	Node0x55662f658a00 -> Node0x55662f670f10;
	Node0x55662f658a00 -> Node0x55662f671190;
	Node0x55662f658a00 -> Node0x55662f6712a0;
	Node0x55662f658a00 -> Node0x55662f671080;
	Node0x55662f671080 [shape=record,label="{_GLOBAL__sub_I_428.cpp}"];
	Node0x55662f671080 -> Node0x55662f658ac0;
	Node0x55662f658ac0 [shape=record,label="{__cxx_global_var_init}"];
	Node0x55662f658ac0 -> Node0x55662f658b40;
	Node0x55662f658ac0 -> Node0x55662f658bf0;
	Node0x55662f658b40 [shape=record,label="{_ZNSt8ios_base4InitC1Ev}"];
	Node0x55662f658b40 -> Node0x55662f658a40;
	Node0x55662f658cf0 [shape=record,label="{_ZNSt8ios_base4InitD1Ev}"];
	Node0x55662f658cf0 -> Node0x55662f658a40;
	Node0x55662f658bf0 [shape=record,label="{__cxa_atexit}"];
	Node0x55662f658bf0 -> Node0x55662f658a40;
	Node0x55662f670fd0 [shape=record,label="{main}"];
	Node0x55662f670fd0 -> Node0x55662f670f10;
	Node0x55662f670fd0 -> Node0x55662f670f10;
	Node0x55662f670fd0 -> Node0x55662f671190;
	Node0x55662f670fd0 -> Node0x55662f6712a0;
	Node0x55662f670fd0 -> Node0x55662f671190;
	Node0x55662f671210 [shape=record,label="{llvm.memset.p0i8.i64}"];
	Node0x55662f670f10 [shape=record,label="{scanf}"];
	Node0x55662f670f10 -> Node0x55662f658a40;
	Node0x55662f671190 [shape=record,label="{printf}"];
	Node0x55662f671190 -> Node0x55662f658a40;
	Node0x55662f6712a0 [shape=record,label="{strchr}"];
	Node0x55662f6712a0 -> Node0x55662f658a40;
}
