digraph "CFG for 'main' function" {
	label="CFG for 'main' function";

	Node0x561dbdde2a80 [shape=record,label="{%0:\l  %1 = alloca i32, align 4\l  %a = alloca [300 x [50 x i8]], align 16\l  %b = alloca [300 x i32], align 16\l  %i = alloca i32, align 4\l  %n = alloca i32, align 4\l  %m = alloca i32, align 4\l  store i32 0, i32* %1, align 4\l  store i32 1, i32* %i, align 4\l  %2 = getelementptr inbounds [300 x [50 x i8]], [300 x [50 x i8]]* %a, i64 0,\l... i64 0\l  %3 = getelementptr inbounds [50 x i8], [50 x i8]* %2, i32 0, i32 0\l  %4 = call i32 (i8*, ...) @scanf(i8* getelementptr inbounds ([3 x i8], [3 x\l... i8]* @.str, i32 0, i32 0), i8* %3)\l  %5 = getelementptr inbounds [300 x [50 x i8]], [300 x [50 x i8]]* %a, i64 0,\l... i64 0\l  %6 = getelementptr inbounds [50 x i8], [50 x i8]* %5, i32 0, i32 0\l  %7 = call i64 @strlen(i8* %6) #5\l  %8 = call i32 (i8*, ...) @printf(i8* getelementptr inbounds ([3 x i8], [3 x\l... i8]* @.str.1, i32 0, i32 0), i64 %7)\l  br label %9\l}"];
	Node0x561dbdde2a80 -> Node0x561dbdde3500;
	Node0x561dbdde3500 [shape=record,label="{%9:\l\l  %10 = load i32, i32* %i, align 4\l  %11 = sext i32 %10 to i64\l  %12 = getelementptr inbounds [300 x [50 x i8]], [300 x [50 x i8]]* %a, i64\l... 0, i64 %11\l  %13 = getelementptr inbounds [50 x i8], [50 x i8]* %12, i32 0, i32 0\l  %14 = call i32 (i8*, ...) @scanf(i8* getelementptr inbounds ([3 x i8], [3 x\l... i8]* @.str, i32 0, i32 0), i8* %13)\l  %15 = icmp ne i32 %14, -1\l  br i1 %15, label %16, label %33\l|{<s0>T|<s1>F}}"];
	Node0x561dbdde3500:s0 -> Node0x561dbdde3f50;
	Node0x561dbdde3500:s1 -> Node0x561dbdde3fe0;
	Node0x561dbdde3f50 [shape=record,label="{%16:\l\l  %17 = load i32, i32* %i, align 4\l  %18 = sext i32 %17 to i64\l  %19 = getelementptr inbounds [300 x [50 x i8]], [300 x [50 x i8]]* %a, i64\l... 0, i64 %18\l  %20 = getelementptr inbounds [50 x i8], [50 x i8]* %19, i32 0, i32 0\l  %21 = call i64 @strlen(i8* %20) #5\l  %22 = trunc i64 %21 to i32\l  %23 = load i32, i32* %i, align 4\l  %24 = sext i32 %23 to i64\l  %25 = getelementptr inbounds [300 x i32], [300 x i32]* %b, i64 0, i64 %24\l  store i32 %22, i32* %25, align 4\l  %26 = load i32, i32* %i, align 4\l  %27 = sext i32 %26 to i64\l  %28 = getelementptr inbounds [300 x i32], [300 x i32]* %b, i64 0, i64 %27\l  %29 = load i32, i32* %28, align 4\l  %30 = call i32 (i8*, ...) @printf(i8* getelementptr inbounds ([4 x i8], [4 x\l... i8]* @.str.2, i32 0, i32 0), i32 %29)\l  %31 = load i32, i32* %i, align 4\l  %32 = add nsw i32 %31, 1\l  store i32 %32, i32* %i, align 4\l  br label %9\l}"];
	Node0x561dbdde3f50 -> Node0x561dbdde3500;
	Node0x561dbdde3fe0 [shape=record,label="{%33:\l\l  %34 = load i32, i32* %1, align 4\l  ret i32 %34\l}"];
}
