digraph "Call graph" {
	label="Call graph";

	Node0x55920f615280 [shape=record,label="{external node}"];
	Node0x55920f615280 -> Node0x55920f6153c0;
	Node0x55920f615280 -> Node0x55920f61b1f0;
	Node0x55920f615280 -> Node0x55920f61b1f0;
	Node0x55920f615280 -> Node0x55920f61b0f0;
	Node0x55920f615280 -> Node0x55920f61b380;
	Node0x55920f615280 -> Node0x55920f61b400;
	Node0x55920f615280 -> Node0x55920f627570;
	Node0x55920f615280 -> Node0x55920f6275f0;
	Node0x55920f615280 -> Node0x55920f627760;
	Node0x55920f627760 [shape=record,label="{_GLOBAL__sub_I_68.cpp}"];
	Node0x55920f627760 -> Node0x55920f615340;
	Node0x55920f615340 [shape=record,label="{__cxx_global_var_init}"];
	Node0x55920f615340 -> Node0x55920f6153c0;
	Node0x55920f615340 -> Node0x55920f61b0f0;
	Node0x55920f6153c0 [shape=record,label="{_ZNSt8ios_base4InitC1Ev}"];
	Node0x55920f6153c0 -> Node0x55920f6152c0;
	Node0x55920f61b1f0 [shape=record,label="{_ZNSt8ios_base4InitD1Ev}"];
	Node0x55920f61b1f0 -> Node0x55920f6152c0;
	Node0x55920f61b0f0 [shape=record,label="{__cxa_atexit}"];
	Node0x55920f61b0f0 -> Node0x55920f6152c0;
	Node0x55920f61b380 [shape=record,label="{main}"];
	Node0x55920f61b380 -> Node0x55920f61b400;
	Node0x55920f61b380 -> Node0x55920f627570;
	Node0x55920f61b380 -> Node0x55920f6275f0;
	Node0x55920f61b380 -> Node0x55920f6275f0;
	Node0x55920f61b400 [shape=record,label="{gets}"];
	Node0x55920f61b400 -> Node0x55920f6152c0;
	Node0x55920f627570 [shape=record,label="{strlen}"];
	Node0x55920f627570 -> Node0x55920f6152c0;
	Node0x55920f6275f0 [shape=record,label="{printf}"];
	Node0x55920f6275f0 -> Node0x55920f6152c0;
}
