digraph "CFG for 'main' function" {
	label="CFG for 'main' function";

	Node0x55ff27733a80 [shape=record,label="{%0:\l  %1 = alloca i32, align 4\l  %ch = alloca [2000 x i8], align 16\l  %flag = alloca i32, align 4\l  %n = alloca i32, align 4\l  %i = alloca i32, align 4\l  %j = alloca i32, align 4\l  store i32 0, i32* %1, align 4\l  %2 = bitcast [2000 x i8]* %ch to i8*\l  call void @llvm.memset.p0i8.i64(i8* %2, i8 0, i64 2000, i32 16, i1 false)\l  store i32 0, i32* %flag, align 4\l  store i32 0, i32* %n, align 4\l  store i32 0, i32* %j, align 4\l  %3 = getelementptr inbounds [2000 x i8], [2000 x i8]* %ch, i32 0, i32 0\l  %4 = call i8* @gets(i8* %3)\l  store i32 0, i32* %i, align 4\l  br label %5\l}"];
	Node0x55ff27733a80 -> Node0x55ff27734a40;
	Node0x55ff27734a40 [shape=record,label="{%5:\l\l  %6 = load i32, i32* %i, align 4\l  %7 = sext i32 %6 to i64\l  %8 = getelementptr inbounds [2000 x i8], [2000 x i8]* %ch, i64 0, i64 %7\l  %9 = load i8, i8* %8, align 1\l  %10 = sext i8 %9 to i32\l  %11 = icmp ne i32 %10, 0\l  br i1 %11, label %12, label %44\l|{<s0>T|<s1>F}}"];
	Node0x55ff27734a40:s0 -> Node0x55ff27734970;
	Node0x55ff27734a40:s1 -> Node0x55ff27734ea0;
	Node0x55ff27734970 [shape=record,label="{%12:\l\l  %13 = load i32, i32* %i, align 4\l  %14 = sext i32 %13 to i64\l  %15 = getelementptr inbounds [2000 x i8], [2000 x i8]* %ch, i64 0, i64 %14\l  %16 = load i8, i8* %15, align 1\l  %17 = sext i8 %16 to i32\l  %18 = icmp ne i32 %17, 32\l  br i1 %18, label %19, label %26\l|{<s0>T|<s1>F}}"];
	Node0x55ff27734970:s0 -> Node0x55ff27735310;
	Node0x55ff27734970:s1 -> Node0x55ff277353a0;
	Node0x55ff27735310 [shape=record,label="{%19:\l\l  %20 = load i32, i32* %flag, align 4\l  %21 = icmp eq i32 %20, 0\l  br i1 %21, label %22, label %23\l|{<s0>T|<s1>F}}"];
	Node0x55ff27735310:s0 -> Node0x55ff277355a0;
	Node0x55ff27735310:s1 -> Node0x55ff277355f0;
	Node0x55ff277355a0 [shape=record,label="{%22:\l\l  store i32 1, i32* %flag, align 4\l  br label %23\l}"];
	Node0x55ff277355a0 -> Node0x55ff277355f0;
	Node0x55ff277355f0 [shape=record,label="{%23:\l\l  %24 = load i32, i32* %n, align 4\l  %25 = add nsw i32 %24, 1\l  store i32 %25, i32* %n, align 4\l  br label %40\l}"];
	Node0x55ff277355f0 -> Node0x55ff27735950;
	Node0x55ff277353a0 [shape=record,label="{%26:\l\l  %27 = load i32, i32* %flag, align 4\l  %28 = icmp eq i32 %27, 1\l  br i1 %28, label %29, label %39\l|{<s0>T|<s1>F}}"];
	Node0x55ff277353a0:s0 -> Node0x55ff27735ae0;
	Node0x55ff277353a0:s1 -> Node0x55ff27735b30;
	Node0x55ff27735ae0 [shape=record,label="{%29:\l\l  %30 = load i32, i32* %j, align 4\l  %31 = icmp ne i32 %30, 0\l  br i1 %31, label %32, label %34\l|{<s0>T|<s1>F}}"];
	Node0x55ff27735ae0:s0 -> Node0x55ff27735cf0;
	Node0x55ff27735ae0:s1 -> Node0x55ff27735d40;
	Node0x55ff27735cf0 [shape=record,label="{%32:\l\l  %33 = call i32 (i8*, ...) @printf(i8* getelementptr inbounds ([2 x i8], [2 x\l... i8]* @.str, i32 0, i32 0))\l  br label %34\l}"];
	Node0x55ff27735cf0 -> Node0x55ff27735d40;
	Node0x55ff27735d40 [shape=record,label="{%34:\l\l  %35 = load i32, i32* %n, align 4\l  %36 = call i32 (i8*, ...) @printf(i8* getelementptr inbounds ([3 x i8], [3 x\l... i8]* @.str.1, i32 0, i32 0), i32 %35)\l  store i32 0, i32* %n, align 4\l  %37 = load i32, i32* %j, align 4\l  %38 = add nsw i32 %37, 1\l  store i32 %38, i32* %j, align 4\l  store i32 0, i32* %flag, align 4\l  br label %39\l}"];
	Node0x55ff27735d40 -> Node0x55ff27735b30;
	Node0x55ff27735b30 [shape=record,label="{%39:\l\l  br label %40\l}"];
	Node0x55ff27735b30 -> Node0x55ff27735950;
	Node0x55ff27735950 [shape=record,label="{%40:\l\l  br label %41\l}"];
	Node0x55ff27735950 -> Node0x55ff277382c0;
	Node0x55ff277382c0 [shape=record,label="{%41:\l\l  %42 = load i32, i32* %i, align 4\l  %43 = add nsw i32 %42, 1\l  store i32 %43, i32* %i, align 4\l  br label %5\l}"];
	Node0x55ff277382c0 -> Node0x55ff27734a40;
	Node0x55ff27734ea0 [shape=record,label="{%44:\l\l  %45 = load i32, i32* %n, align 4\l  %46 = icmp ne i32 %45, 0\l  br i1 %46, label %47, label %55\l|{<s0>T|<s1>F}}"];
	Node0x55ff27734ea0:s0 -> Node0x55ff27738610;
	Node0x55ff27734ea0:s1 -> Node0x55ff27738660;
	Node0x55ff27738610 [shape=record,label="{%47:\l\l  %48 = load i32, i32* %j, align 4\l  %49 = icmp ne i32 %48, 0\l  br i1 %49, label %50, label %52\l|{<s0>T|<s1>F}}"];
	Node0x55ff27738610:s0 -> Node0x55ff27738820;
	Node0x55ff27738610:s1 -> Node0x55ff27738870;
	Node0x55ff27738820 [shape=record,label="{%50:\l\l  %51 = call i32 (i8*, ...) @printf(i8* getelementptr inbounds ([2 x i8], [2 x\l... i8]* @.str, i32 0, i32 0))\l  br label %52\l}"];
	Node0x55ff27738820 -> Node0x55ff27738870;
	Node0x55ff27738870 [shape=record,label="{%52:\l\l  %53 = load i32, i32* %n, align 4\l  %54 = call i32 (i8*, ...) @printf(i8* getelementptr inbounds ([3 x i8], [3 x\l... i8]* @.str.1, i32 0, i32 0), i32 %53)\l  br label %55\l}"];
	Node0x55ff27738870 -> Node0x55ff27738660;
	Node0x55ff27738660 [shape=record,label="{%55:\l\l  %56 = call i32 (i8*, ...) @printf(i8* getelementptr inbounds ([2 x i8], [2 x\l... i8]* @.str.2, i32 0, i32 0))\l  %57 = load i32, i32* %1, align 4\l  ret i32 %57\l}"];
}
