digraph "CFG for 'main' function" {
	label="CFG for 'main' function";

	Node0x55bad698d150 [shape=record,label="{%0:\l  %1 = alloca i32, align 4\l  %i = alloca i32, align 4\l  %j = alloca i32, align 4\l  %str = alloca [10 x [10 x i8]], align 16\l  %substr = alloca [10 x [3 x i8]], align 16\l  store i32 0, i32* %1, align 4\l  store i32 0, i32* %i, align 4\l  br label %2\l}"];
	Node0x55bad698d150 -> Node0x55bad698d650;
	Node0x55bad698d650 [shape=record,label="{%2:\l\l  %3 = load i32, i32* %i, align 4\l  %4 = sext i32 %3 to i64\l  %5 = getelementptr inbounds [10 x [10 x i8]], [10 x [10 x i8]]* %str, i64 0,\l... i64 %4\l  %6 = getelementptr inbounds [10 x i8], [10 x i8]* %5, i32 0, i32 0\l  %7 = load i32, i32* %i, align 4\l  %8 = sext i32 %7 to i64\l  %9 = getelementptr inbounds [10 x [3 x i8]], [10 x [3 x i8]]* %substr, i64\l... 0, i64 %8\l  %10 = getelementptr inbounds [3 x i8], [3 x i8]* %9, i32 0, i32 0\l  %11 = call i32 (i8*, ...) @scanf(i8* getelementptr inbounds ([6 x i8], [6 x\l... i8]* @.str.1, i32 0, i32 0), i8* %6, i8* %10)\l  %12 = icmp ne i32 %11, -1\l  br i1 %12, label %13, label %17\l|{<s0>T|<s1>F}}"];
	Node0x55bad698d650:s0 -> Node0x55bad698dd90;
	Node0x55bad698d650:s1 -> Node0x55bad698de20;
	Node0x55bad698dd90 [shape=record,label="{%13:\l\l  br label %14\l}"];
	Node0x55bad698dd90 -> Node0x55bad698df40;
	Node0x55bad698df40 [shape=record,label="{%14:\l\l  %15 = load i32, i32* %i, align 4\l  %16 = add nsw i32 %15, 1\l  store i32 %16, i32* %i, align 4\l  br label %2\l}"];
	Node0x55bad698df40 -> Node0x55bad698d650;
	Node0x55bad698de20 [shape=record,label="{%17:\l\l  store i32 0, i32* %j, align 4\l  br label %18\l}"];
	Node0x55bad698de20 -> Node0x55bad698e2c0;
	Node0x55bad698e2c0 [shape=record,label="{%18:\l\l  %19 = load i32, i32* %j, align 4\l  %20 = load i32, i32* %i, align 4\l  %21 = icmp slt i32 %19, %20\l  br i1 %21, label %22, label %34\l|{<s0>T|<s1>F}}"];
	Node0x55bad698e2c0:s0 -> Node0x55bad698e4b0;
	Node0x55bad698e2c0:s1 -> Node0x55bad698e500;
	Node0x55bad698e4b0 [shape=record,label="{%22:\l\l  %23 = load i32, i32* %j, align 4\l  %24 = sext i32 %23 to i64\l  %25 = getelementptr inbounds [10 x [10 x i8]], [10 x [10 x i8]]* %str, i64\l... 0, i64 %24\l  %26 = getelementptr inbounds [10 x i8], [10 x i8]* %25, i32 0, i32 0\l  %27 = load i32, i32* %j, align 4\l  %28 = sext i32 %27 to i64\l  %29 = getelementptr inbounds [10 x [3 x i8]], [10 x [3 x i8]]* %substr, i64\l... 0, i64 %28\l  %30 = getelementptr inbounds [3 x i8], [3 x i8]* %29, i32 0, i32 0\l  call void @_Z3p_sPcS_(i8* %26, i8* %30)\l  br label %31\l}"];
	Node0x55bad698e4b0 -> Node0x55bad698eb10;
	Node0x55bad698eb10 [shape=record,label="{%31:\l\l  %32 = load i32, i32* %j, align 4\l  %33 = add nsw i32 %32, 1\l  store i32 %33, i32* %j, align 4\l  br label %18\l}"];
	Node0x55bad698eb10 -> Node0x55bad698e2c0;
	Node0x55bad698e500 [shape=record,label="{%34:\l\l  %35 = load i32, i32* %1, align 4\l  ret i32 %35\l}"];
}
