digraph "CFG for '_GLOBAL__sub_I_21.cpp' function" {
	label="CFG for '_GLOBAL__sub_I_21.cpp' function";

	Node0x55d87013f1b0 [shape=record,label="{%0:\l  call void @__cxx_global_var_init()\l  ret void\l}"];
}
