digraph "CFG for 'main' function" {
	label="CFG for 'main' function";

	Node0x560356fa5b00 [shape=record,label="{%0:\l  %1 = alloca i32, align 4\l  %m = alloca i32, align 4\l  %n = alloca i32, align 4\l  %ans = alloca i32, align 4\l  store i32 0, i32* %1, align 4\l  %2 = call i32 (i8*, ...) @scanf(i8* getelementptr inbounds ([3 x i8], [3 x\l... i8]* @.str, i32 0, i32 0), i32* %m)\l  br label %3\l}"];
	Node0x560356fa5b00 -> Node0x560356fa6180;
	Node0x560356fa6180 [shape=record,label="{%3:\l\l  %4 = load i32, i32* %m, align 4\l  %5 = add nsw i32 %4, -1\l  store i32 %5, i32* %m, align 4\l  %6 = icmp ne i32 %4, 0\l  br i1 %6, label %7, label %13\l|{<s0>T|<s1>F}}"];
	Node0x560356fa6180:s0 -> Node0x560356fa63e0;
	Node0x560356fa6180:s1 -> Node0x560356fa6470;
	Node0x560356fa63e0 [shape=record,label="{%7:\l\l  %8 = call i32 (i8*, ...) @scanf(i8* getelementptr inbounds ([3 x i8], [3 x\l... i8]* @.str, i32 0, i32 0), i32* %n)\l  %9 = load i32, i32* %n, align 4\l  %10 = call i32 @_Z4calcii(i32 2, i32 %9)\l  store i32 %10, i32* %ans, align 4\l  %11 = load i32, i32* %ans, align 4\l  %12 = call i32 (i8*, ...) @printf(i8* getelementptr inbounds ([4 x i8], [4 x\l... i8]* @.str.1, i32 0, i32 0), i32 %11)\l  br label %3\l}"];
	Node0x560356fa63e0 -> Node0x560356fa6180;
	Node0x560356fa6470 [shape=record,label="{%13:\l\l  ret i32 0\l}"];
}
