digraph "CFG for 'main' function" {
	label="CFG for 'main' function";

	Node0x5594b474d960 [shape=record,label="{%0:\l  %1 = alloca i32, align 4\l  %n = alloca i32, align 4\l  %i = alloca i32, align 4\l  %data = alloca i32, align 4\l  %ans = alloca i32, align 4\l  store i32 0, i32* %1, align 4\l  %2 = call i32 (i8*, ...) @scanf(i8* getelementptr inbounds ([3 x i8], [3 x\l... i8]* @.str, i32 0, i32 0), i32* %n)\l  store i32 1, i32* %i, align 4\l  br label %3\l}"];
	Node0x5594b474d960 -> Node0x5594b474e0f0;
	Node0x5594b474e0f0 [shape=record,label="{%3:\l\l  %4 = load i32, i32* %i, align 4\l  %5 = load i32, i32* %n, align 4\l  %6 = icmp sle i32 %4, %5\l  br i1 %6, label %7, label %16\l|{<s0>T|<s1>F}}"];
	Node0x5594b474e0f0:s0 -> Node0x5594b474e2b0;
	Node0x5594b474e0f0:s1 -> Node0x5594b474e300;
	Node0x5594b474e2b0 [shape=record,label="{%7:\l\l  %8 = call i32 (i8*, ...) @scanf(i8* getelementptr inbounds ([3 x i8], [3 x\l... i8]* @.str, i32 0, i32 0), i32* %data)\l  %9 = load i32, i32* %data, align 4\l  %10 = call i32 @_Z6numberii(i32 %9, i32 2)\l  store i32 %10, i32* %ans, align 4\l  %11 = load i32, i32* %ans, align 4\l  %12 = call i32 (i8*, ...) @printf(i8* getelementptr inbounds ([4 x i8], [4 x\l... i8]* @.str.1, i32 0, i32 0), i32 %11)\l  br label %13\l}"];
	Node0x5594b474e2b0 -> Node0x5594b474ec50;
	Node0x5594b474ec50 [shape=record,label="{%13:\l\l  %14 = load i32, i32* %i, align 4\l  %15 = add nsw i32 %14, 1\l  store i32 %15, i32* %i, align 4\l  br label %3\l}"];
	Node0x5594b474ec50 -> Node0x5594b474e0f0;
	Node0x5594b474e300 [shape=record,label="{%16:\l\l  %17 = load i32, i32* %1, align 4\l  ret i32 %17\l}"];
}
