digraph "Call graph" {
	label="Call graph";

	Node0x55eb20aeb4f0 [shape=record,label="{external node}"];
	Node0x55eb20aeb4f0 -> Node0x55eb20b08120;
	Node0x55eb20aeb4f0 -> Node0x55eb20b14720;
	Node0x55eb20aeb4f0 -> Node0x55eb20b14720;
	Node0x55eb20aeb4f0 -> Node0x55eb20b081d0;
	Node0x55eb20aeb4f0 -> Node0x55eb20b148b0;
	Node0x55eb20aeb4f0 -> Node0x55eb20b14b70;
	Node0x55eb20aeb4f0 -> Node0x55eb20b147f0;
	Node0x55eb20aeb4f0 -> Node0x55eb20b14a70;
	Node0x55eb20aeb4f0 -> Node0x55eb20b14af0;
	Node0x55eb20aeb4f0 -> Node0x55eb20b14960;
	Node0x55eb20b14960 [shape=record,label="{_GLOBAL__sub_I_412.cpp}"];
	Node0x55eb20b14960 -> Node0x55eb20b080a0;
	Node0x55eb20b080a0 [shape=record,label="{__cxx_global_var_init}"];
	Node0x55eb20b080a0 -> Node0x55eb20b08120;
	Node0x55eb20b080a0 -> Node0x55eb20b081d0;
	Node0x55eb20b08120 [shape=record,label="{_ZNSt8ios_base4InitC1Ev}"];
	Node0x55eb20b08120 -> Node0x55eb20b021c0;
	Node0x55eb20b14720 [shape=record,label="{_ZNSt8ios_base4InitD1Ev}"];
	Node0x55eb20b14720 -> Node0x55eb20b021c0;
	Node0x55eb20b081d0 [shape=record,label="{__cxa_atexit}"];
	Node0x55eb20b081d0 -> Node0x55eb20b021c0;
	Node0x55eb20b148b0 [shape=record,label="{main}"];
	Node0x55eb20b148b0 -> Node0x55eb20b147f0;
	Node0x55eb20b148b0 -> Node0x55eb20b14a70;
	Node0x55eb20b148b0 -> Node0x55eb20b14af0;
	Node0x55eb20b148b0 -> Node0x55eb20b14af0;
	Node0x55eb20b148b0 -> Node0x55eb20b14af0;
	Node0x55eb20b14b70 [shape=record,label="{llvm.memset.p0i8.i64}"];
	Node0x55eb20b147f0 [shape=record,label="{scanf}"];
	Node0x55eb20b147f0 -> Node0x55eb20b021c0;
	Node0x55eb20b14a70 [shape=record,label="{gets}"];
	Node0x55eb20b14a70 -> Node0x55eb20b021c0;
	Node0x55eb20b14af0 [shape=record,label="{printf}"];
	Node0x55eb20b14af0 -> Node0x55eb20b021c0;
}
