digraph "CFG for 'main' function" {
	label="CFG for 'main' function";

	Node0x55e082ab1930 [shape=record,label="{%0:\l  %1 = alloca i32, align 4\l  %n = alloca i32, align 4\l  %i = alloca i32, align 4\l  %j = alloca i32, align 4\l  %k = alloca i32, align 4\l  %name = alloca [26 x i32], align 16\l  %max = alloca i32, align 4\l  %a = alloca [1000 x i32], align 16\l  %t = alloca i32, align 4\l  %word = alloca [1000 x [30 x i8]], align 16\l  store i32 0, i32* %1, align 4\l  store i32 0, i32* %k, align 4\l  %2 = bitcast [26 x i32]* %name to i8*\l  call void @llvm.memset.p0i8.i64(i8* %2, i8 0, i64 104, i32 16, i1 false)\l  store i32 0, i32* %t, align 4\l  %3 = call i32 (i8*, ...) @scanf(i8* getelementptr inbounds ([3 x i8], [3 x\l... i8]* @.str, i32 0, i32 0), i32* %n)\l  store i32 -1, i32* %i, align 4\l  br label %4\l}"];
	Node0x55e082ab1930 -> Node0x55e082ab5d00;
	Node0x55e082ab5d00 [shape=record,label="{%4:\l\l  %5 = load i32, i32* %i, align 4\l  %6 = load i32, i32* %n, align 4\l  %7 = icmp slt i32 %5, %6\l  br i1 %7, label %8, label %17\l|{<s0>T|<s1>F}}"];
	Node0x55e082ab5d00:s0 -> Node0x55e082ab5f80;
	Node0x55e082ab5d00:s1 -> Node0x55e082ab5fd0;
	Node0x55e082ab5f80 [shape=record,label="{%8:\l\l  %9 = load i32, i32* %i, align 4\l  %10 = sext i32 %9 to i64\l  %11 = getelementptr inbounds [1000 x [30 x i8]], [1000 x [30 x i8]]* %word,\l... i64 0, i64 %10\l  %12 = getelementptr inbounds [30 x i8], [30 x i8]* %11, i32 0, i32 0\l  %13 = call i8* @gets(i8* %12)\l  br label %14\l}"];
	Node0x55e082ab5f80 -> Node0x55e082ab6540;
	Node0x55e082ab6540 [shape=record,label="{%14:\l\l  %15 = load i32, i32* %i, align 4\l  %16 = add nsw i32 %15, 1\l  store i32 %16, i32* %i, align 4\l  br label %4\l}"];
	Node0x55e082ab6540 -> Node0x55e082ab5d00;
	Node0x55e082ab5fd0 [shape=record,label="{%17:\l\l  store i32 0, i32* %j, align 4\l  br label %18\l}"];
	Node0x55e082ab5fd0 -> Node0x55e082ab6900;
	Node0x55e082ab6900 [shape=record,label="{%18:\l\l  %19 = load i32, i32* %j, align 4\l  %20 = icmp slt i32 %19, 26\l  br i1 %20, label %21, label %69\l|{<s0>T|<s1>F}}"];
	Node0x55e082ab6900:s0 -> Node0x55e082ab6a90;
	Node0x55e082ab6900:s1 -> Node0x55e082ab6ae0;
	Node0x55e082ab6a90 [shape=record,label="{%21:\l\l  store i32 0, i32* %i, align 4\l  br label %22\l}"];
	Node0x55e082ab6a90 -> Node0x55e082ab6c80;
	Node0x55e082ab6c80 [shape=record,label="{%22:\l\l  %23 = load i32, i32* %i, align 4\l  %24 = load i32, i32* %n, align 4\l  %25 = icmp slt i32 %23, %24\l  br i1 %25, label %26, label %65\l|{<s0>T|<s1>F}}"];
	Node0x55e082ab6c80:s0 -> Node0x55e082ab6e70;
	Node0x55e082ab6c80:s1 -> Node0x55e082ab6ec0;
	Node0x55e082ab6e70 [shape=record,label="{%26:\l\l  br label %27\l}"];
	Node0x55e082ab6e70 -> Node0x55e082ab6fe0;
	Node0x55e082ab6fe0 [shape=record,label="{%27:\l\l  %28 = load i32, i32* %k, align 4\l  %29 = sext i32 %28 to i64\l  %30 = load i32, i32* %i, align 4\l  %31 = sext i32 %30 to i64\l  %32 = getelementptr inbounds [1000 x [30 x i8]], [1000 x [30 x i8]]* %word,\l... i64 0, i64 %31\l  %33 = getelementptr inbounds [30 x i8], [30 x i8]* %32, i64 0, i64 %29\l  %34 = load i8, i8* %33, align 1\l  %35 = sext i8 %34 to i32\l  %36 = icmp ne i32 %35, 0\l  br i1 %36, label %37, label %61\l|{<s0>T|<s1>F}}"];
	Node0x55e082ab6fe0:s0 -> Node0x55e082abac40;
	Node0x55e082ab6fe0:s1 -> Node0x55e082abac90;
	Node0x55e082abac40 [shape=record,label="{%37:\l\l  %38 = load i32, i32* %k, align 4\l  %39 = sext i32 %38 to i64\l  %40 = load i32, i32* %i, align 4\l  %41 = sext i32 %40 to i64\l  %42 = getelementptr inbounds [1000 x [30 x i8]], [1000 x [30 x i8]]* %word,\l... i64 0, i64 %41\l  %43 = getelementptr inbounds [30 x i8], [30 x i8]* %42, i64 0, i64 %39\l  %44 = load i8, i8* %43, align 1\l  %45 = sext i8 %44 to i32\l  %46 = load i32, i32* %j, align 4\l  %47 = add nsw i32 65, %46\l  %48 = icmp eq i32 %45, %47\l  br i1 %48, label %49, label %58\l|{<s0>T|<s1>F}}"];
	Node0x55e082abac40:s0 -> Node0x55e082abb290;
	Node0x55e082abac40:s1 -> Node0x55e082abb320;
	Node0x55e082abb290 [shape=record,label="{%49:\l\l  %50 = load i32, i32* %j, align 4\l  %51 = sext i32 %50 to i64\l  %52 = getelementptr inbounds [26 x i32], [26 x i32]* %name, i64 0, i64 %51\l  %53 = load i32, i32* %52, align 4\l  %54 = add nsw i32 %53, 1\l  %55 = load i32, i32* %j, align 4\l  %56 = sext i32 %55 to i64\l  %57 = getelementptr inbounds [26 x i32], [26 x i32]* %name, i64 0, i64 %56\l  store i32 %54, i32* %57, align 4\l  br label %58\l}"];
	Node0x55e082abb290 -> Node0x55e082abb320;
	Node0x55e082abb320 [shape=record,label="{%58:\l\l  %59 = load i32, i32* %k, align 4\l  %60 = add nsw i32 %59, 1\l  store i32 %60, i32* %k, align 4\l  br label %27\l}"];
	Node0x55e082abb320 -> Node0x55e082ab6fe0;
	Node0x55e082abac90 [shape=record,label="{%61:\l\l  store i32 0, i32* %k, align 4\l  br label %62\l}"];
	Node0x55e082abac90 -> Node0x55e082abbb00;
	Node0x55e082abbb00 [shape=record,label="{%62:\l\l  %63 = load i32, i32* %i, align 4\l  %64 = add nsw i32 %63, 1\l  store i32 %64, i32* %i, align 4\l  br label %22\l}"];
	Node0x55e082abbb00 -> Node0x55e082ab6c80;
	Node0x55e082ab6ec0 [shape=record,label="{%65:\l\l  br label %66\l}"];
	Node0x55e082ab6ec0 -> Node0x55e082ab7390;
	Node0x55e082ab7390 [shape=record,label="{%66:\l\l  %67 = load i32, i32* %j, align 4\l  %68 = add nsw i32 %67, 1\l  store i32 %68, i32* %j, align 4\l  br label %18\l}"];
	Node0x55e082ab7390 -> Node0x55e082ab6900;
	Node0x55e082ab6ae0 [shape=record,label="{%69:\l\l  store i32 0, i32* %k, align 4\l  %70 = getelementptr inbounds [26 x i32], [26 x i32]* %name, i64 0, i64 0\l  %71 = load i32, i32* %70, align 16\l  store i32 %71, i32* %max, align 4\l  store i32 0, i32* %j, align 4\l  store i32 1, i32* %i, align 4\l  br label %72\l}"];
	Node0x55e082ab6ae0 -> Node0x55e082abc500;
	Node0x55e082abc500 [shape=record,label="{%72:\l\l  %73 = load i32, i32* %i, align 4\l  %74 = icmp slt i32 %73, 26\l  br i1 %74, label %75, label %92\l|{<s0>T|<s1>F}}"];
	Node0x55e082abc500:s0 -> Node0x55e082abc690;
	Node0x55e082abc500:s1 -> Node0x55e082abc6e0;
	Node0x55e082abc690 [shape=record,label="{%75:\l\l  %76 = load i32, i32* %i, align 4\l  %77 = sext i32 %76 to i64\l  %78 = getelementptr inbounds [26 x i32], [26 x i32]* %name, i64 0, i64 %77\l  %79 = load i32, i32* %78, align 4\l  %80 = load i32, i32* %max, align 4\l  %81 = icmp sgt i32 %79, %80\l  br i1 %81, label %82, label %88\l|{<s0>T|<s1>F}}"];
	Node0x55e082abc690:s0 -> Node0x55e082abca60;
	Node0x55e082abc690:s1 -> Node0x55e082abcab0;
	Node0x55e082abca60 [shape=record,label="{%82:\l\l  %83 = load i32, i32* %i, align 4\l  %84 = sext i32 %83 to i64\l  %85 = getelementptr inbounds [26 x i32], [26 x i32]* %name, i64 0, i64 %84\l  %86 = load i32, i32* %85, align 4\l  store i32 %86, i32* %max, align 4\l  %87 = load i32, i32* %i, align 4\l  store i32 %87, i32* %j, align 4\l  br label %88\l}"];
	Node0x55e082abca60 -> Node0x55e082abcab0;
	Node0x55e082abcab0 [shape=record,label="{%88:\l\l  br label %89\l}"];
	Node0x55e082abcab0 -> Node0x55e082abcf10;
	Node0x55e082abcf10 [shape=record,label="{%89:\l\l  %90 = load i32, i32* %i, align 4\l  %91 = add nsw i32 %90, 1\l  store i32 %91, i32* %i, align 4\l  br label %72\l}"];
	Node0x55e082abcf10 -> Node0x55e082abc500;
	Node0x55e082abc6e0 [shape=record,label="{%92:\l\l  store i32 0, i32* %i, align 4\l  br label %93\l}"];
	Node0x55e082abc6e0 -> Node0x55e082abd200;
	Node0x55e082abd200 [shape=record,label="{%93:\l\l  %94 = load i32, i32* %i, align 4\l  %95 = load i32, i32* %n, align 4\l  %96 = icmp slt i32 %94, %95\l  br i1 %96, label %97, label %134\l|{<s0>T|<s1>F}}"];
	Node0x55e082abd200:s0 -> Node0x55e082abd3f0;
	Node0x55e082abd200:s1 -> Node0x55e082abd440;
	Node0x55e082abd3f0 [shape=record,label="{%97:\l\l  br label %98\l}"];
	Node0x55e082abd3f0 -> Node0x55e082abd520;
	Node0x55e082abd520 [shape=record,label="{%98:\l\l  %99 = load i32, i32* %k, align 4\l  %100 = sext i32 %99 to i64\l  %101 = load i32, i32* %i, align 4\l  %102 = sext i32 %101 to i64\l  %103 = getelementptr inbounds [1000 x [30 x i8]], [1000 x [30 x i8]]* %word,\l... i64 0, i64 %102\l  %104 = getelementptr inbounds [30 x i8], [30 x i8]* %103, i64 0, i64 %100\l  %105 = load i8, i8* %104, align 1\l  %106 = sext i8 %105 to i32\l  %107 = icmp ne i32 %106, 0\l  br i1 %107, label %108, label %130\l|{<s0>T|<s1>F}}"];
	Node0x55e082abd520:s0 -> Node0x55e082abd9d0;
	Node0x55e082abd520:s1 -> Node0x55e082abda20;
	Node0x55e082abd9d0 [shape=record,label="{%108:\l\l  %109 = load i32, i32* %k, align 4\l  %110 = sext i32 %109 to i64\l  %111 = load i32, i32* %i, align 4\l  %112 = sext i32 %111 to i64\l  %113 = getelementptr inbounds [1000 x [30 x i8]], [1000 x [30 x i8]]* %word,\l... i64 0, i64 %112\l  %114 = getelementptr inbounds [30 x i8], [30 x i8]* %113, i64 0, i64 %110\l  %115 = load i8, i8* %114, align 1\l  %116 = sext i8 %115 to i32\l  %117 = load i32, i32* %j, align 4\l  %118 = add nsw i32 65, %117\l  %119 = icmp eq i32 %116, %118\l  br i1 %119, label %120, label %127\l|{<s0>T|<s1>F}}"];
	Node0x55e082abd9d0:s0 -> Node0x55e082abdfe0;
	Node0x55e082abd9d0:s1 -> Node0x55e082abe030;
	Node0x55e082abdfe0 [shape=record,label="{%120:\l\l  %121 = load i32, i32* %i, align 4\l  %122 = load i32, i32* %t, align 4\l  %123 = sext i32 %122 to i64\l  %124 = getelementptr inbounds [1000 x i32], [1000 x i32]* %a, i64 0, i64 %123\l  store i32 %121, i32* %124, align 4\l  %125 = load i32, i32* %t, align 4\l  %126 = add nsw i32 %125, 1\l  store i32 %126, i32* %t, align 4\l  store i32 0, i32* %k, align 4\l  br label %130\l}"];
	Node0x55e082abdfe0 -> Node0x55e082abda20;
	Node0x55e082abe030 [shape=record,label="{%127:\l\l  %128 = load i32, i32* %k, align 4\l  %129 = add nsw i32 %128, 1\l  store i32 %129, i32* %k, align 4\l  br label %98\l}"];
	Node0x55e082abe030 -> Node0x55e082abd520;
	Node0x55e082abda20 [shape=record,label="{%130:\l\l  store i32 0, i32* %k, align 4\l  br label %131\l}"];
	Node0x55e082abda20 -> Node0x55e082abbe70;
	Node0x55e082abbe70 [shape=record,label="{%131:\l\l  %132 = load i32, i32* %i, align 4\l  %133 = add nsw i32 %132, 1\l  store i32 %133, i32* %i, align 4\l  br label %93\l}"];
	Node0x55e082abbe70 -> Node0x55e082abd200;
	Node0x55e082abd440 [shape=record,label="{%134:\l\l  %135 = load i32, i32* %j, align 4\l  %136 = add nsw i32 65, %135\l  %137 = load i32, i32* %max, align 4\l  %138 = call i32 (i8*, ...) @printf(i8* getelementptr inbounds ([7 x i8], [7\l... x i8]* @.str.1, i32 0, i32 0), i32 %136, i32 %137)\l  store i32 0, i32* %k, align 4\l  store i32 0, i32* %i, align 4\l  br label %139\l}"];
	Node0x55e082abd440 -> Node0x55e082abf340;
	Node0x55e082abf340 [shape=record,label="{%139:\l\l  %140 = load i32, i32* %i, align 4\l  %141 = load i32, i32* %t, align 4\l  %142 = icmp slt i32 %140, %141\l  br i1 %142, label %143, label %177\l|{<s0>T|<s1>F}}"];
	Node0x55e082abf340:s0 -> Node0x55e082abf530;
	Node0x55e082abf340:s1 -> Node0x55e082abf580;
	Node0x55e082abf530 [shape=record,label="{%143:\l\l  br label %144\l}"];
	Node0x55e082abf530 -> Node0x55e082abf660;
	Node0x55e082abf660 [shape=record,label="{%144:\l\l  %145 = load i32, i32* %k, align 4\l  %146 = sext i32 %145 to i64\l  %147 = load i32, i32* %i, align 4\l  %148 = sext i32 %147 to i64\l  %149 = getelementptr inbounds [1000 x i32], [1000 x i32]* %a, i64 0, i64 %148\l  %150 = load i32, i32* %149, align 4\l  %151 = sext i32 %150 to i64\l  %152 = getelementptr inbounds [1000 x [30 x i8]], [1000 x [30 x i8]]* %word,\l... i64 0, i64 %151\l  %153 = getelementptr inbounds [30 x i8], [30 x i8]* %152, i64 0, i64 %146\l  %154 = load i8, i8* %153, align 1\l  %155 = sext i8 %154 to i32\l  %156 = icmp ne i32 %155, 32\l  br i1 %156, label %157, label %172\l|{<s0>T|<s1>F}}"];
	Node0x55e082abf660:s0 -> Node0x55e082abfc70;
	Node0x55e082abf660:s1 -> Node0x55e082abfcc0;
	Node0x55e082abfc70 [shape=record,label="{%157:\l\l  %158 = load i32, i32* %k, align 4\l  %159 = sext i32 %158 to i64\l  %160 = load i32, i32* %i, align 4\l  %161 = sext i32 %160 to i64\l  %162 = getelementptr inbounds [1000 x i32], [1000 x i32]* %a, i64 0, i64 %161\l  %163 = load i32, i32* %162, align 4\l  %164 = sext i32 %163 to i64\l  %165 = getelementptr inbounds [1000 x [30 x i8]], [1000 x [30 x i8]]* %word,\l... i64 0, i64 %164\l  %166 = getelementptr inbounds [30 x i8], [30 x i8]* %165, i64 0, i64 %159\l  %167 = load i8, i8* %166, align 1\l  %168 = sext i8 %167 to i32\l  %169 = call i32 (i8*, ...) @printf(i8* getelementptr inbounds ([3 x i8], [3\l... x i8]* @.str.2, i32 0, i32 0), i32 %168)\l  %170 = load i32, i32* %k, align 4\l  %171 = add nsw i32 %170, 1\l  store i32 %171, i32* %k, align 4\l  br label %144\l}"];
	Node0x55e082abfc70 -> Node0x55e082abf660;
	Node0x55e082abfcc0 [shape=record,label="{%172:\l\l  %173 = call i32 (i8*, ...) @printf(i8* getelementptr inbounds ([2 x i8], [2\l... x i8]* @.str.3, i32 0, i32 0))\l  store i32 0, i32* %k, align 4\l  br label %174\l}"];
	Node0x55e082abfcc0 -> Node0x55e082ac0790;
	Node0x55e082ac0790 [shape=record,label="{%174:\l\l  %175 = load i32, i32* %i, align 4\l  %176 = add nsw i32 %175, 1\l  store i32 %176, i32* %i, align 4\l  br label %139\l}"];
	Node0x55e082ac0790 -> Node0x55e082abf340;
	Node0x55e082abf580 [shape=record,label="{%177:\l\l  %178 = load i32, i32* %1, align 4\l  ret i32 %178\l}"];
}
