digraph "CFG for 'main' function" {
	label="CFG for 'main' function";

	Node0x55b600a36960 [shape=record,label="{%0:\l  %1 = alloca i32, align 4\l  %word = alloca [10000 x i8], align 16\l  %str = alloca [300 x [100 x i8]], align 16\l  %i = alloca i32, align 4\l  %j = alloca i32, align 4\l  %k = alloca i32, align 4\l  %l = alloca i32, align 4\l  %num = alloca [300 x i32], align 16\l  %m = alloca i32, align 4\l  store i32 0, i32* %1, align 4\l  store i32 0, i32* %m, align 4\l  store i32 0, i32* %k, align 4\l  store i32 0, i32* %j, align 4\l  %2 = getelementptr inbounds [10000 x i8], [10000 x i8]* %word, i32 0, i32 0\l  %3 = call i8* @gets(i8* %2)\l  %4 = getelementptr inbounds [10000 x i8], [10000 x i8]* %word, i32 0, i32 0\l  %5 = call i64 @strlen(i8* %4) #5\l  %6 = trunc i64 %5 to i32\l  store i32 %6, i32* %l, align 4\l  store i32 0, i32* %i, align 4\l  br label %7\l}"];
	Node0x55b600a36960 -> Node0x55b600a378c0;
	Node0x55b600a378c0 [shape=record,label="{%7:\l\l  %8 = load i32, i32* %i, align 4\l  %9 = load i32, i32* %l, align 4\l  %10 = icmp slt i32 %8, %9\l  br i1 %10, label %11, label %67\l|{<s0>T|<s1>F}}"];
	Node0x55b600a378c0:s0 -> Node0x55b600a374c0;
	Node0x55b600a378c0:s1 -> Node0x55b600a37b80;
	Node0x55b600a374c0 [shape=record,label="{%11:\l\l  %12 = load i32, i32* %i, align 4\l  %13 = sext i32 %12 to i64\l  %14 = getelementptr inbounds [10000 x i8], [10000 x i8]* %word, i64 0, i64\l... %13\l  %15 = load i8, i8* %14, align 1\l  %16 = sext i8 %15 to i32\l  %17 = icmp eq i32 %16, 32\l  br i1 %17, label %18, label %30\l|{<s0>T|<s1>F}}"];
	Node0x55b600a374c0:s0 -> Node0x55b600a37a50;
	Node0x55b600a374c0:s1 -> Node0x55b600a38090;
	Node0x55b600a37a50 [shape=record,label="{%18:\l\l  %19 = load i32, i32* %m, align 4\l  %20 = icmp ne i32 %19, 0\l  br i1 %20, label %21, label %30\l|{<s0>T|<s1>F}}"];
	Node0x55b600a37a50:s0 -> Node0x55b600a38290;
	Node0x55b600a37a50:s1 -> Node0x55b600a38090;
	Node0x55b600a38290 [shape=record,label="{%21:\l\l  %22 = load i32, i32* %j, align 4\l  %23 = sext i32 %22 to i64\l  %24 = load i32, i32* %k, align 4\l  %25 = sext i32 %24 to i64\l  %26 = getelementptr inbounds [300 x [100 x i8]], [300 x [100 x i8]]* %str,\l... i64 0, i64 %25\l  %27 = getelementptr inbounds [100 x i8], [100 x i8]* %26, i64 0, i64 %23\l  store i8 0, i8* %27, align 1\l  %28 = load i32, i32* %k, align 4\l  %29 = add nsw i32 %28, 1\l  store i32 %29, i32* %k, align 4\l  store i32 0, i32* %j, align 4\l  store i32 0, i32* %m, align 4\l  br label %64\l}"];
	Node0x55b600a38290 -> Node0x55b600a38910;
	Node0x55b600a38090 [shape=record,label="{%30:\l\l  %31 = load i32, i32* %i, align 4\l  %32 = sext i32 %31 to i64\l  %33 = getelementptr inbounds [10000 x i8], [10000 x i8]* %word, i64 0, i64\l... %32\l  %34 = load i8, i8* %33, align 1\l  %35 = sext i8 %34 to i32\l  %36 = icmp eq i32 %35, 32\l  br i1 %36, label %37, label %41\l|{<s0>T|<s1>F}}"];
	Node0x55b600a38090:s0 -> Node0x55b600a38db0;
	Node0x55b600a38090:s1 -> Node0x55b600a38e00;
	Node0x55b600a38db0 [shape=record,label="{%37:\l\l  %38 = load i32, i32* %m, align 4\l  %39 = icmp eq i32 %38, 0\l  br i1 %39, label %40, label %41\l|{<s0>T|<s1>F}}"];
	Node0x55b600a38db0:s0 -> Node0x55b600a39000;
	Node0x55b600a38db0:s1 -> Node0x55b600a38e00;
	Node0x55b600a39000 [shape=record,label="{%40:\l\l  br label %64\l}"];
	Node0x55b600a39000 -> Node0x55b600a38910;
	Node0x55b600a38e00 [shape=record,label="{%41:\l\l  %42 = load i32, i32* %i, align 4\l  %43 = sext i32 %42 to i64\l  %44 = getelementptr inbounds [10000 x i8], [10000 x i8]* %word, i64 0, i64\l... %43\l  %45 = load i8, i8* %44, align 1\l  %46 = sext i8 %45 to i32\l  %47 = icmp ne i32 %46, 32\l  br i1 %47, label %48, label %61\l|{<s0>T|<s1>F}}"];
	Node0x55b600a38e00:s0 -> Node0x55b600a393e0;
	Node0x55b600a38e00:s1 -> Node0x55b600a39430;
	Node0x55b600a393e0 [shape=record,label="{%48:\l\l  %49 = load i32, i32* %i, align 4\l  %50 = sext i32 %49 to i64\l  %51 = getelementptr inbounds [10000 x i8], [10000 x i8]* %word, i64 0, i64\l... %50\l  %52 = load i8, i8* %51, align 1\l  %53 = load i32, i32* %j, align 4\l  %54 = sext i32 %53 to i64\l  %55 = load i32, i32* %k, align 4\l  %56 = sext i32 %55 to i64\l  %57 = getelementptr inbounds [300 x [100 x i8]], [300 x [100 x i8]]* %str,\l... i64 0, i64 %56\l  %58 = getelementptr inbounds [100 x i8], [100 x i8]* %57, i64 0, i64 %54\l  store i8 %52, i8* %58, align 1\l  %59 = load i32, i32* %j, align 4\l  %60 = add nsw i32 %59, 1\l  store i32 %60, i32* %j, align 4\l  store i32 1, i32* %m, align 4\l  br label %61\l}"];
	Node0x55b600a393e0 -> Node0x55b600a39430;
	Node0x55b600a39430 [shape=record,label="{%61:\l\l  br label %62\l}"];
	Node0x55b600a39430 -> Node0x55b600a3c3f0;
	Node0x55b600a3c3f0 [shape=record,label="{%62:\l\l  br label %63\l}"];
	Node0x55b600a3c3f0 -> Node0x55b600a3c4a0;
	Node0x55b600a3c4a0 [shape=record,label="{%63:\l\l  br label %64\l}"];
	Node0x55b600a3c4a0 -> Node0x55b600a38910;
	Node0x55b600a38910 [shape=record,label="{%64:\l\l  %65 = load i32, i32* %i, align 4\l  %66 = add nsw i32 %65, 1\l  store i32 %66, i32* %i, align 4\l  br label %7\l}"];
	Node0x55b600a38910 -> Node0x55b600a378c0;
	Node0x55b600a37b80 [shape=record,label="{%67:\l\l  store i32 0, i32* %i, align 4\l  br label %68\l}"];
	Node0x55b600a37b80 -> Node0x55b600a38c80;
	Node0x55b600a38c80 [shape=record,label="{%68:\l\l  %69 = load i32, i32* %i, align 4\l  %70 = load i32, i32* %k, align 4\l  %71 = icmp sle i32 %69, %70\l  br i1 %71, label %72, label %85\l|{<s0>T|<s1>F}}"];
	Node0x55b600a38c80:s0 -> Node0x55b600a3cbe0;
	Node0x55b600a38c80:s1 -> Node0x55b600a3cc30;
	Node0x55b600a3cbe0 [shape=record,label="{%72:\l\l  %73 = load i32, i32* %i, align 4\l  %74 = sext i32 %73 to i64\l  %75 = getelementptr inbounds [300 x [100 x i8]], [300 x [100 x i8]]* %str,\l... i64 0, i64 %74\l  %76 = getelementptr inbounds [100 x i8], [100 x i8]* %75, i32 0, i32 0\l  %77 = call i64 @strlen(i8* %76) #5\l  %78 = trunc i64 %77 to i32\l  %79 = load i32, i32* %i, align 4\l  %80 = sext i32 %79 to i64\l  %81 = getelementptr inbounds [300 x i32], [300 x i32]* %num, i64 0, i64 %80\l  store i32 %78, i32* %81, align 4\l  br label %82\l}"];
	Node0x55b600a3cbe0 -> Node0x55b600a3d230;
	Node0x55b600a3d230 [shape=record,label="{%82:\l\l  %83 = load i32, i32* %i, align 4\l  %84 = add nsw i32 %83, 1\l  store i32 %84, i32* %i, align 4\l  br label %68\l}"];
	Node0x55b600a3d230 -> Node0x55b600a38c80;
	Node0x55b600a3cc30 [shape=record,label="{%85:\l\l  store i32 0, i32* %j, align 4\l  store i32 0, i32* %i, align 4\l  br label %86\l}"];
	Node0x55b600a3cc30 -> Node0x55b600a3d5a0;
	Node0x55b600a3d5a0 [shape=record,label="{%86:\l\l  %87 = load i32, i32* %i, align 4\l  %88 = load i32, i32* %k, align 4\l  %89 = icmp sle i32 %87, %88\l  br i1 %89, label %90, label %109\l|{<s0>T|<s1>F}}"];
	Node0x55b600a3d5a0:s0 -> Node0x55b600a3d790;
	Node0x55b600a3d5a0:s1 -> Node0x55b600a3d7e0;
	Node0x55b600a3d790 [shape=record,label="{%90:\l\l  %91 = load i32, i32* %j, align 4\l  %92 = icmp eq i32 %91, 0\l  br i1 %92, label %93, label %99\l|{<s0>T|<s1>F}}"];
	Node0x55b600a3d790:s0 -> Node0x55b600a3d9a0;
	Node0x55b600a3d790:s1 -> Node0x55b600a3d9f0;
	Node0x55b600a3d9a0 [shape=record,label="{%93:\l\l  %94 = load i32, i32* %i, align 4\l  %95 = sext i32 %94 to i64\l  %96 = getelementptr inbounds [300 x i32], [300 x i32]* %num, i64 0, i64 %95\l  %97 = load i32, i32* %96, align 4\l  %98 = call i32 (i8*, ...) @printf(i8* getelementptr inbounds ([3 x i8], [3 x\l... i8]* @.str, i32 0, i32 0), i32 %97)\l  store i32 1, i32* %j, align 4\l  br label %105\l}"];
	Node0x55b600a3d9a0 -> Node0x55b600a3df90;
	Node0x55b600a3d9f0 [shape=record,label="{%99:\l\l  %100 = load i32, i32* %i, align 4\l  %101 = sext i32 %100 to i64\l  %102 = getelementptr inbounds [300 x i32], [300 x i32]* %num, i64 0, i64 %101\l  %103 = load i32, i32* %102, align 4\l  %104 = call i32 (i8*, ...) @printf(i8* getelementptr inbounds ([4 x i8], [4\l... x i8]* @.str.1, i32 0, i32 0), i32 %103)\l  br label %105\l}"];
	Node0x55b600a3d9f0 -> Node0x55b600a3df90;
	Node0x55b600a3df90 [shape=record,label="{%105:\l\l  br label %106\l}"];
	Node0x55b600a3df90 -> Node0x55b600a3e3d0;
	Node0x55b600a3e3d0 [shape=record,label="{%106:\l\l  %107 = load i32, i32* %i, align 4\l  %108 = add nsw i32 %107, 1\l  store i32 %108, i32* %i, align 4\l  br label %86\l}"];
	Node0x55b600a3e3d0 -> Node0x55b600a3d5a0;
	Node0x55b600a3d7e0 [shape=record,label="{%109:\l\l  %110 = load i32, i32* %1, align 4\l  ret i32 %110\l}"];
}
