digraph "CFG for '_GLOBAL__sub_I_2278.cpp' function" {
	label="CFG for '_GLOBAL__sub_I_2278.cpp' function";

	Node0x55f38d926110 [shape=record,label="{%0:\l  call void @__cxx_global_var_init()\l  ret void\l}"];
}
