digraph "CFG for '_Z1fii' function" {
	label="CFG for '_Z1fii' function";

	Node0x55f3bd1e8b10 [shape=record,label="{%0:\l  %1 = alloca i32, align 4\l  %2 = alloca i32, align 4\l  %j = alloca i32, align 4\l  %k = alloca i32, align 4\l  %sum = alloca i32, align 4\l  store i32 %i, i32* %1, align 4\l  store i32 %n, i32* %2, align 4\l  store i32 0, i32* %sum, align 4\l  %3 = load i32, i32* %1, align 4\l  store i32 %3, i32* %j, align 4\l  br label %4\l}"];
	Node0x55f3bd1e8b10 -> Node0x55f3bd1e8ff0;
	Node0x55f3bd1e8ff0 [shape=record,label="{%4:\l\l  %5 = load i32, i32* %j, align 4\l  %6 = load i32, i32* %2, align 4\l  %7 = sitofp i32 %6 to double\l  %8 = call double @sqrt(double %7) #2\l  %9 = fptosi double %8 to i32\l  %10 = add nsw i32 %9, 1\l  %11 = icmp slt i32 %5, %10\l  br i1 %11, label %12, label %44\l|{<s0>T|<s1>F}}"];
	Node0x55f3bd1e8ff0:s0 -> Node0x55f3bd1e9040;
	Node0x55f3bd1e8ff0:s1 -> Node0x55f3bd1e94f0;
	Node0x55f3bd1e9040 [shape=record,label="{%12:\l\l  %13 = load i32, i32* %sum, align 4\l  store i32 %13, i32* %k, align 4\l  %14 = load i32, i32* %j, align 4\l  %15 = icmp eq i32 %14, 1\l  br i1 %15, label %16, label %17\l|{<s0>T|<s1>F}}"];
	Node0x55f3bd1e9040:s0 -> Node0x55f3bd1eb820;
	Node0x55f3bd1e9040:s1 -> Node0x55f3bd1eb870;
	Node0x55f3bd1eb820 [shape=record,label="{%16:\l\l  store i32 0, i32* %sum, align 4\l  br label %37\l}"];
	Node0x55f3bd1eb820 -> Node0x55f3bd1ebaa0;
	Node0x55f3bd1eb870 [shape=record,label="{%17:\l\l  %18 = load i32, i32* %2, align 4\l  %19 = load i32, i32* %j, align 4\l  %20 = srem i32 %18, %19\l  %21 = icmp eq i32 %20, 0\l  br i1 %21, label %22, label %35\l|{<s0>T|<s1>F}}"];
	Node0x55f3bd1eb870:s0 -> Node0x55f3bd1ebd10;
	Node0x55f3bd1eb870:s1 -> Node0x55f3bd1ebd60;
	Node0x55f3bd1ebd10 [shape=record,label="{%22:\l\l  %23 = load i32, i32* %2, align 4\l  %24 = load i32, i32* %j, align 4\l  %25 = sdiv i32 %23, %24\l  %26 = load i32, i32* %j, align 4\l  %27 = icmp sge i32 %25, %26\l  br i1 %27, label %28, label %35\l|{<s0>T|<s1>F}}"];
	Node0x55f3bd1ebd10:s0 -> Node0x55f3bd1ec0a0;
	Node0x55f3bd1ebd10:s1 -> Node0x55f3bd1ebd60;
	Node0x55f3bd1ec0a0 [shape=record,label="{%28:\l\l  %29 = load i32, i32* %j, align 4\l  %30 = load i32, i32* %2, align 4\l  %31 = load i32, i32* %j, align 4\l  %32 = sdiv i32 %30, %31\l  %33 = call i32 @_Z1fii(i32 %29, i32 %32)\l  %34 = add nsw i32 %33, 1\l  store i32 %34, i32* %sum, align 4\l  br label %36\l}"];
	Node0x55f3bd1ec0a0 -> Node0x55f3bd1ec630;
	Node0x55f3bd1ebd60 [shape=record,label="{%35:\l\l  store i32 0, i32* %sum, align 4\l  br label %36\l}"];
	Node0x55f3bd1ebd60 -> Node0x55f3bd1ec630;
	Node0x55f3bd1ec630 [shape=record,label="{%36:\l\l  br label %37\l}"];
	Node0x55f3bd1ec630 -> Node0x55f3bd1ebaa0;
	Node0x55f3bd1ebaa0 [shape=record,label="{%37:\l\l  %38 = load i32, i32* %sum, align 4\l  %39 = load i32, i32* %k, align 4\l  %40 = add nsw i32 %38, %39\l  store i32 %40, i32* %sum, align 4\l  br label %41\l}"];
	Node0x55f3bd1ebaa0 -> Node0x55f3bd1ec9e0;
	Node0x55f3bd1ec9e0 [shape=record,label="{%41:\l\l  %42 = load i32, i32* %j, align 4\l  %43 = add nsw i32 %42, 1\l  store i32 %43, i32* %j, align 4\l  br label %4\l}"];
	Node0x55f3bd1ec9e0 -> Node0x55f3bd1e8ff0;
	Node0x55f3bd1e94f0 [shape=record,label="{%44:\l\l  %45 = load i32, i32* %sum, align 4\l  ret i32 %45\l}"];
}
