digraph "CFG for '_Z2ddiiii' function" {
	label="CFG for '_Z2ddiiii' function";

	Node0x559e62add8a0 [shape=record,label="{%0:\l  %1 = alloca i32, align 4\l  %2 = alloca i32, align 4\l  %3 = alloca i32, align 4\l  %4 = alloca i32, align 4\l  %i = alloca i32, align 4\l  store i32 %n, i32* %1, align 4\l  store i32 %a, i32* %2, align 4\l  store i32 %d, i32* %3, align 4\l  store i32 %m, i32* %4, align 4\l  %5 = load i32, i32* %3, align 4\l  %6 = load i32, i32* %4, align 4\l  %7 = icmp eq i32 %5, %6\l  br i1 %7, label %8, label %11\l|{<s0>T|<s1>F}}"];
	Node0x559e62add8a0:s0 -> Node0x559e62adddd0;
	Node0x559e62add8a0:s1 -> Node0x559e62adde60;
	Node0x559e62adddd0 [shape=record,label="{%8:\l\l  %9 = load i32, i32* @t, align 4\l  %10 = add nsw i32 %9, 1\l  store i32 %10, i32* @t, align 4\l  br label %52\l}"];
	Node0x559e62adddd0 -> Node0x559e62addb10;
	Node0x559e62adde60 [shape=record,label="{%11:\l\l  %12 = load i32, i32* %2, align 4\l  store i32 %12, i32* %i, align 4\l  br label %13\l}"];
	Node0x559e62adde60 -> Node0x559e62ade250;
	Node0x559e62ade250 [shape=record,label="{%13:\l\l  %14 = load i32, i32* %i, align 4\l  %15 = load i32, i32* @num, align 4\l  %16 = icmp slt i32 %14, %15\l  br i1 %16, label %17, label %52\l|{<s0>T|<s1>F}}"];
	Node0x559e62ade250:s0 -> Node0x559e62addf80;
	Node0x559e62ade250:s1 -> Node0x559e62addb10;
	Node0x559e62addf80 [shape=record,label="{%17:\l\l  %18 = load i32, i32* %1, align 4\l  %19 = load i32, i32* %i, align 4\l  %20 = sext i32 %19 to i64\l  %21 = getelementptr inbounds [50 x i32], [50 x i32]* @yin, i64 0, i64 %20\l  %22 = load i32, i32* %21, align 4\l  %23 = sdiv i32 %18, %22\l  %24 = load i32, i32* %i, align 4\l  %25 = sext i32 %24 to i64\l  %26 = getelementptr inbounds [50 x i32], [50 x i32]* @yin, i64 0, i64 %25\l  %27 = load i32, i32* %26, align 4\l  %28 = icmp sge i32 %23, %27\l  br i1 %28, label %29, label %48\l|{<s0>T|<s1>F}}"];
	Node0x559e62addf80:s0 -> Node0x559e62adeac0;
	Node0x559e62addf80:s1 -> Node0x559e62adeb10;
	Node0x559e62adeac0 [shape=record,label="{%29:\l\l  %30 = load i32, i32* %1, align 4\l  %31 = load i32, i32* %i, align 4\l  %32 = sext i32 %31 to i64\l  %33 = getelementptr inbounds [50 x i32], [50 x i32]* @yin, i64 0, i64 %32\l  %34 = load i32, i32* %33, align 4\l  %35 = srem i32 %30, %34\l  %36 = icmp eq i32 %35, 0\l  br i1 %36, label %37, label %48\l|{<s0>T|<s1>F}}"];
	Node0x559e62adeac0:s0 -> Node0x559e62adf060;
	Node0x559e62adeac0:s1 -> Node0x559e62adeb10;
	Node0x559e62adf060 [shape=record,label="{%37:\l\l  %38 = load i32, i32* %1, align 4\l  %39 = load i32, i32* %i, align 4\l  %40 = sext i32 %39 to i64\l  %41 = getelementptr inbounds [50 x i32], [50 x i32]* @yin, i64 0, i64 %40\l  %42 = load i32, i32* %41, align 4\l  %43 = sdiv i32 %38, %42\l  %44 = load i32, i32* %i, align 4\l  %45 = load i32, i32* %3, align 4\l  %46 = add nsw i32 %45, 1\l  %47 = load i32, i32* %4, align 4\l  call void @_Z2ddiiii(i32 %43, i32 %44, i32 %46, i32 %47)\l  br label %48\l}"];
	Node0x559e62adf060 -> Node0x559e62adeb10;
	Node0x559e62adeb10 [shape=record,label="{%48:\l\l  br label %49\l}"];
	Node0x559e62adeb10 -> Node0x559e62adf720;
	Node0x559e62adf720 [shape=record,label="{%49:\l\l  %50 = load i32, i32* %i, align 4\l  %51 = add nsw i32 %50, 1\l  store i32 %51, i32* %i, align 4\l  br label %13\l}"];
	Node0x559e62adf720 -> Node0x559e62ade250;
	Node0x559e62addb10 [shape=record,label="{%52:\l\l  ret void\l}"];
}
