digraph "CFG for '_GLOBAL__sub_I_18.cpp' function" {
	label="CFG for '_GLOBAL__sub_I_18.cpp' function";

	Node0x559e62ae6d20 [shape=record,label="{%0:\l  call void @__cxx_global_var_init()\l  ret void\l}"];
}
