digraph "CFG for '_Z6insertPc' function" {
	label="CFG for '_Z6insertPc' function";

	Node0x5578de7c8aa0 [shape=record,label="{%0:\l  %1 = alloca i8*, align 8\l  %m = alloca i8, align 1\l  %c = alloca i8, align 1\l  %i = alloca i32, align 4\l  %l = alloca i32, align 4\l  %j = alloca i32, align 4\l  %k = alloca i32, align 4\l  store i8* %a, i8** %1, align 8\l  store i32 0, i32* %l, align 4\l  %2 = load i8*, i8** %1, align 8\l  %3 = call i64 @strlen(i8* %2) #5\l  %4 = trunc i64 %3 to i32\l  store i32 %4, i32* %j, align 4\l  %5 = load i8*, i8** %1, align 8\l  %6 = call i64 @strlen(i8* %5) #5\l  %7 = icmp eq i64 %6, 0\l  br i1 %7, label %20, label %8\l|{<s0>T|<s1>F}}"];
	Node0x5578de7c8aa0:s0 -> Node0x5578de7c9500;
	Node0x5578de7c8aa0:s1 -> Node0x5578de7c9590;
	Node0x5578de7c9590 [shape=record,label="{%8:\l\l  %9 = load i8*, i8** %1, align 8\l  %10 = getelementptr inbounds i8, i8* %9, i64 0\l  %11 = load i8, i8* %10, align 1\l  %12 = sext i8 %11 to i32\l  %13 = icmp slt i32 %12, 33\l  br i1 %13, label %20, label %14\l|{<s0>T|<s1>F}}"];
	Node0x5578de7c9590:s0 -> Node0x5578de7c9500;
	Node0x5578de7c9590:s1 -> Node0x5578de7c9210;
	Node0x5578de7c9210 [shape=record,label="{%14:\l\l  %15 = load i8*, i8** %1, align 8\l  %16 = getelementptr inbounds i8, i8* %15, i64 0\l  %17 = load i8, i8* %16, align 1\l  %18 = sext i8 %17 to i32\l  %19 = icmp sgt i32 %18, 126\l  br i1 %19, label %20, label %21\l|{<s0>T|<s1>F}}"];
	Node0x5578de7c9210:s0 -> Node0x5578de7c9500;
	Node0x5578de7c9210:s1 -> Node0x5578de7c9d20;
	Node0x5578de7c9500 [shape=record,label="{%20:\l\l  br label %123\l}"];
	Node0x5578de7c9500 -> Node0x5578de7c9e40;
	Node0x5578de7c9d20 [shape=record,label="{%21:\l\l  store i8 0, i8* %m, align 1\l  store i32 0, i32* %i, align 4\l  br label %22\l}"];
	Node0x5578de7c9d20 -> Node0x5578de7c9ff0;
	Node0x5578de7c9ff0 [shape=record,label="{%22:\l\l  %23 = load i32, i32* %i, align 4\l  %24 = load i32, i32* %j, align 4\l  %25 = sub nsw i32 %24, 4\l  %26 = icmp slt i32 %23, %25\l  br i1 %26, label %27, label %49\l|{<s0>T|<s1>F}}"];
	Node0x5578de7c9ff0:s0 -> Node0x5578de7ca2a0;
	Node0x5578de7c9ff0:s1 -> Node0x5578de7ca330;
	Node0x5578de7ca2a0 [shape=record,label="{%27:\l\l  %28 = load i8, i8* %m, align 1\l  %29 = sext i8 %28 to i32\l  %30 = load i32, i32* %i, align 4\l  %31 = sext i32 %30 to i64\l  %32 = load i8*, i8** %1, align 8\l  %33 = getelementptr inbounds i8, i8* %32, i64 %31\l  %34 = load i8, i8* %33, align 1\l  %35 = sext i8 %34 to i32\l  %36 = icmp slt i32 %29, %35\l  br i1 %36, label %37, label %45\l|{<s0>T|<s1>F}}"];
	Node0x5578de7ca2a0:s0 -> Node0x5578de7ca920;
	Node0x5578de7ca2a0:s1 -> Node0x5578de7ca970;
	Node0x5578de7ca920 [shape=record,label="{%37:\l\l  %38 = load i32, i32* %i, align 4\l  %39 = sext i32 %38 to i64\l  %40 = load i8*, i8** %1, align 8\l  %41 = getelementptr inbounds i8, i8* %40, i64 %39\l  %42 = load i8, i8* %41, align 1\l  store i8 %42, i8* %m, align 1\l  %43 = load i32, i32* %i, align 4\l  %44 = add nsw i32 %43, 1\l  store i32 %44, i32* %l, align 4\l  br label %45\l}"];
	Node0x5578de7ca920 -> Node0x5578de7ca970;
	Node0x5578de7ca970 [shape=record,label="{%45:\l\l  br label %46\l}"];
	Node0x5578de7ca970 -> Node0x5578de7caee0;
	Node0x5578de7caee0 [shape=record,label="{%46:\l\l  %47 = load i32, i32* %i, align 4\l  %48 = add nsw i32 %47, 1\l  store i32 %48, i32* %i, align 4\l  br label %22\l}"];
	Node0x5578de7caee0 -> Node0x5578de7c9ff0;
	Node0x5578de7ca330 [shape=record,label="{%49:\l\l  store i32 0, i32* %i, align 4\l  br label %50\l}"];
	Node0x5578de7ca330 -> Node0x5578de7cb1d0;
	Node0x5578de7cb1d0 [shape=record,label="{%50:\l\l  %51 = load i32, i32* %i, align 4\l  %52 = icmp slt i32 %51, 3\l  br i1 %52, label %53, label %97\l|{<s0>T|<s1>F}}"];
	Node0x5578de7cb1d0:s0 -> Node0x5578de7cb360;
	Node0x5578de7cb1d0:s1 -> Node0x5578de7cb3b0;
	Node0x5578de7cb360 [shape=record,label="{%53:\l\l  %54 = load i32, i32* %j, align 4\l  %55 = sub nsw i32 %54, 3\l  %56 = load i32, i32* %i, align 4\l  %57 = add nsw i32 %55, %56\l  %58 = sext i32 %57 to i64\l  %59 = load i8*, i8** %1, align 8\l  %60 = getelementptr inbounds i8, i8* %59, i64 %58\l  %61 = load i8, i8* %60, align 1\l  store i8 %61, i8* %c, align 1\l  %62 = load i32, i32* %j, align 4\l  %63 = sub nsw i32 %62, 3\l  %64 = load i32, i32* %i, align 4\l  %65 = add nsw i32 %63, %64\l  store i32 %65, i32* %k, align 4\l  br label %66\l}"];
	Node0x5578de7cb360 -> Node0x5578de7ca730;
	Node0x5578de7ca730 [shape=record,label="{%66:\l\l  %67 = load i32, i32* %k, align 4\l  %68 = load i32, i32* %l, align 4\l  %69 = load i32, i32* %i, align 4\l  %70 = add nsw i32 %68, %69\l  %71 = icmp sgt i32 %67, %70\l  br i1 %71, label %72, label %86\l|{<s0>T|<s1>F}}"];
	Node0x5578de7ca730:s0 -> Node0x5578de7cf250;
	Node0x5578de7ca730:s1 -> Node0x5578de7cf2a0;
	Node0x5578de7cf250 [shape=record,label="{%72:\l\l  %73 = load i32, i32* %k, align 4\l  %74 = sub nsw i32 %73, 1\l  %75 = sext i32 %74 to i64\l  %76 = load i8*, i8** %1, align 8\l  %77 = getelementptr inbounds i8, i8* %76, i64 %75\l  %78 = load i8, i8* %77, align 1\l  %79 = load i32, i32* %k, align 4\l  %80 = sext i32 %79 to i64\l  %81 = load i8*, i8** %1, align 8\l  %82 = getelementptr inbounds i8, i8* %81, i64 %80\l  store i8 %78, i8* %82, align 1\l  br label %83\l}"];
	Node0x5578de7cf250 -> Node0x5578de7cf880;
	Node0x5578de7cf880 [shape=record,label="{%83:\l\l  %84 = load i32, i32* %k, align 4\l  %85 = add nsw i32 %84, -1\l  store i32 %85, i32* %k, align 4\l  br label %66\l}"];
	Node0x5578de7cf880 -> Node0x5578de7ca730;
	Node0x5578de7cf2a0 [shape=record,label="{%86:\l\l  %87 = load i8, i8* %c, align 1\l  %88 = load i32, i32* %l, align 4\l  %89 = load i32, i32* %i, align 4\l  %90 = add nsw i32 %88, %89\l  %91 = sext i32 %90 to i64\l  %92 = load i8*, i8** %1, align 8\l  %93 = getelementptr inbounds i8, i8* %92, i64 %91\l  store i8 %87, i8* %93, align 1\l  br label %94\l}"];
	Node0x5578de7cf2a0 -> Node0x5578de7cfe60;
	Node0x5578de7cfe60 [shape=record,label="{%94:\l\l  %95 = load i32, i32* %i, align 4\l  %96 = add nsw i32 %95, 1\l  store i32 %96, i32* %i, align 4\l  br label %50\l}"];
	Node0x5578de7cfe60 -> Node0x5578de7cb1d0;
	Node0x5578de7cb3b0 [shape=record,label="{%97:\l\l  store i32 0, i32* %i, align 4\l  br label %98\l}"];
	Node0x5578de7cb3b0 -> Node0x5578de7d0150;
	Node0x5578de7d0150 [shape=record,label="{%98:\l\l  %99 = load i32, i32* %i, align 4\l  %100 = load i32, i32* %j, align 4\l  %101 = sub nsw i32 %100, 2\l  %102 = icmp slt i32 %99, %101\l  br i1 %102, label %103, label %114\l|{<s0>T|<s1>F}}"];
	Node0x5578de7d0150:s0 -> Node0x5578de7d03c0;
	Node0x5578de7d0150:s1 -> Node0x5578de7d0410;
	Node0x5578de7d03c0 [shape=record,label="{%103:\l\l  %104 = load i32, i32* %i, align 4\l  %105 = sext i32 %104 to i64\l  %106 = load i8*, i8** %1, align 8\l  %107 = getelementptr inbounds i8, i8* %106, i64 %105\l  %108 = load i8, i8* %107, align 1\l  %109 = sext i8 %108 to i32\l  %110 = call i32 (i8*, ...) @printf(i8* getelementptr inbounds ([3 x i8], [3\l... x i8]* @.str, i32 0, i32 0), i32 %109)\l  br label %111\l}"];
	Node0x5578de7d03c0 -> Node0x5578de7d0b10;
	Node0x5578de7d0b10 [shape=record,label="{%111:\l\l  %112 = load i32, i32* %i, align 4\l  %113 = add nsw i32 %112, 1\l  store i32 %113, i32* %i, align 4\l  br label %98\l}"];
	Node0x5578de7d0b10 -> Node0x5578de7d0150;
	Node0x5578de7d0410 [shape=record,label="{%114:\l\l  %115 = load i32, i32* %j, align 4\l  %116 = sub nsw i32 %115, 2\l  %117 = sext i32 %116 to i64\l  %118 = load i8*, i8** %1, align 8\l  %119 = getelementptr inbounds i8, i8* %118, i64 %117\l  %120 = load i8, i8* %119, align 1\l  %121 = sext i8 %120 to i32\l  %122 = call i32 (i8*, ...) @printf(i8* getelementptr inbounds ([4 x i8], [4\l... x i8]* @.str.1, i32 0, i32 0), i32 %121)\l  br label %123\l}"];
	Node0x5578de7d0410 -> Node0x5578de7c9e40;
	Node0x5578de7c9e40 [shape=record,label="{%123:\l\l  ret void\l}"];
}
