digraph "CFG for '_GLOBAL__sub_I_13.cpp' function" {
	label="CFG for '_GLOBAL__sub_I_13.cpp' function";

	Node0x55ae8fe84270 [shape=record,label="{%0:\l  call void @__cxx_global_var_init()\l  ret void\l}"];
}
