digraph "CFG for '_GLOBAL__sub_I_400.cpp' function" {
	label="CFG for '_GLOBAL__sub_I_400.cpp' function";

	Node0x55e0908068d0 [shape=record,label="{%0:\l  call void @__cxx_global_var_init()\l  ret void\l}"];
}
