digraph "CFG for 'main' function" {
	label="CFG for 'main' function";

	Node0x55874cde40d0 [shape=record,label="{%0:\l  %1 = alloca i32, align 4\l  %n = alloca i32, align 4\l  %i = alloca i32, align 4\l  %sum = alloca i32, align 4\l  store i32 0, i32* %1, align 4\l  %2 = call i32 (i8*, ...) @scanf(i8* getelementptr inbounds ([3 x i8], [3 x\l... i8]* @.str, i32 0, i32 0), i32* %n)\l  br label %3\l}"];
	Node0x55874cde40d0 -> Node0x55874cde48e0;
	Node0x55874cde48e0 [shape=record,label="{%3:\l\l  %4 = load i32, i32* %n, align 4\l  %5 = icmp sgt i32 %4, 0\l  br i1 %5, label %6, label %16\l|{<s0>T|<s1>F}}"];
	Node0x55874cde48e0:s0 -> Node0x55874cde4a40;
	Node0x55874cde48e0:s1 -> Node0x55874cde4a90;
	Node0x55874cde4a40 [shape=record,label="{%6:\l\l  %7 = load i32, i32* %n, align 4\l  %8 = add nsw i32 %7, -1\l  store i32 %8, i32* %n, align 4\l  %9 = call i32 (i8*, ...) @scanf(i8* getelementptr inbounds ([3 x i8], [3 x\l... i8]* @.str, i32 0, i32 0), i32* %i)\l  store i32 1, i32* %sum, align 4\l  %10 = load i32, i32* %i, align 4\l  %11 = call i32 @_Z3funii(i32 2, i32 %10)\l  %12 = load i32, i32* %sum, align 4\l  %13 = add nsw i32 %12, %11\l  store i32 %13, i32* %sum, align 4\l  %14 = load i32, i32* %sum, align 4\l  %15 = call i32 (i8*, ...) @printf(i8* getelementptr inbounds ([4 x i8], [4 x\l... i8]* @.str.1, i32 0, i32 0), i32 %14)\l  br label %3\l}"];
	Node0x55874cde4a40 -> Node0x55874cde48e0;
	Node0x55874cde4a90 [shape=record,label="{%16:\l\l  ret i32 0\l}"];
}
