digraph "CFG for 'main' function" {
	label="CFG for 'main' function";

	Node0x56254591de40 [shape=record,label="{%0:\l  %1 = alloca i32, align 4\l  %n = alloca i32, align 4\l  %i = alloca i32, align 4\l  %m = alloca i32, align 4\l  %zimu = alloca [26 x i32], align 16\l  %pointer = alloca %struct.tushu*, align 8\l  store i32 0, i32* %1, align 4\l  store %struct.tushu* getelementptr inbounds ([1000 x %struct.tushu], [1000 x\l... %struct.tushu]* @book, i64 0, i64 0), %struct.tushu** %pointer, align 8\l  %2 = call i32 (i8*, ...) @scanf(i8* getelementptr inbounds ([3 x i8], [3 x\l... i8]* @.str, i32 0, i32 0), i32* %n)\l  store i32 0, i32* %i, align 4\l  br label %3\l}"];
	Node0x56254591de40 -> Node0x56254591e720;
	Node0x56254591e720 [shape=record,label="{%3:\l\l  %4 = load i32, i32* %i, align 4\l  %5 = load i32, i32* %n, align 4\l  %6 = icmp slt i32 %4, %5\l  br i1 %6, label %7, label %20\l|{<s0>T|<s1>F}}"];
	Node0x56254591e720:s0 -> Node0x56254591e8e0;
	Node0x56254591e720:s1 -> Node0x56254591e930;
	Node0x56254591e8e0 [shape=record,label="{%7:\l\l  %8 = load i32, i32* %i, align 4\l  %9 = sext i32 %8 to i64\l  %10 = getelementptr inbounds [1000 x %struct.tushu], [1000 x %struct.tushu]*\l... @book, i64 0, i64 %9\l  %11 = getelementptr inbounds %struct.tushu, %struct.tushu* %10, i32 0, i32 0\l  %12 = load i32, i32* %i, align 4\l  %13 = sext i32 %12 to i64\l  %14 = getelementptr inbounds [1000 x %struct.tushu], [1000 x %struct.tushu]*\l... @book, i64 0, i64 %13\l  %15 = getelementptr inbounds %struct.tushu, %struct.tushu* %14, i32 0, i32 1\l  %16 = call i32 (i8*, ...) @scanf(i8* getelementptr inbounds ([6 x i8], [6 x\l... i8]* @.str.1, i32 0, i32 0), i32* %11, [27 x i8]* %15)\l  br label %17\l}"];
	Node0x56254591e8e0 -> Node0x56254591eab0;
	Node0x56254591eab0 [shape=record,label="{%17:\l\l  %18 = load i32, i32* %i, align 4\l  %19 = add nsw i32 %18, 1\l  store i32 %19, i32* %i, align 4\l  br label %3\l}"];
	Node0x56254591eab0 -> Node0x56254591e720;
	Node0x56254591e930 [shape=record,label="{%20:\l\l  %21 = load %struct.tushu*, %struct.tushu** %pointer, align 8\l  %22 = getelementptr inbounds [26 x i32], [26 x i32]* %zimu, i32 0, i32 0\l  %23 = load i32, i32* %n, align 4\l  call void @_Z5jishuP5tushuPii(%struct.tushu* %21, i32* %22, i32 %23)\l  %24 = getelementptr inbounds [26 x i32], [26 x i32]* %zimu, i32 0, i32 0\l  %25 = call i32 @_Z3maxPi(i32* %24)\l  store i32 %25, i32* %m, align 4\l  %26 = load %struct.tushu*, %struct.tushu** %pointer, align 8\l  %27 = load i32, i32* %m, align 4\l  %28 = load i32, i32* %n, align 4\l  call void @_Z3shuP5tushuii(%struct.tushu* %26, i32 %27, i32 %28)\l  ret i32 0\l}"];
}
