digraph "Call graph" {
	label="Call graph";

	Node0x560b61376310 [shape=record,label="{external node}"];
	Node0x560b61376310 -> Node0x560b6137c0c0;
	Node0x560b61376310 -> Node0x560b6137c270;
	Node0x560b61376310 -> Node0x560b6137c270;
	Node0x560b61376310 -> Node0x560b6137c170;
	Node0x560b61376310 -> Node0x560b61388830;
	Node0x560b61376310 -> Node0x560b6137c340;
	Node0x560b61376310 -> Node0x560b613889f0;
	Node0x560b61376310 -> Node0x560b61388a70;
	Node0x560b61376310 -> Node0x560b61388b60;
	Node0x560b61376310 -> Node0x560b613888b0;
	Node0x560b613888b0 [shape=record,label="{_GLOBAL__sub_I_10.cpp}"];
	Node0x560b613888b0 -> Node0x560b6137c040;
	Node0x560b6137c040 [shape=record,label="{__cxx_global_var_init}"];
	Node0x560b6137c040 -> Node0x560b6137c0c0;
	Node0x560b6137c040 -> Node0x560b6137c170;
	Node0x560b6137c0c0 [shape=record,label="{_ZNSt8ios_base4InitC1Ev}"];
	Node0x560b6137c0c0 -> Node0x560b61376350;
	Node0x560b6137c270 [shape=record,label="{_ZNSt8ios_base4InitD1Ev}"];
	Node0x560b6137c270 -> Node0x560b61376350;
	Node0x560b6137c170 [shape=record,label="{__cxa_atexit}"];
	Node0x560b6137c170 -> Node0x560b61376350;
	Node0x560b61388830 [shape=record,label="{_Z4bodyv}"];
	Node0x560b61388830 -> Node0x560b6137c340;
	Node0x560b61388830 -> Node0x560b613889f0;
	Node0x560b61388830 -> Node0x560b613889f0;
	Node0x560b61388830 -> Node0x560b613889f0;
	Node0x560b61388830 -> Node0x560b613889f0;
	Node0x560b61388830 -> Node0x560b613889f0;
	Node0x560b61388830 -> Node0x560b61388a70;
	Node0x560b61388830 -> Node0x560b61388a70;
	Node0x560b61388830 -> Node0x560b61388a70;
	Node0x560b61388830 -> Node0x560b61388830;
	Node0x560b6137c340 [shape=record,label="{scanf}"];
	Node0x560b6137c340 -> Node0x560b61376350;
	Node0x560b613889f0 [shape=record,label="{strlen}"];
	Node0x560b613889f0 -> Node0x560b61376350;
	Node0x560b61388a70 [shape=record,label="{printf}"];
	Node0x560b61388a70 -> Node0x560b61376350;
	Node0x560b61388b60 [shape=record,label="{main}"];
	Node0x560b61388b60 -> Node0x560b61388830;
}
