digraph "Call graph" {
	label="Call graph";

	Node0x563d67457880 [shape=record,label="{external node}"];
	Node0x563d67457880 -> Node0x563d6746dd50;
	Node0x563d67457880 -> Node0x563d6746df00;
	Node0x563d67457880 -> Node0x563d6746df00;
	Node0x563d67457880 -> Node0x563d6746de00;
	Node0x563d67457880 -> Node0x563d67467d20;
	Node0x563d67457880 -> Node0x563d6746dfd0;
	Node0x563d67457880 -> Node0x563d67467e70;
	Node0x563d67457880 -> Node0x563d67467fb0;
	Node0x563d67467fb0 [shape=record,label="{_GLOBAL__sub_I_77.cpp}"];
	Node0x563d67467fb0 -> Node0x563d6746dcd0;
	Node0x563d6746dcd0 [shape=record,label="{__cxx_global_var_init}"];
	Node0x563d6746dcd0 -> Node0x563d6746dd50;
	Node0x563d6746dcd0 -> Node0x563d6746de00;
	Node0x563d6746dd50 [shape=record,label="{_ZNSt8ios_base4InitC1Ev}"];
	Node0x563d6746dd50 -> Node0x563d6746dc50;
	Node0x563d6746df00 [shape=record,label="{_ZNSt8ios_base4InitD1Ev}"];
	Node0x563d6746df00 -> Node0x563d6746dc50;
	Node0x563d6746de00 [shape=record,label="{__cxa_atexit}"];
	Node0x563d6746de00 -> Node0x563d6746dc50;
	Node0x563d67467d20 [shape=record,label="{main}"];
	Node0x563d67467d20 -> Node0x563d6746dfd0;
	Node0x563d67467d20 -> Node0x563d67467e70;
	Node0x563d67467d20 -> Node0x563d67467e70;
	Node0x563d6746dfd0 [shape=record,label="{scanf}"];
	Node0x563d6746dfd0 -> Node0x563d6746dc50;
	Node0x563d67467e70 [shape=record,label="{printf}"];
	Node0x563d67467e70 -> Node0x563d6746dc50;
}
