digraph "CFG for 'main' function" {
	label="CFG for 'main' function";

	Node0x556c82fe9a80 [shape=record,label="{%0:\l  %1 = alloca i32, align 4\l  %c = alloca i8, align 1\l  %count = alloca i32, align 4\l  %i = alloca i32, align 4\l  %a = alloca [301 x i32], align 16\l  %j = alloca i32, align 4\l  store i32 0, i32* %1, align 4\l  store i32 0, i32* %count, align 4\l  store i32 0, i32* %i, align 4\l  store i32 0, i32* %j, align 4\l  br label %2\l}"];
	Node0x556c82fe9a80 -> Node0x556c82fea130;
	Node0x556c82fea130 [shape=record,label="{%2:\l\l  %3 = load i32, i32* %j, align 4\l  %4 = icmp slt i32 %3, 301\l  br i1 %4, label %5, label %12\l|{<s0>T|<s1>F}}"];
	Node0x556c82fea130:s0 -> Node0x556c82fea290;
	Node0x556c82fea130:s1 -> Node0x556c82fea320;
	Node0x556c82fea290 [shape=record,label="{%5:\l\l  %6 = load i32, i32* %j, align 4\l  %7 = sext i32 %6 to i64\l  %8 = getelementptr inbounds [301 x i32], [301 x i32]* %a, i64 0, i64 %7\l  store i32 0, i32* %8, align 4\l  br label %9\l}"];
	Node0x556c82fea290 -> Node0x556c82fea240;
	Node0x556c82fea240 [shape=record,label="{%9:\l\l  %10 = load i32, i32* %j, align 4\l  %11 = add nsw i32 %10, 1\l  store i32 %11, i32* %j, align 4\l  br label %2\l}"];
	Node0x556c82fea240 -> Node0x556c82fea130;
	Node0x556c82fea320 [shape=record,label="{%12:\l\l  br label %13\l}"];
	Node0x556c82fea320 -> Node0x556c82fea8b0;
	Node0x556c82fea8b0 [shape=record,label="{%13:\l\l  %14 = call i32 (i8*, ...) @scanf(i8* getelementptr inbounds ([3 x i8], [3 x\l... i8]* @.str, i32 0, i32 0), i8* %c)\l  %15 = load i8, i8* %c, align 1\l  %16 = sext i8 %15 to i32\l  %17 = icmp ne i32 %16, 32\l  br i1 %17, label %18, label %37\l|{<s0>T|<s1>F}}"];
	Node0x556c82fea8b0:s0 -> Node0x556c82fea540;
	Node0x556c82fea8b0:s1 -> Node0x556c82feaef0;
	Node0x556c82fea540 [shape=record,label="{%18:\l\l  %19 = load i32, i32* %count, align 4\l  %20 = icmp eq i32 %19, 0\l  br i1 %20, label %21, label %27\l|{<s0>T|<s1>F}}"];
	Node0x556c82fea540:s0 -> Node0x556c82feb0b0;
	Node0x556c82fea540:s1 -> Node0x556c82feb100;
	Node0x556c82feb0b0 [shape=record,label="{%21:\l\l  store i32 1, i32* %count, align 4\l  %22 = load i32, i32* %i, align 4\l  %23 = sext i32 %22 to i64\l  %24 = getelementptr inbounds [301 x i32], [301 x i32]* %a, i64 0, i64 %23\l  %25 = load i32, i32* %24, align 4\l  %26 = add nsw i32 %25, 1\l  store i32 %26, i32* %24, align 4\l  br label %27\l}"];
	Node0x556c82feb0b0 -> Node0x556c82feb100;
	Node0x556c82feb100 [shape=record,label="{%27:\l\l  %28 = load i32, i32* %count, align 4\l  %29 = icmp eq i32 %28, 1\l  br i1 %29, label %30, label %36\l|{<s0>T|<s1>F}}"];
	Node0x556c82feb100:s0 -> Node0x556c82feb6a0;
	Node0x556c82feb100:s1 -> Node0x556c82feb6f0;
	Node0x556c82feb6a0 [shape=record,label="{%30:\l\l  %31 = load i32, i32* %i, align 4\l  %32 = sext i32 %31 to i64\l  %33 = getelementptr inbounds [301 x i32], [301 x i32]* %a, i64 0, i64 %32\l  %34 = load i32, i32* %33, align 4\l  %35 = add nsw i32 %34, 1\l  store i32 %35, i32* %33, align 4\l  br label %36\l}"];
	Node0x556c82feb6a0 -> Node0x556c82feb6f0;
	Node0x556c82feb6f0 [shape=record,label="{%36:\l\l  br label %49\l}"];
	Node0x556c82feb6f0 -> Node0x556c82febc00;
	Node0x556c82feaef0 [shape=record,label="{%37:\l\l  %38 = load i8, i8* %c, align 1\l  %39 = sext i8 %38 to i32\l  %40 = icmp eq i32 %39, 32\l  br i1 %40, label %41, label %48\l|{<s0>T|<s1>F}}"];
	Node0x556c82feaef0:s0 -> Node0x556c82febdf0;
	Node0x556c82feaef0:s1 -> Node0x556c82febe40;
	Node0x556c82febdf0 [shape=record,label="{%41:\l\l  %42 = load i32, i32* %count, align 4\l  %43 = icmp eq i32 %42, 1\l  br i1 %43, label %44, label %47\l|{<s0>T|<s1>F}}"];
	Node0x556c82febdf0:s0 -> Node0x556c82fec000;
	Node0x556c82febdf0:s1 -> Node0x556c82fec050;
	Node0x556c82fec000 [shape=record,label="{%44:\l\l  store i32 0, i32* %count, align 4\l  %45 = load i32, i32* %i, align 4\l  %46 = add nsw i32 %45, 1\l  store i32 %46, i32* %i, align 4\l  br label %47\l}"];
	Node0x556c82fec000 -> Node0x556c82fec050;
	Node0x556c82fec050 [shape=record,label="{%47:\l\l  br label %48\l}"];
	Node0x556c82fec050 -> Node0x556c82febe40;
	Node0x556c82febe40 [shape=record,label="{%48:\l\l  br label %49\l}"];
	Node0x556c82febe40 -> Node0x556c82febc00;
	Node0x556c82febc00 [shape=record,label="{%49:\l\l  br label %50\l}"];
	Node0x556c82febc00 -> Node0x556c82fec470;
	Node0x556c82fec470 [shape=record,label="{%50:\l\l  %51 = load i8, i8* %c, align 1\l  %52 = sext i8 %51 to i32\l  %53 = icmp ne i32 %52, 10\l  br i1 %53, label %13, label %54\l|{<s0>T|<s1>F}}"];
	Node0x556c82fec470:s0 -> Node0x556c82fea8b0;
	Node0x556c82fec470:s1 -> Node0x556c82fee450;
	Node0x556c82fee450 [shape=record,label="{%54:\l\l  store i32 0, i32* %j, align 4\l  br label %55\l}"];
	Node0x556c82fee450 -> Node0x556c82fee5b0;
	Node0x556c82fee5b0 [shape=record,label="{%55:\l\l  %56 = load i32, i32* %j, align 4\l  %57 = load i32, i32* %i, align 4\l  %58 = icmp slt i32 %56, %57\l  br i1 %58, label %59, label %69\l|{<s0>T|<s1>F}}"];
	Node0x556c82fee5b0:s0 -> Node0x556c82fee7a0;
	Node0x556c82fee5b0:s1 -> Node0x556c82fee7f0;
	Node0x556c82fee7a0 [shape=record,label="{%59:\l\l  %60 = load i32, i32* %j, align 4\l  %61 = sext i32 %60 to i64\l  %62 = getelementptr inbounds [301 x i32], [301 x i32]* %a, i64 0, i64 %61\l  %63 = load i32, i32* %62, align 4\l  %64 = sub nsw i32 %63, 1\l  %65 = call i32 (i8*, ...) @printf(i8* getelementptr inbounds ([4 x i8], [4 x\l... i8]* @.str.1, i32 0, i32 0), i32 %64)\l  br label %66\l}"];
	Node0x556c82fee7a0 -> Node0x556c82feefc0;
	Node0x556c82feefc0 [shape=record,label="{%66:\l\l  %67 = load i32, i32* %j, align 4\l  %68 = add nsw i32 %67, 1\l  store i32 %68, i32* %j, align 4\l  br label %55\l}"];
	Node0x556c82feefc0 -> Node0x556c82fee5b0;
	Node0x556c82fee7f0 [shape=record,label="{%69:\l\l  %70 = load i32, i32* %i, align 4\l  %71 = sext i32 %70 to i64\l  %72 = getelementptr inbounds [301 x i32], [301 x i32]* %a, i64 0, i64 %71\l  %73 = load i32, i32* %72, align 4\l  %74 = sub nsw i32 %73, 2\l  %75 = call i32 (i8*, ...) @printf(i8* getelementptr inbounds ([3 x i8], [3 x\l... i8]* @.str.2, i32 0, i32 0), i32 %74)\l  %76 = load i32, i32* %1, align 4\l  ret i32 %76\l}"];
}
