digraph "CFG for 'main' function" {
	label="CFG for 'main' function";

	Node0x562706a7e960 [shape=record,label="{%0:\l  %1 = alloca i32, align 4\l  %i = alloca i32, align 4\l  %j = alloca i32, align 4\l  %k = alloca i32, align 4\l  %tag = alloca i32, align 4\l  %flag = alloca i32, align 4\l  %e = alloca i32, align 4\l  %q = alloca [101 x i8], align 16\l  %tmp = alloca [50 x [101 x i8]], align 16\l  %p = alloca [101 x i8], align 16\l  %t = alloca [101 x i8], align 16\l  store i32 0, i32* %1, align 4\l  store i32 1, i32* %tag, align 4\l  store i32 1, i32* %flag, align 4\l  store i32 0, i32* %e, align 4\l  %2 = getelementptr inbounds [101 x i8], [101 x i8]* %q, i32 0, i32 0\l  %3 = call i8* @gets(i8* %2)\l  %4 = getelementptr inbounds [101 x i8], [101 x i8]* %p, i32 0, i32 0\l  %5 = call i8* @gets(i8* %4)\l  %6 = getelementptr inbounds [101 x i8], [101 x i8]* %t, i32 0, i32 0\l  %7 = call i8* @gets(i8* %6)\l  store i32 0, i32* %i, align 4\l  br label %8\l}"];
	Node0x562706a7e960 -> Node0x562706a7f930;
	Node0x562706a7f930 [shape=record,label="{%8:\l\l  %9 = load i32, i32* %i, align 4\l  %10 = icmp slt i32 %9, 50\l  br i1 %10, label %11, label %286\l|{<s0>T|<s1>F}}"];
	Node0x562706a7f930:s0 -> Node0x562706a7f5e0;
	Node0x562706a7f930:s1 -> Node0x562706a7fb10;
	Node0x562706a7f5e0 [shape=record,label="{%11:\l\l  store i32 0, i32* %k, align 4\l  store i32 1, i32* %flag, align 4\l  %12 = load i32, i32* %e, align 4\l  store i32 %12, i32* %j, align 4\l  br label %13\l}"];
	Node0x562706a7f5e0 -> Node0x562706a7fe10;
	Node0x562706a7fe10 [shape=record,label="{%13:\l\l  %14 = load i32, i32* %j, align 4\l  %15 = icmp slt i32 %14, 101\l  br i1 %15, label %16, label %103\l|{<s0>T|<s1>F}}"];
	Node0x562706a7fe10:s0 -> Node0x562706a7ffa0;
	Node0x562706a7fe10:s1 -> Node0x562706a80030;
	Node0x562706a7ffa0 [shape=record,label="{%16:\l\l  %17 = load i32, i32* %j, align 4\l  %18 = sext i32 %17 to i64\l  %19 = getelementptr inbounds [101 x i8], [101 x i8]* %q, i64 0, i64 %18\l  %20 = load i8, i8* %19, align 1\l  %21 = sext i8 %20 to i32\l  %22 = icmp ne i32 %21, 32\l  br i1 %22, label %23, label %50\l|{<s0>T|<s1>F}}"];
	Node0x562706a7ffa0:s0 -> Node0x562706a804e0;
	Node0x562706a7ffa0:s1 -> Node0x562706a80570;
	Node0x562706a804e0 [shape=record,label="{%23:\l\l  %24 = load i32, i32* %j, align 4\l  %25 = sext i32 %24 to i64\l  %26 = getelementptr inbounds [101 x i8], [101 x i8]* %q, i64 0, i64 %25\l  %27 = load i8, i8* %26, align 1\l  %28 = sext i8 %27 to i32\l  %29 = icmp ne i32 %28, 44\l  br i1 %29, label %30, label %50\l|{<s0>T|<s1>F}}"];
	Node0x562706a804e0:s0 -> Node0x562706a80930;
	Node0x562706a804e0:s1 -> Node0x562706a80570;
	Node0x562706a80930 [shape=record,label="{%30:\l\l  %31 = load i32, i32* %j, align 4\l  %32 = sext i32 %31 to i64\l  %33 = getelementptr inbounds [101 x i8], [101 x i8]* %q, i64 0, i64 %32\l  %34 = load i8, i8* %33, align 1\l  %35 = sext i8 %34 to i32\l  %36 = icmp ne i32 %35, 0\l  br i1 %36, label %37, label %50\l|{<s0>T|<s1>F}}"];
	Node0x562706a80930:s0 -> Node0x562706a80e00;
	Node0x562706a80930:s1 -> Node0x562706a80570;
	Node0x562706a80e00 [shape=record,label="{%37:\l\l  %38 = load i32, i32* %j, align 4\l  %39 = sext i32 %38 to i64\l  %40 = getelementptr inbounds [101 x i8], [101 x i8]* %q, i64 0, i64 %39\l  %41 = load i8, i8* %40, align 1\l  %42 = load i32, i32* %k, align 4\l  %43 = sext i32 %42 to i64\l  %44 = load i32, i32* %i, align 4\l  %45 = sext i32 %44 to i64\l  %46 = getelementptr inbounds [50 x [101 x i8]], [50 x [101 x i8]]* %tmp, i64\l... 0, i64 %45\l  %47 = getelementptr inbounds [101 x i8], [101 x i8]* %46, i64 0, i64 %43\l  store i8 %41, i8* %47, align 1\l  %48 = load i32, i32* %k, align 4\l  %49 = add nsw i32 %48, 1\l  store i32 %49, i32* %k, align 4\l  br label %99\l}"];
	Node0x562706a80e00 -> Node0x562706a81540;
	Node0x562706a80570 [shape=record,label="{%50:\l\l  %51 = load i32, i32* %j, align 4\l  %52 = sext i32 %51 to i64\l  %53 = getelementptr inbounds [101 x i8], [101 x i8]* %q, i64 0, i64 %52\l  %54 = load i8, i8* %53, align 1\l  %55 = sext i8 %54 to i32\l  %56 = icmp eq i32 %55, 32\l  br i1 %56, label %57, label %66\l|{<s0>T|<s1>F}}"];
	Node0x562706a80570:s0 -> Node0x562706a81890;
	Node0x562706a80570:s1 -> Node0x562706a818e0;
	Node0x562706a81890 [shape=record,label="{%57:\l\l  %58 = load i32, i32* %k, align 4\l  %59 = sext i32 %58 to i64\l  %60 = load i32, i32* %i, align 4\l  %61 = sext i32 %60 to i64\l  %62 = getelementptr inbounds [50 x [101 x i8]], [50 x [101 x i8]]* %tmp, i64\l... 0, i64 %61\l  %63 = getelementptr inbounds [101 x i8], [101 x i8]* %62, i64 0, i64 %59\l  store i8 0, i8* %63, align 1\l  %64 = load i32, i32* %j, align 4\l  %65 = add nsw i32 %64, 1\l  store i32 %65, i32* %e, align 4\l  br label %103\l}"];
	Node0x562706a81890 -> Node0x562706a80030;
	Node0x562706a818e0 [shape=record,label="{%66:\l\l  %67 = load i32, i32* %j, align 4\l  %68 = sext i32 %67 to i64\l  %69 = getelementptr inbounds [101 x i8], [101 x i8]* %q, i64 0, i64 %68\l  %70 = load i8, i8* %69, align 1\l  %71 = sext i8 %70 to i32\l  %72 = icmp eq i32 %71, 44\l  br i1 %72, label %73, label %82\l|{<s0>T|<s1>F}}"];
	Node0x562706a818e0:s0 -> Node0x562706a80cd0;
	Node0x562706a818e0:s1 -> Node0x562706a823f0;
	Node0x562706a80cd0 [shape=record,label="{%73:\l\l  %74 = load i32, i32* %k, align 4\l  %75 = sext i32 %74 to i64\l  %76 = load i32, i32* %i, align 4\l  %77 = sext i32 %76 to i64\l  %78 = getelementptr inbounds [50 x [101 x i8]], [50 x [101 x i8]]* %tmp, i64\l... 0, i64 %77\l  %79 = getelementptr inbounds [101 x i8], [101 x i8]* %78, i64 0, i64 %75\l  store i8 0, i8* %79, align 1\l  %80 = load i32, i32* %j, align 4\l  %81 = add nsw i32 %80, 2\l  store i32 %81, i32* %e, align 4\l  br label %103\l}"];
	Node0x562706a80cd0 -> Node0x562706a80030;
	Node0x562706a823f0 [shape=record,label="{%82:\l\l  %83 = load i32, i32* %j, align 4\l  %84 = sext i32 %83 to i64\l  %85 = getelementptr inbounds [101 x i8], [101 x i8]* %q, i64 0, i64 %84\l  %86 = load i8, i8* %85, align 1\l  %87 = sext i8 %86 to i32\l  %88 = icmp eq i32 %87, 0\l  br i1 %88, label %89, label %96\l|{<s0>T|<s1>F}}"];
	Node0x562706a823f0:s0 -> Node0x562706a82cb0;
	Node0x562706a823f0:s1 -> Node0x562706a82d00;
	Node0x562706a82cb0 [shape=record,label="{%89:\l\l  %90 = load i32, i32* %k, align 4\l  %91 = sext i32 %90 to i64\l  %92 = load i32, i32* %i, align 4\l  %93 = sext i32 %92 to i64\l  %94 = getelementptr inbounds [50 x [101 x i8]], [50 x [101 x i8]]* %tmp, i64\l... 0, i64 %93\l  %95 = getelementptr inbounds [101 x i8], [101 x i8]* %94, i64 0, i64 %91\l  store i8 0, i8* %95, align 1\l  store i32 0, i32* %tag, align 4\l  br label %103\l}"];
	Node0x562706a82cb0 -> Node0x562706a80030;
	Node0x562706a82d00 [shape=record,label="{%96:\l\l  br label %97\l}"];
	Node0x562706a82d00 -> Node0x562706a83240;
	Node0x562706a83240 [shape=record,label="{%97:\l\l  br label %98\l}"];
	Node0x562706a83240 -> Node0x562706a832f0;
	Node0x562706a832f0 [shape=record,label="{%98:\l\l  br label %99\l}"];
	Node0x562706a832f0 -> Node0x562706a81540;
	Node0x562706a81540 [shape=record,label="{%99:\l\l  br label %100\l}"];
	Node0x562706a81540 -> Node0x562706a83400;
	Node0x562706a83400 [shape=record,label="{%100:\l\l  %101 = load i32, i32* %j, align 4\l  %102 = add nsw i32 %101, 1\l  store i32 %102, i32* %j, align 4\l  br label %13\l}"];
	Node0x562706a83400 -> Node0x562706a7fe10;
	Node0x562706a80030 [shape=record,label="{%103:\l\l  store i32 0, i32* %j, align 4\l  br label %104\l}"];
	Node0x562706a80030 -> Node0x562706a836f0;
	Node0x562706a836f0 [shape=record,label="{%104:\l\l  %105 = load i32, i32* %j, align 4\l  %106 = icmp slt i32 %105, 101\l  br i1 %106, label %107, label %167\l|{<s0>T|<s1>F}}"];
	Node0x562706a836f0:s0 -> Node0x562706a83880;
	Node0x562706a836f0:s1 -> Node0x562706a838d0;
	Node0x562706a83880 [shape=record,label="{%107:\l\l  %108 = load i32, i32* %j, align 4\l  %109 = sext i32 %108 to i64\l  %110 = load i32, i32* %i, align 4\l  %111 = sext i32 %110 to i64\l  %112 = getelementptr inbounds [50 x [101 x i8]], [50 x [101 x i8]]* %tmp,\l... i64 0, i64 %111\l  %113 = getelementptr inbounds [101 x i8], [101 x i8]* %112, i64 0, i64 %109\l  %114 = load i8, i8* %113, align 1\l  %115 = sext i8 %114 to i32\l  %116 = load i32, i32* %j, align 4\l  %117 = sext i32 %116 to i64\l  %118 = getelementptr inbounds [101 x i8], [101 x i8]* %p, i64 0, i64 %117\l  %119 = load i8, i8* %118, align 1\l  %120 = sext i8 %119 to i32\l  %121 = icmp ne i32 %115, %120\l  br i1 %121, label %122, label %130\l|{<s0>T|<s1>F}}"];
	Node0x562706a83880:s0 -> Node0x562706a83fd0;
	Node0x562706a83880:s1 -> Node0x562706a84020;
	Node0x562706a83fd0 [shape=record,label="{%122:\l\l  %123 = load i32, i32* %j, align 4\l  %124 = sext i32 %123 to i64\l  %125 = getelementptr inbounds [101 x i8], [101 x i8]* %p, i64 0, i64 %124\l  %126 = load i8, i8* %125, align 1\l  %127 = sext i8 %126 to i32\l  %128 = icmp ne i32 %127, 0\l  br i1 %128, label %129, label %130\l|{<s0>T|<s1>F}}"];
	Node0x562706a83fd0:s0 -> Node0x562706a81da0;
	Node0x562706a83fd0:s1 -> Node0x562706a84020;
	Node0x562706a81da0 [shape=record,label="{%129:\l\l  store i32 0, i32* %flag, align 4\l  br label %167\l}"];
	Node0x562706a81da0 -> Node0x562706a838d0;
	Node0x562706a84020 [shape=record,label="{%130:\l\l  %131 = load i32, i32* %j, align 4\l  %132 = sext i32 %131 to i64\l  %133 = load i32, i32* %i, align 4\l  %134 = sext i32 %133 to i64\l  %135 = getelementptr inbounds [50 x [101 x i8]], [50 x [101 x i8]]* %tmp,\l... i64 0, i64 %134\l  %136 = getelementptr inbounds [101 x i8], [101 x i8]* %135, i64 0, i64 %132\l  %137 = load i8, i8* %136, align 1\l  %138 = sext i8 %137 to i32\l  %139 = load i32, i32* %j, align 4\l  %140 = sext i32 %139 to i64\l  %141 = getelementptr inbounds [101 x i8], [101 x i8]* %p, i64 0, i64 %140\l  %142 = load i8, i8* %141, align 1\l  %143 = sext i8 %142 to i32\l  %144 = icmp eq i32 %138, %143\l  br i1 %144, label %145, label %153\l|{<s0>T|<s1>F}}"];
	Node0x562706a84020:s0 -> Node0x562706a84fb0;
	Node0x562706a84020:s1 -> Node0x562706a85000;
	Node0x562706a84fb0 [shape=record,label="{%145:\l\l  %146 = load i32, i32* %j, align 4\l  %147 = sext i32 %146 to i64\l  %148 = getelementptr inbounds [101 x i8], [101 x i8]* %p, i64 0, i64 %147\l  %149 = load i8, i8* %148, align 1\l  %150 = sext i8 %149 to i32\l  %151 = icmp ne i32 %150, 0\l  br i1 %151, label %152, label %153\l|{<s0>T|<s1>F}}"];
	Node0x562706a84fb0:s0 -> Node0x562706a85380;
	Node0x562706a84fb0:s1 -> Node0x562706a85000;
	Node0x562706a85380 [shape=record,label="{%152:\l\l  br label %164\l}"];
	Node0x562706a85380 -> Node0x562706a85460;
	Node0x562706a85000 [shape=record,label="{%153:\l\l  %154 = load i32, i32* %j, align 4\l  %155 = sext i32 %154 to i64\l  %156 = getelementptr inbounds [101 x i8], [101 x i8]* %p, i64 0, i64 %155\l  %157 = load i8, i8* %156, align 1\l  %158 = sext i8 %157 to i32\l  %159 = icmp eq i32 %158, 0\l  br i1 %159, label %160, label %161\l|{<s0>T|<s1>F}}"];
	Node0x562706a85000:s0 -> Node0x562706a857b0;
	Node0x562706a85000:s1 -> Node0x562706a85800;
	Node0x562706a857b0 [shape=record,label="{%160:\l\l  br label %167\l}"];
	Node0x562706a857b0 -> Node0x562706a838d0;
	Node0x562706a85800 [shape=record,label="{%161:\l\l  br label %162\l}"];
	Node0x562706a85800 -> Node0x562706a85940;
	Node0x562706a85940 [shape=record,label="{%162:\l\l  br label %163\l}"];
	Node0x562706a85940 -> Node0x562706a859f0;
	Node0x562706a859f0 [shape=record,label="{%163:\l\l  br label %164\l}"];
	Node0x562706a859f0 -> Node0x562706a85460;
	Node0x562706a85460 [shape=record,label="{%164:\l\l  %165 = load i32, i32* %j, align 4\l  %166 = add nsw i32 %165, 1\l  store i32 %166, i32* %j, align 4\l  br label %104\l}"];
	Node0x562706a85460 -> Node0x562706a836f0;
	Node0x562706a838d0 [shape=record,label="{%167:\l\l  %168 = load i32, i32* %tag, align 4\l  %169 = icmp eq i32 %168, 1\l  br i1 %169, label %170, label %182\l|{<s0>T|<s1>F}}"];
	Node0x562706a838d0:s0 -> Node0x562706a85da0;
	Node0x562706a838d0:s1 -> Node0x562706a85df0;
	Node0x562706a85da0 [shape=record,label="{%170:\l\l  %171 = load i32, i32* %flag, align 4\l  %172 = icmp eq i32 %171, 0\l  br i1 %172, label %173, label %182\l|{<s0>T|<s1>F}}"];
	Node0x562706a85da0:s0 -> Node0x562706a85fb0;
	Node0x562706a85da0:s1 -> Node0x562706a85df0;
	Node0x562706a85fb0 [shape=record,label="{%173:\l\l  %174 = load i32, i32* %i, align 4\l  %175 = icmp sgt i32 %174, 0\l  br i1 %175, label %176, label %182\l|{<s0>T|<s1>F}}"];
	Node0x562706a85fb0:s0 -> Node0x562706a86170;
	Node0x562706a85fb0:s1 -> Node0x562706a85df0;
	Node0x562706a86170 [shape=record,label="{%176:\l\l  %177 = load i32, i32* %i, align 4\l  %178 = sext i32 %177 to i64\l  %179 = getelementptr inbounds [50 x [101 x i8]], [50 x [101 x i8]]* %tmp,\l... i64 0, i64 %178\l  %180 = getelementptr inbounds [101 x i8], [101 x i8]* %179, i32 0, i32 0\l  %181 = call i32 (i8*, ...) @printf(i8* getelementptr inbounds ([4 x i8], [4\l... x i8]* @.str, i32 0, i32 0), i8* %180)\l  br label %282\l}"];
	Node0x562706a86170 -> Node0x562706a86810;
	Node0x562706a85df0 [shape=record,label="{%182:\l\l  %183 = load i32, i32* %tag, align 4\l  %184 = icmp eq i32 %183, 1\l  br i1 %184, label %185, label %194\l|{<s0>T|<s1>F}}"];
	Node0x562706a85df0:s0 -> Node0x562706a86920;
	Node0x562706a85df0:s1 -> Node0x562706a86970;
	Node0x562706a86920 [shape=record,label="{%185:\l\l  %186 = load i32, i32* %flag, align 4\l  %187 = icmp eq i32 %186, 1\l  br i1 %187, label %188, label %194\l|{<s0>T|<s1>F}}"];
	Node0x562706a86920:s0 -> Node0x562706a86b30;
	Node0x562706a86920:s1 -> Node0x562706a86970;
	Node0x562706a86b30 [shape=record,label="{%188:\l\l  %189 = load i32, i32* %i, align 4\l  %190 = icmp sgt i32 %189, 0\l  br i1 %190, label %191, label %194\l|{<s0>T|<s1>F}}"];
	Node0x562706a86b30:s0 -> Node0x562706a86cf0;
	Node0x562706a86b30:s1 -> Node0x562706a86970;
	Node0x562706a86cf0 [shape=record,label="{%191:\l\l  %192 = getelementptr inbounds [101 x i8], [101 x i8]* %t, i32 0, i32 0\l  %193 = call i32 (i8*, ...) @printf(i8* getelementptr inbounds ([4 x i8], [4\l... x i8]* @.str, i32 0, i32 0), i8* %192)\l  br label %281\l}"];
	Node0x562706a86cf0 -> Node0x562706a86f80;
	Node0x562706a86970 [shape=record,label="{%194:\l\l  %195 = load i32, i32* %tag, align 4\l  %196 = icmp eq i32 %195, 0\l  br i1 %196, label %197, label %209\l|{<s0>T|<s1>F}}"];
	Node0x562706a86970:s0 -> Node0x562706a87110;
	Node0x562706a86970:s1 -> Node0x562706a87160;
	Node0x562706a87110 [shape=record,label="{%197:\l\l  %198 = load i32, i32* %flag, align 4\l  %199 = icmp eq i32 %198, 0\l  br i1 %199, label %200, label %209\l|{<s0>T|<s1>F}}"];
	Node0x562706a87110:s0 -> Node0x562706a87320;
	Node0x562706a87110:s1 -> Node0x562706a87160;
	Node0x562706a87320 [shape=record,label="{%200:\l\l  %201 = load i32, i32* %i, align 4\l  %202 = icmp sgt i32 %201, 0\l  br i1 %202, label %203, label %209\l|{<s0>T|<s1>F}}"];
	Node0x562706a87320:s0 -> Node0x562706a874e0;
	Node0x562706a87320:s1 -> Node0x562706a87160;
	Node0x562706a874e0 [shape=record,label="{%203:\l\l  %204 = load i32, i32* %i, align 4\l  %205 = sext i32 %204 to i64\l  %206 = getelementptr inbounds [50 x [101 x i8]], [50 x [101 x i8]]* %tmp,\l... i64 0, i64 %205\l  %207 = getelementptr inbounds [101 x i8], [101 x i8]* %206, i32 0, i32 0\l  %208 = call i32 (i8*, ...) @printf(i8* getelementptr inbounds ([4 x i8], [4\l... x i8]* @.str, i32 0, i32 0), i8* %207)\l  br label %286\l}"];
	Node0x562706a874e0 -> Node0x562706a7fb10;
	Node0x562706a87160 [shape=record,label="{%209:\l\l  %210 = load i32, i32* %tag, align 4\l  %211 = icmp eq i32 %210, 0\l  br i1 %211, label %212, label %221\l|{<s0>T|<s1>F}}"];
	Node0x562706a87160:s0 -> Node0x562706a879f0;
	Node0x562706a87160:s1 -> Node0x562706a87a40;
	Node0x562706a879f0 [shape=record,label="{%212:\l\l  %213 = load i32, i32* %flag, align 4\l  %214 = icmp eq i32 %213, 1\l  br i1 %214, label %215, label %221\l|{<s0>T|<s1>F}}"];
	Node0x562706a879f0:s0 -> Node0x562706a87c00;
	Node0x562706a879f0:s1 -> Node0x562706a87a40;
	Node0x562706a87c00 [shape=record,label="{%215:\l\l  %216 = load i32, i32* %i, align 4\l  %217 = icmp sgt i32 %216, 0\l  br i1 %217, label %218, label %221\l|{<s0>T|<s1>F}}"];
	Node0x562706a87c00:s0 -> Node0x562706a87dc0;
	Node0x562706a87c00:s1 -> Node0x562706a87a40;
	Node0x562706a87dc0 [shape=record,label="{%218:\l\l  %219 = getelementptr inbounds [101 x i8], [101 x i8]* %t, i32 0, i32 0\l  %220 = call i32 (i8*, ...) @printf(i8* getelementptr inbounds ([4 x i8], [4\l... x i8]* @.str, i32 0, i32 0), i8* %219)\l  br label %286\l}"];
	Node0x562706a87dc0 -> Node0x562706a7fb10;
	Node0x562706a87a40 [shape=record,label="{%221:\l\l  %222 = load i32, i32* %tag, align 4\l  %223 = icmp eq i32 %222, 1\l  br i1 %223, label %224, label %236\l|{<s0>T|<s1>F}}"];
	Node0x562706a87a40:s0 -> Node0x562706a88170;
	Node0x562706a87a40:s1 -> Node0x562706a881c0;
	Node0x562706a88170 [shape=record,label="{%224:\l\l  %225 = load i32, i32* %flag, align 4\l  %226 = icmp eq i32 %225, 0\l  br i1 %226, label %227, label %236\l|{<s0>T|<s1>F}}"];
	Node0x562706a88170:s0 -> Node0x562706a88380;
	Node0x562706a88170:s1 -> Node0x562706a881c0;
	Node0x562706a88380 [shape=record,label="{%227:\l\l  %228 = load i32, i32* %i, align 4\l  %229 = icmp eq i32 %228, 0\l  br i1 %229, label %230, label %236\l|{<s0>T|<s1>F}}"];
	Node0x562706a88380:s0 -> Node0x562706a88540;
	Node0x562706a88380:s1 -> Node0x562706a881c0;
	Node0x562706a88540 [shape=record,label="{%230:\l\l  %231 = load i32, i32* %i, align 4\l  %232 = sext i32 %231 to i64\l  %233 = getelementptr inbounds [50 x [101 x i8]], [50 x [101 x i8]]* %tmp,\l... i64 0, i64 %232\l  %234 = getelementptr inbounds [101 x i8], [101 x i8]* %233, i32 0, i32 0\l  %235 = call i32 (i8*, ...) @printf(i8* getelementptr inbounds ([3 x i8], [3\l... x i8]* @.str.1, i32 0, i32 0), i8* %234)\l  br label %278\l}"];
	Node0x562706a88540 -> Node0x562706a88990;
	Node0x562706a881c0 [shape=record,label="{%236:\l\l  %237 = load i32, i32* %tag, align 4\l  %238 = icmp eq i32 %237, 1\l  br i1 %238, label %239, label %248\l|{<s0>T|<s1>F}}"];
	Node0x562706a881c0:s0 -> Node0x562706a88b20;
	Node0x562706a881c0:s1 -> Node0x562706a88b70;
	Node0x562706a88b20 [shape=record,label="{%239:\l\l  %240 = load i32, i32* %flag, align 4\l  %241 = icmp eq i32 %240, 1\l  br i1 %241, label %242, label %248\l|{<s0>T|<s1>F}}"];
	Node0x562706a88b20:s0 -> Node0x562706a88d70;
	Node0x562706a88b20:s1 -> Node0x562706a88b70;
	Node0x562706a88d70 [shape=record,label="{%242:\l\l  %243 = load i32, i32* %i, align 4\l  %244 = icmp eq i32 %243, 0\l  br i1 %244, label %245, label %248\l|{<s0>T|<s1>F}}"];
	Node0x562706a88d70:s0 -> Node0x562706a88f30;
	Node0x562706a88d70:s1 -> Node0x562706a88b70;
	Node0x562706a88f30 [shape=record,label="{%245:\l\l  %246 = getelementptr inbounds [101 x i8], [101 x i8]* %t, i32 0, i32 0\l  %247 = call i32 (i8*, ...) @printf(i8* getelementptr inbounds ([3 x i8], [3\l... x i8]* @.str.1, i32 0, i32 0), i8* %246)\l  br label %277\l}"];
	Node0x562706a88f30 -> Node0x562706a891a0;
	Node0x562706a88b70 [shape=record,label="{%248:\l\l  %249 = load i32, i32* %tag, align 4\l  %250 = icmp eq i32 %249, 0\l  br i1 %250, label %251, label %263\l|{<s0>T|<s1>F}}"];
	Node0x562706a88b70:s0 -> Node0x562706a89330;
	Node0x562706a88b70:s1 -> Node0x562706a89380;
	Node0x562706a89330 [shape=record,label="{%251:\l\l  %252 = load i32, i32* %flag, align 4\l  %253 = icmp eq i32 %252, 0\l  br i1 %253, label %254, label %263\l|{<s0>T|<s1>F}}"];
	Node0x562706a89330:s0 -> Node0x562706a89500;
	Node0x562706a89330:s1 -> Node0x562706a89380;
	Node0x562706a89500 [shape=record,label="{%254:\l\l  %255 = load i32, i32* %i, align 4\l  %256 = icmp eq i32 %255, 0\l  br i1 %256, label %257, label %263\l|{<s0>T|<s1>F}}"];
	Node0x562706a89500:s0 -> Node0x562706a843a0;
	Node0x562706a89500:s1 -> Node0x562706a89380;
	Node0x562706a843a0 [shape=record,label="{%257:\l\l  %258 = load i32, i32* %i, align 4\l  %259 = sext i32 %258 to i64\l  %260 = getelementptr inbounds [50 x [101 x i8]], [50 x [101 x i8]]* %tmp,\l... i64 0, i64 %259\l  %261 = getelementptr inbounds [101 x i8], [101 x i8]* %260, i32 0, i32 0\l  %262 = call i32 (i8*, ...) @printf(i8* getelementptr inbounds ([3 x i8], [3\l... x i8]* @.str.1, i32 0, i32 0), i8* %261)\l  br label %286\l}"];
	Node0x562706a843a0 -> Node0x562706a7fb10;
	Node0x562706a89380 [shape=record,label="{%263:\l\l  %264 = load i32, i32* %tag, align 4\l  %265 = icmp eq i32 %264, 0\l  br i1 %265, label %266, label %275\l|{<s0>T|<s1>F}}"];
	Node0x562706a89380:s0 -> Node0x562706a848b0;
	Node0x562706a89380:s1 -> Node0x562706a84900;
	Node0x562706a848b0 [shape=record,label="{%266:\l\l  %267 = load i32, i32* %flag, align 4\l  %268 = icmp eq i32 %267, 1\l  br i1 %268, label %269, label %275\l|{<s0>T|<s1>F}}"];
	Node0x562706a848b0:s0 -> Node0x562706a84ac0;
	Node0x562706a848b0:s1 -> Node0x562706a84900;
	Node0x562706a84ac0 [shape=record,label="{%269:\l\l  %270 = load i32, i32* %i, align 4\l  %271 = icmp eq i32 %270, 0\l  br i1 %271, label %272, label %275\l|{<s0>T|<s1>F}}"];
	Node0x562706a84ac0:s0 -> Node0x562706a8f750;
	Node0x562706a84ac0:s1 -> Node0x562706a84900;
	Node0x562706a8f750 [shape=record,label="{%272:\l\l  %273 = getelementptr inbounds [101 x i8], [101 x i8]* %t, i32 0, i32 0\l  %274 = call i32 (i8*, ...) @printf(i8* getelementptr inbounds ([3 x i8], [3\l... x i8]* @.str.1, i32 0, i32 0), i8* %273)\l  br label %286\l}"];
	Node0x562706a8f750 -> Node0x562706a7fb10;
	Node0x562706a84900 [shape=record,label="{%275:\l\l  br label %276\l}"];
	Node0x562706a84900 -> Node0x562706a8fa20;
	Node0x562706a8fa20 [shape=record,label="{%276:\l\l  br label %277\l}"];
	Node0x562706a8fa20 -> Node0x562706a891a0;
	Node0x562706a891a0 [shape=record,label="{%277:\l\l  br label %278\l}"];
	Node0x562706a891a0 -> Node0x562706a88990;
	Node0x562706a88990 [shape=record,label="{%278:\l\l  br label %279\l}"];
	Node0x562706a88990 -> Node0x562706a8fb90;
	Node0x562706a8fb90 [shape=record,label="{%279:\l\l  br label %280\l}"];
	Node0x562706a8fb90 -> Node0x562706a8fc40;
	Node0x562706a8fc40 [shape=record,label="{%280:\l\l  br label %281\l}"];
	Node0x562706a8fc40 -> Node0x562706a86f80;
	Node0x562706a86f80 [shape=record,label="{%281:\l\l  br label %282\l}"];
	Node0x562706a86f80 -> Node0x562706a86810;
	Node0x562706a86810 [shape=record,label="{%282:\l\l  br label %283\l}"];
	Node0x562706a86810 -> Node0x562706a8fdb0;
	Node0x562706a8fdb0 [shape=record,label="{%283:\l\l  %284 = load i32, i32* %i, align 4\l  %285 = add nsw i32 %284, 1\l  store i32 %285, i32* %i, align 4\l  br label %8\l}"];
	Node0x562706a8fdb0 -> Node0x562706a7f930;
	Node0x562706a7fb10 [shape=record,label="{%286:\l\l  %287 = load i32, i32* %1, align 4\l  ret i32 %287\l}"];
}
