digraph "CFG for '__cxx_global_var_init' function" {
	label="CFG for '__cxx_global_var_init' function";

	Node0x560bad3617c0 [shape=record,label="{%0:\l  call void @_ZNSt8ios_base4InitC1Ev(%\"class.std::ios_base::Init\"*\l... @_ZStL8__ioinit)\l  %1 = call i32 @__cxa_atexit(void (i8*)* bitcast (void\l... (%\"class.std::ios_base::Init\"*)* @_ZNSt8ios_base4InitD1Ev to void (i8*)*),\l... i8* getelementptr inbounds (%\"class.std::ios_base::Init\",\l... %\"class.std::ios_base::Init\"* @_ZStL8__ioinit, i32 0, i32 0), i8*\l... @__dso_handle) #2\l  ret void\l}"];
}
