digraph "CFG for '_GLOBAL__sub_I_25.cpp' function" {
	label="CFG for '_GLOBAL__sub_I_25.cpp' function";

	Node0x557c8f020150 [shape=record,label="{%0:\l  call void @__cxx_global_var_init()\l  ret void\l}"];
}
