digraph "CFG for '_Z3fffiii' function" {
	label="CFG for '_Z3fffiii' function";

	Node0x557c8f01e780 [shape=record,label="{%0:\l  %1 = alloca i32, align 4\l  %2 = alloca i32, align 4\l  %3 = alloca i32, align 4\l  %4 = alloca i32, align 4\l  %i = alloca i32, align 4\l  %j = alloca i32, align 4\l  %y = alloca i32, align 4\l  %n = alloca i32, align 4\l  %m = alloca i32, align 4\l  %p = alloca i32, align 4\l  store i32 %w, i32* %2, align 4\l  store i32 %t, i32* %3, align 4\l  store i32 %x, i32* %4, align 4\l  %5 = load i32, i32* %3, align 4\l  store i32 %5, i32* %i, align 4\l  br label %6\l}"];
	Node0x557c8f01e780 -> Node0x557c8f01ef60;
	Node0x557c8f01ef60 [shape=record,label="{%6:\l\l  %7 = load i32, i32* %i, align 4\l  %8 = load i32, i32* %2, align 4\l  %9 = icmp sle i32 %7, %8\l  br i1 %9, label %10, label %49\l|{<s0>T|<s1>F}}"];
	Node0x557c8f01ef60:s0 -> Node0x557c8f01e9f0;
	Node0x557c8f01ef60:s1 -> Node0x557c8f01f180;
	Node0x557c8f01e9f0 [shape=record,label="{%10:\l\l  %11 = load i32, i32* %4, align 4\l  %12 = load i32, i32* %i, align 4\l  %13 = sext i32 %12 to i64\l  %14 = getelementptr inbounds [1000 x i32], [1000 x i32]* @a, i64 0, i64 %13\l  %15 = load i32, i32* %14, align 4\l  %16 = srem i32 %11, %15\l  %17 = icmp eq i32 %16, 0\l  br i1 %17, label %18, label %45\l|{<s0>T|<s1>F}}"];
	Node0x557c8f01e9f0:s0 -> Node0x557c8f01f650;
	Node0x557c8f01e9f0:s1 -> Node0x557c8f01f6a0;
	Node0x557c8f01f650 [shape=record,label="{%18:\l\l  %19 = load i32, i32* %4, align 4\l  %20 = load i32, i32* %i, align 4\l  %21 = sext i32 %20 to i64\l  %22 = getelementptr inbounds [1000 x i32], [1000 x i32]* @a, i64 0, i64 %21\l  %23 = load i32, i32* %22, align 4\l  %24 = sdiv i32 %19, %23\l  store i32 %24, i32* %4, align 4\l  %25 = load i32, i32* %4, align 4\l  %26 = icmp eq i32 %25, 1\l  br i1 %26, label %27, label %30\l|{<s0>T|<s1>F}}"];
	Node0x557c8f01f650:s0 -> Node0x557c8f01fbc0;
	Node0x557c8f01f650:s1 -> Node0x557c8f01fc10;
	Node0x557c8f01fbc0 [shape=record,label="{%27:\l\l  %28 = load i32, i32* @l, align 4\l  %29 = add nsw i32 %28, 1\l  store i32 %29, i32* @l, align 4\l  br label %30\l}"];
	Node0x557c8f01fbc0 -> Node0x557c8f01fc10;
	Node0x557c8f01fc10 [shape=record,label="{%30:\l\l  %31 = load i32, i32* %4, align 4\l  %32 = icmp sgt i32 %31, 1\l  br i1 %32, label %33, label %38\l|{<s0>T|<s1>F}}"];
	Node0x557c8f01fc10:s0 -> Node0x557c8f01f540;
	Node0x557c8f01fc10:s1 -> Node0x557c8f01f590;
	Node0x557c8f01f540 [shape=record,label="{%33:\l\l  %34 = load i32, i32* %2, align 4\l  %35 = load i32, i32* %i, align 4\l  %36 = load i32, i32* %4, align 4\l  %37 = call i32 @_Z3fffiii(i32 %34, i32 %35, i32 %36)\l  br label %38\l}"];
	Node0x557c8f01f540 -> Node0x557c8f01f590;
	Node0x557c8f01f590 [shape=record,label="{%38:\l\l  %39 = load i32, i32* %4, align 4\l  %40 = load i32, i32* %i, align 4\l  %41 = sext i32 %40 to i64\l  %42 = getelementptr inbounds [1000 x i32], [1000 x i32]* @a, i64 0, i64 %41\l  %43 = load i32, i32* %42, align 4\l  %44 = mul nsw i32 %39, %43\l  store i32 %44, i32* %4, align 4\l  br label %45\l}"];
	Node0x557c8f01f590 -> Node0x557c8f01f6a0;
	Node0x557c8f01f6a0 [shape=record,label="{%45:\l\l  br label %46\l}"];
	Node0x557c8f01f6a0 -> Node0x557c8f020860;
	Node0x557c8f020860 [shape=record,label="{%46:\l\l  %47 = load i32, i32* %i, align 4\l  %48 = add nsw i32 %47, 1\l  store i32 %48, i32* %i, align 4\l  br label %6\l}"];
	Node0x557c8f020860 -> Node0x557c8f01ef60;
	Node0x557c8f01f180 [shape=record,label="{%49:\l\l  call void @llvm.trap()\l  unreachable\l}"];
	Node0x557c8f020d50 [shape=record,label="{%50:                                                  \l  %51 = load i32, i32* %1, align 4\l  ret i32 %51\l}"];
}
