id,for-nested-for,for-nested-if,for-seq-for,for-seq-if,if-nested-for,if-nested-if,if-seq-for,if-seq-if,label
1_13,1,2,0,0,0,0,0,0,1
1_14,0,0,1,0,0,0,0,0,1
1_17,0,0,0,0,0,0,0,0,1
1_18,0,0,1,0,0,0,0,0,1
1_21,0,0,0,0,0,0,0,0,1
1_2278,0,0,0,0,0,0,0,0,1
1_2290,0,0,0,0,0,0,0,0,1
1_24,1,2,0,0,0,0,0,0,1
1_25,1,2,0,0,0,0,0,0,1
1_26,1,2,0,0,0,0,0,0,1
1_30,0,0,0,0,0,0,0,0,1
1_31,0,0,0,0,0,0,0,0,1
1_39,0,0,1,0,0,0,0,0,1
1_40,0,0,0,0,0,0,0,0,1
2_378,27,32,47,0,0,0,0,0,2
2_379,0,0,0,0,0,0,0,0,2
2_392,12,15,10,0,0,0,0,0,2
2_393,9,12,6,0,0,0,0,0,2
2_400,4,12,3,0,0,3,0,0,2
2_401,14,17,6,0,2,1,0,0,2
2_412,14,12,10,0,0,0,0,0,2
2_413,28,31,6,2,2,2,0,0,2
2_428,1,4,1,0,0,0,0,0,2
2_429,9,12,6,0,0,0,0,0,2
2_442,4,6,3,0,0,0,0,0,2
2_444,2,3,6,0,0,0,0,0,2
20_1,0,1,0,0,0,0,0,0,20
20_10,0,0,0,0,0,0,0,0,20
20_17,0,0,0,0,0,0,0,0,20
20_18,8,3,7,0,0,0,0,0,20
20_19,8,3,7,0,0,0,0,0,20
20_26,0,1,10,0,0,0,0,0,20
20_28,0,0,10,0,5,0,0,0,20
20_29,3,3,3,0,0,0,0,0,20
20_30,3,2,3,0,0,0,0,0,20
20_34,0,0,0,0,0,0,0,0,20
20_35,13,9,9,0,0,0,0,0,20
20_36,0,0,0,0,0,0,0,0,20
20_38,4,5,6,1,4,2,0,0,20
20_39,5,3,10,0,0,0,0,0,20
20_4,0,0,0,0,0,0,0,0,20
20_40,4,6,6,0,4,2,0,0,20
20_41,0,0,1,0,0,0,0,0,20
20_42,0,0,6,3,0,0,0,0,20
20_43,0,0,0,0,3,3,1,0,20
20_45,1,0,1,0,0,0,0,0,20
20_47,14,3,22,0,0,0,0,0,20
20_48,13,3,13,0,0,0,0,0,20
20_8,2,2,1,0,0,0,0,0,20
20_9,3,2,3,0,0,0,0,0,20
28_11,0,8,3,0,0,3,0,0,28
28_18,0,3,3,0,0,0,0,0,28
28_24,1,1,1,0,0,0,1,0,28
28_25,0,4,1,0,0,3,0,1,28
28_26,0,6,3,0,0,1,0,1,28
28_35,0,0,1,0,0,0,0,0,28
28_36,0,4,1,0,0,1,0,0,28
28_38,1,4,1,0,0,1,1,0,28
28_40,0,2,1,0,0,1,0,0,28
28_41,0,2,1,0,0,0,0,0,28
28_45,0,6,1,0,0,3,0,1,28
28_46,4,4,1,2,1,1,1,0,28
28_47,0,5,1,1,0,3,1,0,28
28_48,0,2,1,0,0,1,0,0,28
28_55,0,2,1,0,0,0,0,0,28
28_57,0,1,0,0,0,0,0,0,28
28_59,2,24,1,1,2,30,1,0,28
28_60,0,3,3,0,0,0,0,0,28
28_62,0,0,3,0,0,0,0,0,28
28_65,2,8,1,1,0,1,1,1,28
28_68,1,3,1,0,1,1,0,0,28
28_70,1,1,0,2,1,0,0,1,28
28_71,1,7,1,0,0,6,1,0,28
28_77,1,3,3,1,1,4,3,0,28
28_79,0,4,3,0,0,0,0,0,28
28_84,0,0,0,0,0,0,0,0,28
28_86,0,8,3,0,0,6,0,0,28
28_88,1,3,1,0,0,1,1,0,28
28_91,1,0,0,1,1,0,0,0,28
28_98,0,5,0,1,0,5,0,0,28
