digraph "CFG for '_GLOBAL__sub_I_11.cpp' function" {
	label="CFG for '_GLOBAL__sub_I_11.cpp' function";

	Node0x55a1c4774c30 [shape=record,label="{%0:\l  call void @__cxx_global_var_init()\l  ret void\l}"];
}
