digraph _Z2ddiiii{

"n" -> "  store i32 %n, i32* %1, align 4";
"n" [ color = red ]
"  %1 = alloca i32, align 4" -> "  store i32 %n, i32* %1, align 4";
"a" -> "  store i32 %a, i32* %2, align 4";
"a" [ color = red ]
"  %2 = alloca i32, align 4" -> "  store i32 %a, i32* %2, align 4";
"d" -> "  store i32 %d, i32* %3, align 4";
"d" [ color = red ]
"  %3 = alloca i32, align 4" -> "  store i32 %d, i32* %3, align 4";
"m" -> "  store i32 %m, i32* %4, align 4";
"m" [ color = red ]
"  %4 = alloca i32, align 4" -> "  store i32 %m, i32* %4, align 4";
"  %3 = alloca i32, align 4" -> "  %5 = load i32, i32* %3, align 4";
"  %4 = alloca i32, align 4" -> "  %6 = load i32, i32* %4, align 4";
"  %5 = load i32, i32* %3, align 4" -> "  %7 = icmp eq i32 %5, %6";
"  %6 = load i32, i32* %4, align 4" -> "  %7 = icmp eq i32 %5, %6";
"  %7 = icmp eq i32 %5, %6" -> "  br i1 %7, label %8, label %11";
"t" -> "  %9 = load i32, i32* @t, align 4";
"t" [ color = red ]
"  %9 = load i32, i32* @t, align 4" -> "  %10 = add nsw i32 %9, 1";
"  %10 = add nsw i32 %9, 1" -> "  store i32 %10, i32* @t, align 4";
"t" -> "  store i32 %10, i32* @t, align 4";
"t" [ color = red ]
"  %2 = alloca i32, align 4" -> "  %12 = load i32, i32* %2, align 4";
"  %12 = load i32, i32* %2, align 4" -> "  store i32 %12, i32* %i, align 4";
"  %i = alloca i32, align 4" -> "  store i32 %12, i32* %i, align 4";
"i" -> "  store i32 %12, i32* %i, align 4";
"i" [ color = red ]
"  %i = alloca i32, align 4" -> "  %14 = load i32, i32* %i, align 4";
"i" -> "  %14 = load i32, i32* %i, align 4";
"i" [ color = red ]
"num" -> "  %15 = load i32, i32* @num, align 4";
"num" [ color = red ]
"  %14 = load i32, i32* %i, align 4" -> "  %16 = icmp slt i32 %14, %15";
"  %15 = load i32, i32* @num, align 4" -> "  %16 = icmp slt i32 %14, %15";
"  %16 = icmp slt i32 %14, %15" -> "  br i1 %16, label %17, label %52";
"  %1 = alloca i32, align 4" -> "  %18 = load i32, i32* %1, align 4";
"  %i = alloca i32, align 4" -> "  %19 = load i32, i32* %i, align 4";
"i" -> "  %19 = load i32, i32* %i, align 4";
"i" [ color = red ]
"  %19 = load i32, i32* %i, align 4" -> "  %20 = sext i32 %19 to i64";
"yin" -> "  %21 = getelementptr inbounds [50 x i32], [50 x i32]* @yin, i64 0, i64 %20";
"yin" [ color = red ]
"  %20 = sext i32 %19 to i64" -> "  %21 = getelementptr inbounds [50 x i32], [50 x i32]* @yin, i64 0, i64 %20";
"  %21 = getelementptr inbounds [50 x i32], [50 x i32]* @yin, i64 0, i64 %20" -> "  %22 = load i32, i32* %21, align 4";
"  %18 = load i32, i32* %1, align 4" -> "  %23 = sdiv i32 %18, %22";
"  %22 = load i32, i32* %21, align 4" -> "  %23 = sdiv i32 %18, %22";
"  %i = alloca i32, align 4" -> "  %24 = load i32, i32* %i, align 4";
"i" -> "  %24 = load i32, i32* %i, align 4";
"i" [ color = red ]
"  %24 = load i32, i32* %i, align 4" -> "  %25 = sext i32 %24 to i64";
"yin" -> "  %26 = getelementptr inbounds [50 x i32], [50 x i32]* @yin, i64 0, i64 %25";
"yin" [ color = red ]
"  %25 = sext i32 %24 to i64" -> "  %26 = getelementptr inbounds [50 x i32], [50 x i32]* @yin, i64 0, i64 %25";
"  %26 = getelementptr inbounds [50 x i32], [50 x i32]* @yin, i64 0, i64 %25" -> "  %27 = load i32, i32* %26, align 4";
"  %23 = sdiv i32 %18, %22" -> "  %28 = icmp sge i32 %23, %27";
"  %27 = load i32, i32* %26, align 4" -> "  %28 = icmp sge i32 %23, %27";
"  %28 = icmp sge i32 %23, %27" -> "  br i1 %28, label %29, label %48";
"  %1 = alloca i32, align 4" -> "  %30 = load i32, i32* %1, align 4";
"  %i = alloca i32, align 4" -> "  %31 = load i32, i32* %i, align 4";
"i" -> "  %31 = load i32, i32* %i, align 4";
"i" [ color = red ]
"  %31 = load i32, i32* %i, align 4" -> "  %32 = sext i32 %31 to i64";
"yin" -> "  %33 = getelementptr inbounds [50 x i32], [50 x i32]* @yin, i64 0, i64 %32";
"yin" [ color = red ]
"  %32 = sext i32 %31 to i64" -> "  %33 = getelementptr inbounds [50 x i32], [50 x i32]* @yin, i64 0, i64 %32";
"  %33 = getelementptr inbounds [50 x i32], [50 x i32]* @yin, i64 0, i64 %32" -> "  %34 = load i32, i32* %33, align 4";
"  %30 = load i32, i32* %1, align 4" -> "  %35 = srem i32 %30, %34";
"  %34 = load i32, i32* %33, align 4" -> "  %35 = srem i32 %30, %34";
"  %35 = srem i32 %30, %34" -> "  %36 = icmp eq i32 %35, 0";
"  %36 = icmp eq i32 %35, 0" -> "  br i1 %36, label %37, label %48";
"  %1 = alloca i32, align 4" -> "  %38 = load i32, i32* %1, align 4";
"  %i = alloca i32, align 4" -> "  %39 = load i32, i32* %i, align 4";
"i" -> "  %39 = load i32, i32* %i, align 4";
"i" [ color = red ]
"  %39 = load i32, i32* %i, align 4" -> "  %40 = sext i32 %39 to i64";
"yin" -> "  %41 = getelementptr inbounds [50 x i32], [50 x i32]* @yin, i64 0, i64 %40";
"yin" [ color = red ]
"  %40 = sext i32 %39 to i64" -> "  %41 = getelementptr inbounds [50 x i32], [50 x i32]* @yin, i64 0, i64 %40";
"  %41 = getelementptr inbounds [50 x i32], [50 x i32]* @yin, i64 0, i64 %40" -> "  %42 = load i32, i32* %41, align 4";
"  %38 = load i32, i32* %1, align 4" -> "  %43 = sdiv i32 %38, %42";
"  %42 = load i32, i32* %41, align 4" -> "  %43 = sdiv i32 %38, %42";
"  %i = alloca i32, align 4" -> "  %44 = load i32, i32* %i, align 4";
"i" -> "  %44 = load i32, i32* %i, align 4";
"i" [ color = red ]
"  %3 = alloca i32, align 4" -> "  %45 = load i32, i32* %3, align 4";
"  %45 = load i32, i32* %3, align 4" -> "  %46 = add nsw i32 %45, 1";
"  %4 = alloca i32, align 4" -> "  %47 = load i32, i32* %4, align 4";
"  %43 = sdiv i32 %38, %42" -> "  call void @_Z2ddiiii(i32 %43, i32 %44, i32 %46, i32 %47)";
"  %44 = load i32, i32* %i, align 4" -> "  call void @_Z2ddiiii(i32 %43, i32 %44, i32 %46, i32 %47)";
"  %46 = add nsw i32 %45, 1" -> "  call void @_Z2ddiiii(i32 %43, i32 %44, i32 %46, i32 %47)";
"  %47 = load i32, i32* %4, align 4" -> "  call void @_Z2ddiiii(i32 %43, i32 %44, i32 %46, i32 %47)";
"_Z2ddiiii" -> "  call void @_Z2ddiiii(i32 %43, i32 %44, i32 %46, i32 %47)";
"_Z2ddiiii" [ color = red ]
"  %i = alloca i32, align 4" -> "  %50 = load i32, i32* %i, align 4";
"i" -> "  %50 = load i32, i32* %i, align 4";
"i" [ color = red ]
"  %50 = load i32, i32* %i, align 4" -> "  %51 = add nsw i32 %50, 1";
"  %51 = add nsw i32 %50, 1" -> "  store i32 %51, i32* %i, align 4";
"  %i = alloca i32, align 4" -> "  store i32 %51, i32* %i, align 4";
"i" -> "  store i32 %51, i32* %i, align 4";
"i" [ color = red ]

}
digraph _Z4q_ysi{

"n" -> "  store i32 %n, i32* %1, align 4";
"n" [ color = red ]
"  %1 = alloca i32, align 4" -> "  store i32 %n, i32* %1, align 4";
"  %i = alloca i32, align 4" -> "  store i32 2, i32* %i, align 4";
"i" -> "  store i32 2, i32* %i, align 4";
"i" [ color = red ]
"  %i = alloca i32, align 4" -> "  %3 = load i32, i32* %i, align 4";
"i" -> "  %3 = load i32, i32* %i, align 4";
"i" [ color = red ]
"  %1 = alloca i32, align 4" -> "  %4 = load i32, i32* %1, align 4";
"  %3 = load i32, i32* %i, align 4" -> "  %5 = icmp sle i32 %3, %4";
"  %4 = load i32, i32* %1, align 4" -> "  %5 = icmp sle i32 %3, %4";
"  %5 = icmp sle i32 %3, %4" -> "  br i1 %5, label %6, label %22";
"  %1 = alloca i32, align 4" -> "  %7 = load i32, i32* %1, align 4";
"  %i = alloca i32, align 4" -> "  %8 = load i32, i32* %i, align 4";
"i" -> "  %8 = load i32, i32* %i, align 4";
"i" [ color = red ]
"  %7 = load i32, i32* %1, align 4" -> "  %9 = srem i32 %7, %8";
"  %8 = load i32, i32* %i, align 4" -> "  %9 = srem i32 %7, %8";
"  %9 = srem i32 %7, %8" -> "  %10 = icmp eq i32 %9, 0";
"  %10 = icmp eq i32 %9, 0" -> "  br i1 %10, label %11, label %18";
"num" -> "  %12 = load i32, i32* @num, align 4";
"num" [ color = red ]
"  %12 = load i32, i32* @num, align 4" -> "  %13 = add nsw i32 %12, 1";
"  %13 = add nsw i32 %12, 1" -> "  store i32 %13, i32* @num, align 4";
"num" -> "  store i32 %13, i32* @num, align 4";
"num" [ color = red ]
"  %i = alloca i32, align 4" -> "  %14 = load i32, i32* %i, align 4";
"i" -> "  %14 = load i32, i32* %i, align 4";
"i" [ color = red ]
"num" -> "  %15 = load i32, i32* @num, align 4";
"num" [ color = red ]
"  %15 = load i32, i32* @num, align 4" -> "  %16 = sext i32 %15 to i64";
"yin" -> "  %17 = getelementptr inbounds [50 x i32], [50 x i32]* @yin, i64 0, i64 %16";
"yin" [ color = red ]
"  %16 = sext i32 %15 to i64" -> "  %17 = getelementptr inbounds [50 x i32], [50 x i32]* @yin, i64 0, i64 %16";
"  %14 = load i32, i32* %i, align 4" -> "  store i32 %14, i32* %17, align 4";
"  %17 = getelementptr inbounds [50 x i32], [50 x i32]* @yin, i64 0, i64 %16" -> "  store i32 %14, i32* %17, align 4";
"  %i = alloca i32, align 4" -> "  %20 = load i32, i32* %i, align 4";
"i" -> "  %20 = load i32, i32* %i, align 4";
"i" [ color = red ]
"  %20 = load i32, i32* %i, align 4" -> "  %21 = add nsw i32 %20, 1";
"  %21 = add nsw i32 %20, 1" -> "  store i32 %21, i32* %i, align 4";
"  %i = alloca i32, align 4" -> "  store i32 %21, i32* %i, align 4";
"i" -> "  store i32 %21, i32* %i, align 4";
"i" [ color = red ]

}
digraph _Z4m_ysi{

"n" -> "  store i32 %n, i32* %2, align 4";
"n" [ color = red ]
"  %2 = alloca i32, align 4" -> "  store i32 %n, i32* %2, align 4";
"  %i = alloca i32, align 4" -> "  store i32 2, i32* %i, align 4";
"i" -> "  store i32 2, i32* %i, align 4";
"i" [ color = red ]
"  %i = alloca i32, align 4" -> "  %4 = load i32, i32* %i, align 4";
"i" -> "  %4 = load i32, i32* %i, align 4";
"i" [ color = red ]
"  %4 = load i32, i32* %i, align 4" -> "  %5 = sitofp i32 %4 to double";
"  %2 = alloca i32, align 4" -> "  %6 = load i32, i32* %2, align 4";
"  %6 = load i32, i32* %2, align 4" -> "  %7 = call double @_ZSt4sqrtIiEN9__gnu_cxx11__enable_ifIXsr12__is_integerIT_EE7__valueEdE6__typeES2_(i32 %6)";
"_ZSt4sqrtIiEN9__gnu_cxx11__enable_ifIXsr12__is_integerIT_EE7__valueEdE6__typeES2_" -> "  %7 = call double @_ZSt4sqrtIiEN9__gnu_cxx11__enable_ifIXsr12__is_integerIT_EE7__valueEdE6__typeES2_(i32 %6)";
"_ZSt4sqrtIiEN9__gnu_cxx11__enable_ifIXsr12__is_integerIT_EE7__valueEdE6__typeES2_" [ color = red ]
"  %5 = sitofp i32 %4 to double" -> "  %8 = fcmp ole double %5, %7";
"  %7 = call double @_ZSt4sqrtIiEN9__gnu_cxx11__enable_ifIXsr12__is_integerIT_EE7__valueEdE6__typeES2_(i32 %6)" -> "  %8 = fcmp ole double %5, %7";
"  %8 = fcmp ole double %5, %7" -> "  br i1 %8, label %9, label %20";
"  %2 = alloca i32, align 4" -> "  %10 = load i32, i32* %2, align 4";
"  %i = alloca i32, align 4" -> "  %11 = load i32, i32* %i, align 4";
"i" -> "  %11 = load i32, i32* %i, align 4";
"i" [ color = red ]
"  %10 = load i32, i32* %2, align 4" -> "  %12 = srem i32 %10, %11";
"  %11 = load i32, i32* %i, align 4" -> "  %12 = srem i32 %10, %11";
"  %12 = srem i32 %10, %11" -> "  %13 = icmp eq i32 %12, 0";
"  %13 = icmp eq i32 %12, 0" -> "  br i1 %13, label %14, label %16";
"  %i = alloca i32, align 4" -> "  %15 = load i32, i32* %i, align 4";
"i" -> "  %15 = load i32, i32* %i, align 4";
"i" [ color = red ]
"  %15 = load i32, i32* %i, align 4" -> "  store i32 %15, i32* %1, align 4";
"  %1 = alloca i32, align 4" -> "  store i32 %15, i32* %1, align 4";
"  %i = alloca i32, align 4" -> "  %18 = load i32, i32* %i, align 4";
"i" -> "  %18 = load i32, i32* %i, align 4";
"i" [ color = red ]
"  %18 = load i32, i32* %i, align 4" -> "  %19 = add nsw i32 %18, 1";
"  %19 = add nsw i32 %18, 1" -> "  store i32 %19, i32* %i, align 4";
"  %i = alloca i32, align 4" -> "  store i32 %19, i32* %i, align 4";
"i" -> "  store i32 %19, i32* %i, align 4";
"i" [ color = red ]
"  %1 = alloca i32, align 4" -> "  store i32 1, i32* %1, align 4";
"  %1 = alloca i32, align 4" -> "  %22 = load i32, i32* %1, align 4";
"  %22 = load i32, i32* %1, align 4" -> "  ret i32 %22";

}
digraph _ZSt4sqrtIiEN9__gnu_cxx11__enable_ifIXsr12__is_integerIT_EE7__valueEdE6__typeES2_{

"__x" -> "  store i32 %__x, i32* %1, align 4";
"__x" [ color = red ]
"  %1 = alloca i32, align 4" -> "  store i32 %__x, i32* %1, align 4";
"  %1 = alloca i32, align 4" -> "  %2 = load i32, i32* %1, align 4";
"  %2 = load i32, i32* %1, align 4" -> "  %3 = sitofp i32 %2 to double";
"  %3 = sitofp i32 %2 to double" -> "  %4 = call double @sqrt(double %3) #8";
"sqrt" -> "  %4 = call double @sqrt(double %3) #8";
"sqrt" [ color = red ]
"  %4 = call double @sqrt(double %3) #8" -> "  ret double %4";

}
digraph _Z6outputi{

"y" -> "  store i32 %y, i32* %1, align 4";
"y" [ color = red ]
"  %1 = alloca i32, align 4" -> "  store i32 %y, i32* %1, align 4";
"  %k = alloca i32, align 4" -> "  store i32 1, i32* %k, align 4";
"k" -> "  store i32 1, i32* %k, align 4";
"k" [ color = red ]
"  %1 = alloca i32, align 4" -> "  %2 = load i32, i32* %1, align 4";
"  %2 = load i32, i32* %1, align 4" -> "  store i32 %2, i32* %x, align 4";
"  %x = alloca i32, align 4" -> "  store i32 %2, i32* %x, align 4";
"x" -> "  store i32 %2, i32* %x, align 4";
"x" [ color = red ]
"t" -> "  store i32 1, i32* @t, align 4";
"t" [ color = red ]
"num" -> "  store i32 0, i32* @num, align 4";
"num" [ color = red ]
"llvm.memset.p0i8.i64" -> "  call void @llvm.memset.p0i8.i64(i8* bitcast ([50 x i32]* @yin to i8*), i8 0, i64 200, i32 16, i1 false)";
"llvm.memset.p0i8.i64" [ color = red ]
"  %x = alloca i32, align 4" -> "  %3 = load i32, i32* %x, align 4";
"x" -> "  %3 = load i32, i32* %x, align 4";
"x" [ color = red ]
"  %3 = load i32, i32* %x, align 4" -> "  call void @_Z4q_ysi(i32 %3)";
"_Z4q_ysi" -> "  call void @_Z4q_ysi(i32 %3)";
"_Z4q_ysi" [ color = red ]
"  %x = alloca i32, align 4" -> "  %5 = load i32, i32* %x, align 4";
"x" -> "  %5 = load i32, i32* %x, align 4";
"x" [ color = red ]
"  %5 = load i32, i32* %x, align 4" -> "  %6 = call i32 @_Z4m_ysi(i32 %5)";
"_Z4m_ysi" -> "  %6 = call i32 @_Z4m_ysi(i32 %5)";
"_Z4m_ysi" [ color = red ]
"  %6 = call i32 @_Z4m_ysi(i32 %5)" -> "  %7 = icmp ne i32 %6, 1";
"  %7 = icmp ne i32 %6, 1" -> "  br i1 %7, label %8, label %15";
"  %k = alloca i32, align 4" -> "  %9 = load i32, i32* %k, align 4";
"k" -> "  %9 = load i32, i32* %k, align 4";
"k" [ color = red ]
"  %9 = load i32, i32* %k, align 4" -> "  %10 = add nsw i32 %9, 1";
"  %10 = add nsw i32 %9, 1" -> "  store i32 %10, i32* %k, align 4";
"  %k = alloca i32, align 4" -> "  store i32 %10, i32* %k, align 4";
"k" -> "  store i32 %10, i32* %k, align 4";
"k" [ color = red ]
"  %x = alloca i32, align 4" -> "  %11 = load i32, i32* %x, align 4";
"x" -> "  %11 = load i32, i32* %x, align 4";
"x" [ color = red ]
"  %x = alloca i32, align 4" -> "  %12 = load i32, i32* %x, align 4";
"x" -> "  %12 = load i32, i32* %x, align 4";
"x" [ color = red ]
"  %12 = load i32, i32* %x, align 4" -> "  %13 = call i32 @_Z4m_ysi(i32 %12)";
"_Z4m_ysi" -> "  %13 = call i32 @_Z4m_ysi(i32 %12)";
"_Z4m_ysi" [ color = red ]
"  %11 = load i32, i32* %x, align 4" -> "  %14 = sdiv i32 %11, %13";
"  %13 = call i32 @_Z4m_ysi(i32 %12)" -> "  %14 = sdiv i32 %11, %13";
"  %14 = sdiv i32 %11, %13" -> "  store i32 %14, i32* %x, align 4";
"  %x = alloca i32, align 4" -> "  store i32 %14, i32* %x, align 4";
"x" -> "  store i32 %14, i32* %x, align 4";
"x" [ color = red ]
"  %i = alloca i32, align 4" -> "  store i32 2, i32* %i, align 4";
"i" -> "  store i32 2, i32* %i, align 4";
"i" [ color = red ]
"  %i = alloca i32, align 4" -> "  %17 = load i32, i32* %i, align 4";
"i" -> "  %17 = load i32, i32* %i, align 4";
"i" [ color = red ]
"  %k = alloca i32, align 4" -> "  %18 = load i32, i32* %k, align 4";
"k" -> "  %18 = load i32, i32* %k, align 4";
"k" [ color = red ]
"  %17 = load i32, i32* %i, align 4" -> "  %19 = icmp sle i32 %17, %18";
"  %18 = load i32, i32* %k, align 4" -> "  %19 = icmp sle i32 %17, %18";
"  %19 = icmp sle i32 %17, %18" -> "  br i1 %19, label %20, label %26";
"  %1 = alloca i32, align 4" -> "  %21 = load i32, i32* %1, align 4";
"  %i = alloca i32, align 4" -> "  %22 = load i32, i32* %i, align 4";
"i" -> "  %22 = load i32, i32* %i, align 4";
"i" [ color = red ]
"  %21 = load i32, i32* %1, align 4" -> "  call void @_Z2ddiiii(i32 %21, i32 1, i32 1, i32 %22)";
"  %22 = load i32, i32* %i, align 4" -> "  call void @_Z2ddiiii(i32 %21, i32 1, i32 1, i32 %22)";
"_Z2ddiiii" -> "  call void @_Z2ddiiii(i32 %21, i32 1, i32 1, i32 %22)";
"_Z2ddiiii" [ color = red ]
"  %i = alloca i32, align 4" -> "  %24 = load i32, i32* %i, align 4";
"i" -> "  %24 = load i32, i32* %i, align 4";
"i" [ color = red ]
"  %24 = load i32, i32* %i, align 4" -> "  %25 = add nsw i32 %24, 1";
"  %25 = add nsw i32 %24, 1" -> "  store i32 %25, i32* %i, align 4";
"  %i = alloca i32, align 4" -> "  store i32 %25, i32* %i, align 4";
"i" -> "  store i32 %25, i32* %i, align 4";
"i" [ color = red ]
"t" -> "  %27 = load i32, i32* @t, align 4";
"t" [ color = red ]
"_ZSt4cout" -> "  %28 = call dereferenceable(272) %"class.std::basic_ostream"* @_ZNSolsEi(%"class.std::basic_ostream"* @_ZSt4cout, i32 %27)";
"_ZSt4cout" [ color = red ]
"  %27 = load i32, i32* @t, align 4" -> "  %28 = call dereferenceable(272) %"class.std::basic_ostream"* @_ZNSolsEi(%"class.std::basic_ostream"* @_ZSt4cout, i32 %27)";
"_ZNSolsEi" -> "  %28 = call dereferenceable(272) %"class.std::basic_ostream"* @_ZNSolsEi(%"class.std::basic_ostream"* @_ZSt4cout, i32 %27)";
"_ZNSolsEi" [ color = red ]
"  %28 = call dereferenceable(272) %"class.std::basic_ostream"* @_ZNSolsEi(%"class.std::basic_ostream"* @_ZSt4cout, i32 %27)" -> "  %29 = call dereferenceable(272) %"class.std::basic_ostream"* @_ZNSolsEPFRSoS_E(%"class.std::basic_ostream"* %28, %"class.std::basic_ostream"* (%"class.std::basic_ostream"*)* @_ZSt4endlIcSt11char_traitsIcEERSt13basic_ostreamIT_T0_ES6_)";
"_ZSt4endlIcSt11char_traitsIcEERSt13basic_ostreamIT_T0_ES6_" -> "  %29 = call dereferenceable(272) %"class.std::basic_ostream"* @_ZNSolsEPFRSoS_E(%"class.std::basic_ostream"* %28, %"class.std::basic_ostream"* (%"class.std::basic_ostream"*)* @_ZSt4endlIcSt11char_traitsIcEERSt13basic_ostreamIT_T0_ES6_)";
"_ZSt4endlIcSt11char_traitsIcEERSt13basic_ostreamIT_T0_ES6_" [ color = red ]
"_ZNSolsEPFRSoS_E" -> "  %29 = call dereferenceable(272) %"class.std::basic_ostream"* @_ZNSolsEPFRSoS_E(%"class.std::basic_ostream"* %28, %"class.std::basic_ostream"* (%"class.std::basic_ostream"*)* @_ZSt4endlIcSt11char_traitsIcEERSt13basic_ostreamIT_T0_ES6_)";
"_ZNSolsEPFRSoS_E" [ color = red ]

}
digraph main{

"  %1 = alloca i32, align 4" -> "  store i32 0, i32* %1, align 4";
"t" -> "  store i32 0, i32* @t, align 4";
"t" [ color = red ]
"num" -> "  store i32 0, i32* @num, align 4";
"num" [ color = red ]
"_ZSt3cin" -> "  %2 = call dereferenceable(280) %"class.std::basic_istream"* @_ZNSirsERi(%"class.std::basic_istream"* @_ZSt3cin, i32* dereferenceable(4) %n)";
"_ZSt3cin" [ color = red ]
"  %n = alloca i32, align 4" -> "  %2 = call dereferenceable(280) %"class.std::basic_istream"* @_ZNSirsERi(%"class.std::basic_istream"* @_ZSt3cin, i32* dereferenceable(4) %n)";
"n" -> "  %2 = call dereferenceable(280) %"class.std::basic_istream"* @_ZNSirsERi(%"class.std::basic_istream"* @_ZSt3cin, i32* dereferenceable(4) %n)";
"n" [ color = red ]
"_ZNSirsERi" -> "  %2 = call dereferenceable(280) %"class.std::basic_istream"* @_ZNSirsERi(%"class.std::basic_istream"* @_ZSt3cin, i32* dereferenceable(4) %n)";
"_ZNSirsERi" [ color = red ]
"  %i = alloca i32, align 4" -> "  store i32 1, i32* %i, align 4";
"i" -> "  store i32 1, i32* %i, align 4";
"i" [ color = red ]
"  %i = alloca i32, align 4" -> "  %4 = load i32, i32* %i, align 4";
"i" -> "  %4 = load i32, i32* %i, align 4";
"i" [ color = red ]
"  %n = alloca i32, align 4" -> "  %5 = load i32, i32* %n, align 4";
"n" -> "  %5 = load i32, i32* %n, align 4";
"n" [ color = red ]
"  %4 = load i32, i32* %i, align 4" -> "  %6 = icmp sle i32 %4, %5";
"  %5 = load i32, i32* %n, align 4" -> "  %6 = icmp sle i32 %4, %5";
"  %6 = icmp sle i32 %4, %5" -> "  br i1 %6, label %7, label %15";
"  %i = alloca i32, align 4" -> "  %8 = load i32, i32* %i, align 4";
"i" -> "  %8 = load i32, i32* %i, align 4";
"i" [ color = red ]
"  %8 = load i32, i32* %i, align 4" -> "  %9 = sext i32 %8 to i64";
"  %a = alloca [1000 x i32], align 16" -> "  %10 = getelementptr inbounds [1000 x i32], [1000 x i32]* %a, i64 0, i64 %9";
"a" -> "  %10 = getelementptr inbounds [1000 x i32], [1000 x i32]* %a, i64 0, i64 %9";
"a" [ color = red ]
"  %9 = sext i32 %8 to i64" -> "  %10 = getelementptr inbounds [1000 x i32], [1000 x i32]* %a, i64 0, i64 %9";
"_ZSt3cin" -> "  %11 = call dereferenceable(280) %"class.std::basic_istream"* @_ZNSirsERi(%"class.std::basic_istream"* @_ZSt3cin, i32* dereferenceable(4) %10)";
"_ZSt3cin" [ color = red ]
"  %10 = getelementptr inbounds [1000 x i32], [1000 x i32]* %a, i64 0, i64 %9" -> "  %11 = call dereferenceable(280) %"class.std::basic_istream"* @_ZNSirsERi(%"class.std::basic_istream"* @_ZSt3cin, i32* dereferenceable(4) %10)";
"_ZNSirsERi" -> "  %11 = call dereferenceable(280) %"class.std::basic_istream"* @_ZNSirsERi(%"class.std::basic_istream"* @_ZSt3cin, i32* dereferenceable(4) %10)";
"_ZNSirsERi" [ color = red ]
"  %i = alloca i32, align 4" -> "  %13 = load i32, i32* %i, align 4";
"i" -> "  %13 = load i32, i32* %i, align 4";
"i" [ color = red ]
"  %13 = load i32, i32* %i, align 4" -> "  %14 = add nsw i32 %13, 1";
"  %14 = add nsw i32 %13, 1" -> "  store i32 %14, i32* %i, align 4";
"  %i = alloca i32, align 4" -> "  store i32 %14, i32* %i, align 4";
"i" -> "  store i32 %14, i32* %i, align 4";
"i" [ color = red ]
"  %i = alloca i32, align 4" -> "  store i32 1, i32* %i, align 4";
"i" -> "  store i32 1, i32* %i, align 4";
"i" [ color = red ]
"  %i = alloca i32, align 4" -> "  %17 = load i32, i32* %i, align 4";
"i" -> "  %17 = load i32, i32* %i, align 4";
"i" [ color = red ]
"  %n = alloca i32, align 4" -> "  %18 = load i32, i32* %n, align 4";
"n" -> "  %18 = load i32, i32* %n, align 4";
"n" [ color = red ]
"  %17 = load i32, i32* %i, align 4" -> "  %19 = icmp sle i32 %17, %18";
"  %18 = load i32, i32* %n, align 4" -> "  %19 = icmp sle i32 %17, %18";
"  %19 = icmp sle i32 %17, %18" -> "  br i1 %19, label %20, label %28";
"  %i = alloca i32, align 4" -> "  %21 = load i32, i32* %i, align 4";
"i" -> "  %21 = load i32, i32* %i, align 4";
"i" [ color = red ]
"  %21 = load i32, i32* %i, align 4" -> "  %22 = sext i32 %21 to i64";
"  %a = alloca [1000 x i32], align 16" -> "  %23 = getelementptr inbounds [1000 x i32], [1000 x i32]* %a, i64 0, i64 %22";
"a" -> "  %23 = getelementptr inbounds [1000 x i32], [1000 x i32]* %a, i64 0, i64 %22";
"a" [ color = red ]
"  %22 = sext i32 %21 to i64" -> "  %23 = getelementptr inbounds [1000 x i32], [1000 x i32]* %a, i64 0, i64 %22";
"  %23 = getelementptr inbounds [1000 x i32], [1000 x i32]* %a, i64 0, i64 %22" -> "  %24 = load i32, i32* %23, align 4";
"  %24 = load i32, i32* %23, align 4" -> "  call void @_Z6outputi(i32 %24)";
"_Z6outputi" -> "  call void @_Z6outputi(i32 %24)";
"_Z6outputi" [ color = red ]
"  %i = alloca i32, align 4" -> "  %26 = load i32, i32* %i, align 4";
"i" -> "  %26 = load i32, i32* %i, align 4";
"i" [ color = red ]
"  %26 = load i32, i32* %i, align 4" -> "  %27 = add nsw i32 %26, 1";
"  %27 = add nsw i32 %26, 1" -> "  store i32 %27, i32* %i, align 4";
"  %i = alloca i32, align 4" -> "  store i32 %27, i32* %i, align 4";
"i" -> "  store i32 %27, i32* %i, align 4";
"i" [ color = red ]

}
digraph _GLOBAL__sub_I_18.cpp{

"__cxx_global_var_init" -> "  call void @__cxx_global_var_init()";
"__cxx_global_var_init" [ color = red ]

}

