digraph main{

"  %1 = alloca i32, align 4" -> "  store i32 0, i32* %1, align 4";
"  %n = alloca i32, align 4" -> "  %2 = call i32 (i8*, ...) @scanf(i8* getelementptr inbounds ([3 x i8], [3 x i8]* @.str, i32 0, i32 0), i32* %n)";
"n" -> "  %2 = call i32 (i8*, ...) @scanf(i8* getelementptr inbounds ([3 x i8], [3 x i8]* @.str, i32 0, i32 0), i32* %n)";
"n" [ color = red ]
"scanf" -> "  %2 = call i32 (i8*, ...) @scanf(i8* getelementptr inbounds ([3 x i8], [3 x i8]* @.str, i32 0, i32 0), i32* %n)";
"scanf" [ color = red ]
"  %p = alloca i32, align 4" -> "  store i32 0, i32* %p, align 4";
"p" -> "  store i32 0, i32* %p, align 4";
"p" [ color = red ]
"  %p = alloca i32, align 4" -> "  %4 = load i32, i32* %p, align 4";
"p" -> "  %4 = load i32, i32* %p, align 4";
"p" [ color = red ]
"  %n = alloca i32, align 4" -> "  %5 = load i32, i32* %n, align 4";
"n" -> "  %5 = load i32, i32* %n, align 4";
"n" [ color = red ]
"  %4 = load i32, i32* %p, align 4" -> "  %6 = icmp slt i32 %4, %5";
"  %5 = load i32, i32* %n, align 4" -> "  %6 = icmp slt i32 %4, %5";
"  %6 = icmp slt i32 %4, %5" -> "  br i1 %6, label %7, label %40";
"  %q = alloca i32, align 4" -> "  store i32 1, i32* %q, align 4";
"q" -> "  store i32 1, i32* %q, align 4";
"q" [ color = red ]
"l" -> "  store i32 0, i32* @l, align 4";
"l" [ color = red ]
"x" -> "  %8 = call i32 (i8*, ...) @scanf(i8* getelementptr inbounds ([3 x i8], [3 x i8]* @.str, i32 0, i32 0), i32* @x)";
"x" [ color = red ]
"scanf" -> "  %8 = call i32 (i8*, ...) @scanf(i8* getelementptr inbounds ([3 x i8], [3 x i8]* @.str, i32 0, i32 0), i32* @x)";
"scanf" [ color = red ]
"  %i = alloca i32, align 4" -> "  store i32 2, i32* %i, align 4";
"i" -> "  store i32 2, i32* %i, align 4";
"i" [ color = red ]
"  %i = alloca i32, align 4" -> "  %10 = load i32, i32* %i, align 4";
"i" -> "  %10 = load i32, i32* %i, align 4";
"i" [ color = red ]
"x" -> "  %11 = load i32, i32* @x, align 4";
"x" [ color = red ]
"  %10 = load i32, i32* %i, align 4" -> "  %12 = icmp sle i32 %10, %11";
"  %11 = load i32, i32* @x, align 4" -> "  %12 = icmp sle i32 %10, %11";
"  %12 = icmp sle i32 %10, %11" -> "  br i1 %12, label %13, label %29";
"x" -> "  %14 = load i32, i32* @x, align 4";
"x" [ color = red ]
"  %i = alloca i32, align 4" -> "  %15 = load i32, i32* %i, align 4";
"i" -> "  %15 = load i32, i32* %i, align 4";
"i" [ color = red ]
"  %14 = load i32, i32* @x, align 4" -> "  %16 = srem i32 %14, %15";
"  %15 = load i32, i32* %i, align 4" -> "  %16 = srem i32 %14, %15";
"  %16 = srem i32 %14, %15" -> "  %17 = icmp eq i32 %16, 0";
"  %17 = icmp eq i32 %16, 0" -> "  br i1 %17, label %18, label %25";
"  %i = alloca i32, align 4" -> "  %19 = load i32, i32* %i, align 4";
"i" -> "  %19 = load i32, i32* %i, align 4";
"i" [ color = red ]
"  %q = alloca i32, align 4" -> "  %20 = load i32, i32* %q, align 4";
"q" -> "  %20 = load i32, i32* %q, align 4";
"q" [ color = red ]
"  %20 = load i32, i32* %q, align 4" -> "  %21 = sext i32 %20 to i64";
"a" -> "  %22 = getelementptr inbounds [1000 x i32], [1000 x i32]* @a, i64 0, i64 %21";
"a" [ color = red ]
"  %21 = sext i32 %20 to i64" -> "  %22 = getelementptr inbounds [1000 x i32], [1000 x i32]* @a, i64 0, i64 %21";
"  %19 = load i32, i32* %i, align 4" -> "  store i32 %19, i32* %22, align 4";
"  %22 = getelementptr inbounds [1000 x i32], [1000 x i32]* @a, i64 0, i64 %21" -> "  store i32 %19, i32* %22, align 4";
"  %q = alloca i32, align 4" -> "  %23 = load i32, i32* %q, align 4";
"q" -> "  %23 = load i32, i32* %q, align 4";
"q" [ color = red ]
"  %23 = load i32, i32* %q, align 4" -> "  %24 = add nsw i32 %23, 1";
"  %24 = add nsw i32 %23, 1" -> "  store i32 %24, i32* %q, align 4";
"  %q = alloca i32, align 4" -> "  store i32 %24, i32* %q, align 4";
"q" -> "  store i32 %24, i32* %q, align 4";
"q" [ color = red ]
"  %i = alloca i32, align 4" -> "  %27 = load i32, i32* %i, align 4";
"i" -> "  %27 = load i32, i32* %i, align 4";
"i" [ color = red ]
"  %27 = load i32, i32* %i, align 4" -> "  %28 = add nsw i32 %27, 1";
"  %28 = add nsw i32 %27, 1" -> "  store i32 %28, i32* %i, align 4";
"  %i = alloca i32, align 4" -> "  store i32 %28, i32* %i, align 4";
"i" -> "  store i32 %28, i32* %i, align 4";
"i" [ color = red ]
"  %q = alloca i32, align 4" -> "  %30 = load i32, i32* %q, align 4";
"q" -> "  %30 = load i32, i32* %q, align 4";
"q" [ color = red ]
"  %30 = load i32, i32* %q, align 4" -> "  %31 = sub nsw i32 %30, 1";
"x" -> "  %32 = load i32, i32* @x, align 4";
"x" [ color = red ]
"  %31 = sub nsw i32 %30, 1" -> "  %33 = call i32 @_Z3fffiiii(i32 1, i32 %31, i32 1, i32 %32)";
"  %32 = load i32, i32* @x, align 4" -> "  %33 = call i32 @_Z3fffiiii(i32 1, i32 %31, i32 1, i32 %32)";
"_Z3fffiiii" -> "  %33 = call i32 @_Z3fffiiii(i32 1, i32 %31, i32 1, i32 %32)";
"_Z3fffiiii" [ color = red ]
"l" -> "  %34 = load i32, i32* @l, align 4";
"l" [ color = red ]
"x" -> "  %35 = load i32, i32* @x, align 4";
"x" [ color = red ]
"  %34 = load i32, i32* @l, align 4" -> "  %36 = call i32 (i8*, ...) @printf(i8* getelementptr inbounds ([4 x i8], [4 x i8]* @.str.1, i32 0, i32 0), i32 %34, i32 %35)";
"  %35 = load i32, i32* @x, align 4" -> "  %36 = call i32 (i8*, ...) @printf(i8* getelementptr inbounds ([4 x i8], [4 x i8]* @.str.1, i32 0, i32 0), i32 %34, i32 %35)";
"printf" -> "  %36 = call i32 (i8*, ...) @printf(i8* getelementptr inbounds ([4 x i8], [4 x i8]* @.str.1, i32 0, i32 0), i32 %34, i32 %35)";
"printf" [ color = red ]
"  %p = alloca i32, align 4" -> "  %38 = load i32, i32* %p, align 4";
"p" -> "  %38 = load i32, i32* %p, align 4";
"p" [ color = red ]
"  %38 = load i32, i32* %p, align 4" -> "  %39 = add nsw i32 %38, 1";
"  %39 = add nsw i32 %38, 1" -> "  store i32 %39, i32* %p, align 4";
"  %p = alloca i32, align 4" -> "  store i32 %39, i32* %p, align 4";
"p" -> "  store i32 %39, i32* %p, align 4";
"p" [ color = red ]
"  %1 = alloca i32, align 4" -> "  %41 = load i32, i32* %1, align 4";
"  %41 = load i32, i32* %1, align 4" -> "  ret i32 %41";

}
digraph _Z3fffiiii{

"k" -> "  store i32 %k, i32* %2, align 4";
"k" [ color = red ]
"  %2 = alloca i32, align 4" -> "  store i32 %k, i32* %2, align 4";
"w" -> "  store i32 %w, i32* %3, align 4";
"w" [ color = red ]
"  %3 = alloca i32, align 4" -> "  store i32 %w, i32* %3, align 4";
"t" -> "  store i32 %t, i32* %4, align 4";
"t" [ color = red ]
"  %4 = alloca i32, align 4" -> "  store i32 %t, i32* %4, align 4";
"x" -> "  store i32 %x, i32* %5, align 4";
"x" [ color = red ]
"  %5 = alloca i32, align 4" -> "  store i32 %x, i32* %5, align 4";
"  %4 = alloca i32, align 4" -> "  %6 = load i32, i32* %4, align 4";
"  %6 = load i32, i32* %4, align 4" -> "  store i32 %6, i32* %i, align 4";
"  %i = alloca i32, align 4" -> "  store i32 %6, i32* %i, align 4";
"i" -> "  store i32 %6, i32* %i, align 4";
"i" [ color = red ]
"  %i = alloca i32, align 4" -> "  %8 = load i32, i32* %i, align 4";
"i" -> "  %8 = load i32, i32* %i, align 4";
"i" [ color = red ]
"  %3 = alloca i32, align 4" -> "  %9 = load i32, i32* %3, align 4";
"  %8 = load i32, i32* %i, align 4" -> "  %10 = icmp sle i32 %8, %9";
"  %9 = load i32, i32* %3, align 4" -> "  %10 = icmp sle i32 %8, %9";
"  %10 = icmp sle i32 %8, %9" -> "  br i1 %10, label %11, label %52";
"  %5 = alloca i32, align 4" -> "  %12 = load i32, i32* %5, align 4";
"  %i = alloca i32, align 4" -> "  %13 = load i32, i32* %i, align 4";
"i" -> "  %13 = load i32, i32* %i, align 4";
"i" [ color = red ]
"  %13 = load i32, i32* %i, align 4" -> "  %14 = sext i32 %13 to i64";
"a" -> "  %15 = getelementptr inbounds [1000 x i32], [1000 x i32]* @a, i64 0, i64 %14";
"a" [ color = red ]
"  %14 = sext i32 %13 to i64" -> "  %15 = getelementptr inbounds [1000 x i32], [1000 x i32]* @a, i64 0, i64 %14";
"  %15 = getelementptr inbounds [1000 x i32], [1000 x i32]* @a, i64 0, i64 %14" -> "  %16 = load i32, i32* %15, align 4";
"  %12 = load i32, i32* %5, align 4" -> "  %17 = srem i32 %12, %16";
"  %16 = load i32, i32* %15, align 4" -> "  %17 = srem i32 %12, %16";
"  %17 = srem i32 %12, %16" -> "  %18 = icmp eq i32 %17, 0";
"  %18 = icmp eq i32 %17, 0" -> "  br i1 %18, label %19, label %48";
"  %5 = alloca i32, align 4" -> "  %20 = load i32, i32* %5, align 4";
"  %i = alloca i32, align 4" -> "  %21 = load i32, i32* %i, align 4";
"i" -> "  %21 = load i32, i32* %i, align 4";
"i" [ color = red ]
"  %21 = load i32, i32* %i, align 4" -> "  %22 = sext i32 %21 to i64";
"a" -> "  %23 = getelementptr inbounds [1000 x i32], [1000 x i32]* @a, i64 0, i64 %22";
"a" [ color = red ]
"  %22 = sext i32 %21 to i64" -> "  %23 = getelementptr inbounds [1000 x i32], [1000 x i32]* @a, i64 0, i64 %22";
"  %23 = getelementptr inbounds [1000 x i32], [1000 x i32]* @a, i64 0, i64 %22" -> "  %24 = load i32, i32* %23, align 4";
"  %20 = load i32, i32* %5, align 4" -> "  %25 = sdiv i32 %20, %24";
"  %24 = load i32, i32* %23, align 4" -> "  %25 = sdiv i32 %20, %24";
"  %25 = sdiv i32 %20, %24" -> "  store i32 %25, i32* %5, align 4";
"  %5 = alloca i32, align 4" -> "  store i32 %25, i32* %5, align 4";
"  %5 = alloca i32, align 4" -> "  %26 = load i32, i32* %5, align 4";
"  %26 = load i32, i32* %5, align 4" -> "  %27 = icmp eq i32 %26, 1";
"  %27 = icmp eq i32 %26, 1" -> "  br i1 %27, label %28, label %31";
"l" -> "  %29 = load i32, i32* @l, align 4";
"l" [ color = red ]
"  %29 = load i32, i32* @l, align 4" -> "  %30 = add nsw i32 %29, 1";
"  %30 = add nsw i32 %29, 1" -> "  store i32 %30, i32* @l, align 4";
"l" -> "  store i32 %30, i32* @l, align 4";
"l" [ color = red ]
"  %5 = alloca i32, align 4" -> "  %32 = load i32, i32* %5, align 4";
"  %32 = load i32, i32* %5, align 4" -> "  %33 = icmp sgt i32 %32, 1";
"  %33 = icmp sgt i32 %32, 1" -> "  br i1 %33, label %34, label %41";
"  %2 = alloca i32, align 4" -> "  %35 = load i32, i32* %2, align 4";
"  %35 = load i32, i32* %2, align 4" -> "  %36 = add nsw i32 %35, 1";
"  %3 = alloca i32, align 4" -> "  %37 = load i32, i32* %3, align 4";
"  %i = alloca i32, align 4" -> "  %38 = load i32, i32* %i, align 4";
"i" -> "  %38 = load i32, i32* %i, align 4";
"i" [ color = red ]
"  %5 = alloca i32, align 4" -> "  %39 = load i32, i32* %5, align 4";
"  %36 = add nsw i32 %35, 1" -> "  %40 = call i32 @_Z3fffiiii(i32 %36, i32 %37, i32 %38, i32 %39)";
"  %37 = load i32, i32* %3, align 4" -> "  %40 = call i32 @_Z3fffiiii(i32 %36, i32 %37, i32 %38, i32 %39)";
"  %38 = load i32, i32* %i, align 4" -> "  %40 = call i32 @_Z3fffiiii(i32 %36, i32 %37, i32 %38, i32 %39)";
"  %39 = load i32, i32* %5, align 4" -> "  %40 = call i32 @_Z3fffiiii(i32 %36, i32 %37, i32 %38, i32 %39)";
"_Z3fffiiii" -> "  %40 = call i32 @_Z3fffiiii(i32 %36, i32 %37, i32 %38, i32 %39)";
"_Z3fffiiii" [ color = red ]
"  %5 = alloca i32, align 4" -> "  %42 = load i32, i32* %5, align 4";
"  %i = alloca i32, align 4" -> "  %43 = load i32, i32* %i, align 4";
"i" -> "  %43 = load i32, i32* %i, align 4";
"i" [ color = red ]
"  %43 = load i32, i32* %i, align 4" -> "  %44 = sext i32 %43 to i64";
"a" -> "  %45 = getelementptr inbounds [1000 x i32], [1000 x i32]* @a, i64 0, i64 %44";
"a" [ color = red ]
"  %44 = sext i32 %43 to i64" -> "  %45 = getelementptr inbounds [1000 x i32], [1000 x i32]* @a, i64 0, i64 %44";
"  %45 = getelementptr inbounds [1000 x i32], [1000 x i32]* @a, i64 0, i64 %44" -> "  %46 = load i32, i32* %45, align 4";
"  %42 = load i32, i32* %5, align 4" -> "  %47 = mul nsw i32 %42, %46";
"  %46 = load i32, i32* %45, align 4" -> "  %47 = mul nsw i32 %42, %46";
"  %47 = mul nsw i32 %42, %46" -> "  store i32 %47, i32* %5, align 4";
"  %5 = alloca i32, align 4" -> "  store i32 %47, i32* %5, align 4";
"  %i = alloca i32, align 4" -> "  %50 = load i32, i32* %i, align 4";
"i" -> "  %50 = load i32, i32* %i, align 4";
"i" [ color = red ]
"  %50 = load i32, i32* %i, align 4" -> "  %51 = add nsw i32 %50, 1";
"  %51 = add nsw i32 %50, 1" -> "  store i32 %51, i32* %i, align 4";
"  %i = alloca i32, align 4" -> "  store i32 %51, i32* %i, align 4";
"i" -> "  store i32 %51, i32* %i, align 4";
"i" [ color = red ]
"llvm.trap" -> "  call void @llvm.trap()";
"llvm.trap" [ color = red ]
"  %1 = alloca i32, align 4" -> "  %54 = load i32, i32* %1, align 4";
"  %54 = load i32, i32* %1, align 4" -> "  ret i32 %54";

}
digraph _GLOBAL__sub_I_24.cpp{

"__cxx_global_var_init" -> "  call void @__cxx_global_var_init()";
"__cxx_global_var_init" [ color = red ]

}

