digraph _Z8acSearchii{

"n" -> "  store i32 %n, i32* %1, align 4";
"n" [ color = red ]
"  %1 = alloca i32, align 4" -> "  store i32 %n, i32* %1, align 4";
"i" -> "  store i32 %i, i32* %2, align 4";
"i" [ color = red ]
"  %2 = alloca i32, align 4" -> "  store i32 %i, i32* %2, align 4";
"  %ret = alloca i32, align 4" -> "  store i32 0, i32* %ret, align 4";
"ret" -> "  store i32 0, i32* %ret, align 4";
"ret" [ color = red ]
"  %1 = alloca i32, align 4" -> "  %3 = load i32, i32* %1, align 4";
"  %3 = load i32, i32* %1, align 4" -> "  %4 = icmp eq i32 %3, 1";
"  %4 = icmp eq i32 %3, 1" -> "  br i1 %4, label %5, label %6";
"  %ret = alloca i32, align 4" -> "  store i32 1, i32* %ret, align 4";
"ret" -> "  store i32 1, i32* %ret, align 4";
"ret" [ color = red ]
"  %2 = alloca i32, align 4" -> "  %8 = load i32, i32* %2, align 4";
"  %1 = alloca i32, align 4" -> "  %9 = load i32, i32* %1, align 4";
"  %8 = load i32, i32* %2, align 4" -> "  %10 = icmp sle i32 %8, %9";
"  %9 = load i32, i32* %1, align 4" -> "  %10 = icmp sle i32 %8, %9";
"  %10 = icmp sle i32 %8, %9" -> "  br i1 %10, label %11, label %28";
"  %1 = alloca i32, align 4" -> "  %12 = load i32, i32* %1, align 4";
"  %2 = alloca i32, align 4" -> "  %13 = load i32, i32* %2, align 4";
"  %12 = load i32, i32* %1, align 4" -> "  %14 = srem i32 %12, %13";
"  %13 = load i32, i32* %2, align 4" -> "  %14 = srem i32 %12, %13";
"  %14 = srem i32 %12, %13" -> "  %15 = icmp eq i32 %14, 0";
"  %15 = icmp eq i32 %14, 0" -> "  br i1 %15, label %16, label %24";
"  %1 = alloca i32, align 4" -> "  %17 = load i32, i32* %1, align 4";
"  %2 = alloca i32, align 4" -> "  %18 = load i32, i32* %2, align 4";
"  %17 = load i32, i32* %1, align 4" -> "  %19 = sdiv i32 %17, %18";
"  %18 = load i32, i32* %2, align 4" -> "  %19 = sdiv i32 %17, %18";
"  %2 = alloca i32, align 4" -> "  %20 = load i32, i32* %2, align 4";
"  %19 = sdiv i32 %17, %18" -> "  %21 = call i32 @_Z8acSearchii(i32 %19, i32 %20)";
"  %20 = load i32, i32* %2, align 4" -> "  %21 = call i32 @_Z8acSearchii(i32 %19, i32 %20)";
"_Z8acSearchii" -> "  %21 = call i32 @_Z8acSearchii(i32 %19, i32 %20)";
"_Z8acSearchii" [ color = red ]
"  %ret = alloca i32, align 4" -> "  %22 = load i32, i32* %ret, align 4";
"ret" -> "  %22 = load i32, i32* %ret, align 4";
"ret" [ color = red ]
"  %22 = load i32, i32* %ret, align 4" -> "  %23 = add nsw i32 %22, %21";
"  %21 = call i32 @_Z8acSearchii(i32 %19, i32 %20)" -> "  %23 = add nsw i32 %22, %21";
"  %23 = add nsw i32 %22, %21" -> "  store i32 %23, i32* %ret, align 4";
"  %ret = alloca i32, align 4" -> "  store i32 %23, i32* %ret, align 4";
"ret" -> "  store i32 %23, i32* %ret, align 4";
"ret" [ color = red ]
"  %2 = alloca i32, align 4" -> "  %26 = load i32, i32* %2, align 4";
"  %26 = load i32, i32* %2, align 4" -> "  %27 = add nsw i32 %26, 1";
"  %27 = add nsw i32 %26, 1" -> "  store i32 %27, i32* %2, align 4";
"  %2 = alloca i32, align 4" -> "  store i32 %27, i32* %2, align 4";
"  %ret = alloca i32, align 4" -> "  %30 = load i32, i32* %ret, align 4";
"ret" -> "  %30 = load i32, i32* %ret, align 4";
"ret" [ color = red ]
"  %30 = load i32, i32* %ret, align 4" -> "  ret i32 %30";

}
digraph main{

"  %1 = alloca i32, align 4" -> "  store i32 0, i32* %1, align 4";
"N" -> "  %2 = call i32 (i8*, ...) @scanf(i8* getelementptr inbounds ([3 x i8], [3 x i8]* @.str, i32 0, i32 0), i32* @N)";
"N" [ color = red ]
"scanf" -> "  %2 = call i32 (i8*, ...) @scanf(i8* getelementptr inbounds ([3 x i8], [3 x i8]* @.str, i32 0, i32 0), i32* @N)";
"scanf" [ color = red ]
"N" -> "  %4 = load i32, i32* @N, align 4";
"N" [ color = red ]
"  %4 = load i32, i32* @N, align 4" -> "  %5 = add nsw i32 %4, -1";
"  %5 = add nsw i32 %4, -1" -> "  store i32 %5, i32* @N, align 4";
"N" -> "  store i32 %5, i32* @N, align 4";
"N" [ color = red ]
"  %4 = load i32, i32* @N, align 4" -> "  %6 = icmp ne i32 %4, 0";
"  %6 = icmp ne i32 %4, 0" -> "  br i1 %6, label %7, label %12";
"A" -> "  %8 = call i32 (i8*, ...) @scanf(i8* getelementptr inbounds ([3 x i8], [3 x i8]* @.str, i32 0, i32 0), i32* @A)";
"A" [ color = red ]
"scanf" -> "  %8 = call i32 (i8*, ...) @scanf(i8* getelementptr inbounds ([3 x i8], [3 x i8]* @.str, i32 0, i32 0), i32* @A)";
"scanf" [ color = red ]
"A" -> "  %9 = load i32, i32* @A, align 4";
"A" [ color = red ]
"  %9 = load i32, i32* @A, align 4" -> "  %10 = call i32 @_Z8acSearchii(i32 %9, i32 2)";
"_Z8acSearchii" -> "  %10 = call i32 @_Z8acSearchii(i32 %9, i32 2)";
"_Z8acSearchii" [ color = red ]
"  %10 = call i32 @_Z8acSearchii(i32 %9, i32 2)" -> "  %11 = call i32 (i8*, ...) @printf(i8* getelementptr inbounds ([4 x i8], [4 x i8]* @.str.1, i32 0, i32 0), i32 %10)";
"printf" -> "  %11 = call i32 (i8*, ...) @printf(i8* getelementptr inbounds ([4 x i8], [4 x i8]* @.str.1, i32 0, i32 0), i32 %10)";
"printf" [ color = red ]

}
digraph _GLOBAL__sub_I_66.cpp{

"__cxx_global_var_init" -> "  call void @__cxx_global_var_init()";
"__cxx_global_var_init" [ color = red ]

}

