digraph main{

"  %1 = alloca i32, align 4" -> "  store i32 0, i32* %1, align 4";
"_ZSt3cin" -> "  %2 = call dereferenceable(280) %"class.std::basic_istream"* @_ZNSirsERi(%"class.std::basic_istream"* @_ZSt3cin, i32* dereferenceable(4) %n)";
"_ZSt3cin" [ color = red ]
"  %n = alloca i32, align 4" -> "  %2 = call dereferenceable(280) %"class.std::basic_istream"* @_ZNSirsERi(%"class.std::basic_istream"* @_ZSt3cin, i32* dereferenceable(4) %n)";
"n" -> "  %2 = call dereferenceable(280) %"class.std::basic_istream"* @_ZNSirsERi(%"class.std::basic_istream"* @_ZSt3cin, i32* dereferenceable(4) %n)";
"n" [ color = red ]
"_ZNSirsERi" -> "  %2 = call dereferenceable(280) %"class.std::basic_istream"* @_ZNSirsERi(%"class.std::basic_istream"* @_ZSt3cin, i32* dereferenceable(4) %n)";
"_ZNSirsERi" [ color = red ]
"  %i = alloca i32, align 4" -> "  store i32 0, i32* %i, align 4";
"i" -> "  store i32 0, i32* %i, align 4";
"i" [ color = red ]
"  %i = alloca i32, align 4" -> "  %4 = load i32, i32* %i, align 4";
"i" -> "  %4 = load i32, i32* %i, align 4";
"i" [ color = red ]
"  %n = alloca i32, align 4" -> "  %5 = load i32, i32* %n, align 4";
"n" -> "  %5 = load i32, i32* %n, align 4";
"n" [ color = red ]
"  %4 = load i32, i32* %i, align 4" -> "  %6 = icmp slt i32 %4, %5";
"  %5 = load i32, i32* %n, align 4" -> "  %6 = icmp slt i32 %4, %5";
"  %6 = icmp slt i32 %4, %5" -> "  br i1 %6, label %7, label %17";
"_ZSt3cin" -> "  %8 = call dereferenceable(280) %"class.std::basic_istream"* @_ZNSirsERi(%"class.std::basic_istream"* @_ZSt3cin, i32* dereferenceable(4) %a)";
"_ZSt3cin" [ color = red ]
"  %a = alloca i32, align 4" -> "  %8 = call dereferenceable(280) %"class.std::basic_istream"* @_ZNSirsERi(%"class.std::basic_istream"* @_ZSt3cin, i32* dereferenceable(4) %a)";
"a" -> "  %8 = call dereferenceable(280) %"class.std::basic_istream"* @_ZNSirsERi(%"class.std::basic_istream"* @_ZSt3cin, i32* dereferenceable(4) %a)";
"a" [ color = red ]
"_ZNSirsERi" -> "  %8 = call dereferenceable(280) %"class.std::basic_istream"* @_ZNSirsERi(%"class.std::basic_istream"* @_ZSt3cin, i32* dereferenceable(4) %a)";
"_ZNSirsERi" [ color = red ]
"  %a = alloca i32, align 4" -> "  %9 = load i32, i32* %a, align 4";
"a" -> "  %9 = load i32, i32* %a, align 4";
"a" [ color = red ]
"  %9 = load i32, i32* %a, align 4" -> "  %10 = call i32 @_Z3numii(i32 2, i32 %9)";
"_Z3numii" -> "  %10 = call i32 @_Z3numii(i32 2, i32 %9)";
"_Z3numii" [ color = red ]
"  %10 = call i32 @_Z3numii(i32 2, i32 %9)" -> "  %11 = add nsw i32 %10, 1";
"_ZSt4cout" -> "  %12 = call dereferenceable(272) %"class.std::basic_ostream"* @_ZNSolsEi(%"class.std::basic_ostream"* @_ZSt4cout, i32 %11)";
"_ZSt4cout" [ color = red ]
"  %11 = add nsw i32 %10, 1" -> "  %12 = call dereferenceable(272) %"class.std::basic_ostream"* @_ZNSolsEi(%"class.std::basic_ostream"* @_ZSt4cout, i32 %11)";
"_ZNSolsEi" -> "  %12 = call dereferenceable(272) %"class.std::basic_ostream"* @_ZNSolsEi(%"class.std::basic_ostream"* @_ZSt4cout, i32 %11)";
"_ZNSolsEi" [ color = red ]
"  %12 = call dereferenceable(272) %"class.std::basic_ostream"* @_ZNSolsEi(%"class.std::basic_ostream"* @_ZSt4cout, i32 %11)" -> "  %13 = call dereferenceable(272) %"class.std::basic_ostream"* @_ZNSolsEPFRSoS_E(%"class.std::basic_ostream"* %12, %"class.std::basic_ostream"* (%"class.std::basic_ostream"*)* @_ZSt4endlIcSt11char_traitsIcEERSt13basic_ostreamIT_T0_ES6_)";
"_ZSt4endlIcSt11char_traitsIcEERSt13basic_ostreamIT_T0_ES6_" -> "  %13 = call dereferenceable(272) %"class.std::basic_ostream"* @_ZNSolsEPFRSoS_E(%"class.std::basic_ostream"* %12, %"class.std::basic_ostream"* (%"class.std::basic_ostream"*)* @_ZSt4endlIcSt11char_traitsIcEERSt13basic_ostreamIT_T0_ES6_)";
"_ZSt4endlIcSt11char_traitsIcEERSt13basic_ostreamIT_T0_ES6_" [ color = red ]
"_ZNSolsEPFRSoS_E" -> "  %13 = call dereferenceable(272) %"class.std::basic_ostream"* @_ZNSolsEPFRSoS_E(%"class.std::basic_ostream"* %12, %"class.std::basic_ostream"* (%"class.std::basic_ostream"*)* @_ZSt4endlIcSt11char_traitsIcEERSt13basic_ostreamIT_T0_ES6_)";
"_ZNSolsEPFRSoS_E" [ color = red ]
"  %i = alloca i32, align 4" -> "  %15 = load i32, i32* %i, align 4";
"i" -> "  %15 = load i32, i32* %i, align 4";
"i" [ color = red ]
"  %15 = load i32, i32* %i, align 4" -> "  %16 = add nsw i32 %15, 1";
"  %16 = add nsw i32 %15, 1" -> "  store i32 %16, i32* %i, align 4";
"  %i = alloca i32, align 4" -> "  store i32 %16, i32* %i, align 4";
"i" -> "  store i32 %16, i32* %i, align 4";
"i" [ color = red ]

}
digraph _Z3numii{

"m" -> "  store i32 %m, i32* %1, align 4";
"m" [ color = red ]
"  %1 = alloca i32, align 4" -> "  store i32 %m, i32* %1, align 4";
"n" -> "  store i32 %n, i32* %2, align 4";
"n" [ color = red ]
"  %2 = alloca i32, align 4" -> "  store i32 %n, i32* %2, align 4";
"  %count = alloca i32, align 4" -> "  store i32 0, i32* %count, align 4";
"count" -> "  store i32 0, i32* %count, align 4";
"count" [ color = red ]
"  %1 = alloca i32, align 4" -> "  %3 = load i32, i32* %1, align 4";
"  %3 = load i32, i32* %1, align 4" -> "  store i32 %3, i32* %i, align 4";
"  %i = alloca i32, align 4" -> "  store i32 %3, i32* %i, align 4";
"i" -> "  store i32 %3, i32* %i, align 4";
"i" [ color = red ]
"  %i = alloca i32, align 4" -> "  %5 = load i32, i32* %i, align 4";
"i" -> "  %5 = load i32, i32* %i, align 4";
"i" [ color = red ]
"  %2 = alloca i32, align 4" -> "  %6 = load i32, i32* %2, align 4";
"  %6 = load i32, i32* %2, align 4" -> "  %7 = call double @_ZSt4sqrtIiEN9__gnu_cxx11__enable_ifIXsr12__is_integerIT_EE7__valueEdE6__typeES2_(i32 %6)";
"_ZSt4sqrtIiEN9__gnu_cxx11__enable_ifIXsr12__is_integerIT_EE7__valueEdE6__typeES2_" -> "  %7 = call double @_ZSt4sqrtIiEN9__gnu_cxx11__enable_ifIXsr12__is_integerIT_EE7__valueEdE6__typeES2_(i32 %6)";
"_ZSt4sqrtIiEN9__gnu_cxx11__enable_ifIXsr12__is_integerIT_EE7__valueEdE6__typeES2_" [ color = red ]
"  %7 = call double @_ZSt4sqrtIiEN9__gnu_cxx11__enable_ifIXsr12__is_integerIT_EE7__valueEdE6__typeES2_(i32 %6)" -> "  %8 = fptosi double %7 to i32";
"  %5 = load i32, i32* %i, align 4" -> "  %9 = icmp sle i32 %5, %8";
"  %8 = fptosi double %7 to i32" -> "  %9 = icmp sle i32 %5, %8";
"  %9 = icmp sle i32 %5, %8" -> "  br i1 %9, label %10, label %36";
"  %2 = alloca i32, align 4" -> "  %11 = load i32, i32* %2, align 4";
"  %i = alloca i32, align 4" -> "  %12 = load i32, i32* %i, align 4";
"i" -> "  %12 = load i32, i32* %i, align 4";
"i" [ color = red ]
"  %11 = load i32, i32* %2, align 4" -> "  %13 = srem i32 %11, %12";
"  %12 = load i32, i32* %i, align 4" -> "  %13 = srem i32 %11, %12";
"  %13 = srem i32 %11, %12" -> "  %14 = icmp eq i32 %13, 0";
"  %14 = icmp eq i32 %13, 0" -> "  br i1 %14, label %15, label %32";
"  %count = alloca i32, align 4" -> "  %16 = load i32, i32* %count, align 4";
"count" -> "  %16 = load i32, i32* %count, align 4";
"count" [ color = red ]
"  %16 = load i32, i32* %count, align 4" -> "  %17 = add nsw i32 %16, 1";
"  %17 = add nsw i32 %16, 1" -> "  store i32 %17, i32* %count, align 4";
"  %count = alloca i32, align 4" -> "  store i32 %17, i32* %count, align 4";
"count" -> "  store i32 %17, i32* %count, align 4";
"count" [ color = red ]
"  %2 = alloca i32, align 4" -> "  %18 = load i32, i32* %2, align 4";
"  %i = alloca i32, align 4" -> "  %19 = load i32, i32* %i, align 4";
"i" -> "  %19 = load i32, i32* %i, align 4";
"i" [ color = red ]
"  %18 = load i32, i32* %2, align 4" -> "  %20 = sdiv i32 %18, %19";
"  %19 = load i32, i32* %i, align 4" -> "  %20 = sdiv i32 %18, %19";
"  %20 = sdiv i32 %18, %19" -> "  %21 = call i32 @_Z2sui(i32 %20)";
"_Z2sui" -> "  %21 = call i32 @_Z2sui(i32 %20)";
"_Z2sui" [ color = red ]
"  %21 = call i32 @_Z2sui(i32 %20)" -> "  %22 = icmp ne i32 %21, 0";
"  %22 = icmp ne i32 %21, 0" -> "  br i1 %22, label %23, label %31";
"  %i = alloca i32, align 4" -> "  %24 = load i32, i32* %i, align 4";
"i" -> "  %24 = load i32, i32* %i, align 4";
"i" [ color = red ]
"  %2 = alloca i32, align 4" -> "  %25 = load i32, i32* %2, align 4";
"  %i = alloca i32, align 4" -> "  %26 = load i32, i32* %i, align 4";
"i" -> "  %26 = load i32, i32* %i, align 4";
"i" [ color = red ]
"  %25 = load i32, i32* %2, align 4" -> "  %27 = sdiv i32 %25, %26";
"  %26 = load i32, i32* %i, align 4" -> "  %27 = sdiv i32 %25, %26";
"  %24 = load i32, i32* %i, align 4" -> "  %28 = call i32 @_Z3numii(i32 %24, i32 %27)";
"  %27 = sdiv i32 %25, %26" -> "  %28 = call i32 @_Z3numii(i32 %24, i32 %27)";
"_Z3numii" -> "  %28 = call i32 @_Z3numii(i32 %24, i32 %27)";
"_Z3numii" [ color = red ]
"  %count = alloca i32, align 4" -> "  %29 = load i32, i32* %count, align 4";
"count" -> "  %29 = load i32, i32* %count, align 4";
"count" [ color = red ]
"  %29 = load i32, i32* %count, align 4" -> "  %30 = add nsw i32 %29, %28";
"  %28 = call i32 @_Z3numii(i32 %24, i32 %27)" -> "  %30 = add nsw i32 %29, %28";
"  %30 = add nsw i32 %29, %28" -> "  store i32 %30, i32* %count, align 4";
"  %count = alloca i32, align 4" -> "  store i32 %30, i32* %count, align 4";
"count" -> "  store i32 %30, i32* %count, align 4";
"count" [ color = red ]
"  %i = alloca i32, align 4" -> "  %34 = load i32, i32* %i, align 4";
"i" -> "  %34 = load i32, i32* %i, align 4";
"i" [ color = red ]
"  %34 = load i32, i32* %i, align 4" -> "  %35 = add nsw i32 %34, 1";
"  %35 = add nsw i32 %34, 1" -> "  store i32 %35, i32* %i, align 4";
"  %i = alloca i32, align 4" -> "  store i32 %35, i32* %i, align 4";
"i" -> "  store i32 %35, i32* %i, align 4";
"i" [ color = red ]
"  %count = alloca i32, align 4" -> "  %37 = load i32, i32* %count, align 4";
"count" -> "  %37 = load i32, i32* %count, align 4";
"count" [ color = red ]
"  %37 = load i32, i32* %count, align 4" -> "  ret i32 %37";

}
digraph _ZSt4sqrtIiEN9__gnu_cxx11__enable_ifIXsr12__is_integerIT_EE7__valueEdE6__typeES2_{

"__x" -> "  store i32 %__x, i32* %1, align 4";
"__x" [ color = red ]
"  %1 = alloca i32, align 4" -> "  store i32 %__x, i32* %1, align 4";
"  %1 = alloca i32, align 4" -> "  %2 = load i32, i32* %1, align 4";
"  %2 = load i32, i32* %1, align 4" -> "  %3 = sitofp i32 %2 to double";
"  %3 = sitofp i32 %2 to double" -> "  %4 = call double @sqrt(double %3) #8";
"sqrt" -> "  %4 = call double @sqrt(double %3) #8";
"sqrt" [ color = red ]
"  %4 = call double @sqrt(double %3) #8" -> "  ret double %4";

}
digraph _Z2sui{

"n" -> "  store i32 %n, i32* %2, align 4";
"n" [ color = red ]
"  %2 = alloca i32, align 4" -> "  store i32 %n, i32* %2, align 4";
"  %i = alloca i32, align 4" -> "  store i32 2, i32* %i, align 4";
"i" -> "  store i32 2, i32* %i, align 4";
"i" [ color = red ]
"  %i = alloca i32, align 4" -> "  %4 = load i32, i32* %i, align 4";
"i" -> "  %4 = load i32, i32* %i, align 4";
"i" [ color = red ]
"  %2 = alloca i32, align 4" -> "  %5 = load i32, i32* %2, align 4";
"  %4 = load i32, i32* %i, align 4" -> "  %6 = icmp slt i32 %4, %5";
"  %5 = load i32, i32* %2, align 4" -> "  %6 = icmp slt i32 %4, %5";
"  %6 = icmp slt i32 %4, %5" -> "  br i1 %6, label %7, label %17";
"  %2 = alloca i32, align 4" -> "  %8 = load i32, i32* %2, align 4";
"  %i = alloca i32, align 4" -> "  %9 = load i32, i32* %i, align 4";
"i" -> "  %9 = load i32, i32* %i, align 4";
"i" [ color = red ]
"  %8 = load i32, i32* %2, align 4" -> "  %10 = srem i32 %8, %9";
"  %9 = load i32, i32* %i, align 4" -> "  %10 = srem i32 %8, %9";
"  %10 = srem i32 %8, %9" -> "  %11 = icmp eq i32 %10, 0";
"  %11 = icmp eq i32 %10, 0" -> "  br i1 %11, label %12, label %13";
"  %1 = alloca i32, align 4" -> "  store i32 1, i32* %1, align 4";
"  %i = alloca i32, align 4" -> "  %15 = load i32, i32* %i, align 4";
"i" -> "  %15 = load i32, i32* %i, align 4";
"i" [ color = red ]
"  %15 = load i32, i32* %i, align 4" -> "  %16 = add nsw i32 %15, 1";
"  %16 = add nsw i32 %15, 1" -> "  store i32 %16, i32* %i, align 4";
"  %i = alloca i32, align 4" -> "  store i32 %16, i32* %i, align 4";
"i" -> "  store i32 %16, i32* %i, align 4";
"i" [ color = red ]
"  %i = alloca i32, align 4" -> "  %18 = load i32, i32* %i, align 4";
"i" -> "  %18 = load i32, i32* %i, align 4";
"i" [ color = red ]
"  %2 = alloca i32, align 4" -> "  %19 = load i32, i32* %2, align 4";
"  %18 = load i32, i32* %i, align 4" -> "  %20 = icmp eq i32 %18, %19";
"  %19 = load i32, i32* %2, align 4" -> "  %20 = icmp eq i32 %18, %19";
"  %20 = icmp eq i32 %18, %19" -> "  br i1 %20, label %21, label %22";
"  %1 = alloca i32, align 4" -> "  store i32 0, i32* %1, align 4";
"llvm.trap" -> "  call void @llvm.trap()";
"llvm.trap" [ color = red ]
"  %1 = alloca i32, align 4" -> "  %24 = load i32, i32* %1, align 4";
"  %24 = load i32, i32* %1, align 4" -> "  ret i32 %24";

}
digraph _GLOBAL__sub_I_71.cpp{

"__cxx_global_var_init" -> "  call void @__cxx_global_var_init()";
"__cxx_global_var_init" [ color = red ]

}

