digraph "CFG for '_Z6numberii' function" {
	label="CFG for '_Z6numberii' function";

	Node0x56016d7dc1d0 [shape=record,label="{%0:\l  %1 = alloca i32, align 4\l  %2 = alloca i32, align 4\l  %j = alloca i32, align 4\l  %ans = alloca i32, align 4\l  store i32 %n, i32* %1, align 4\l  store i32 %low, i32* %2, align 4\l  store i32 0, i32* %ans, align 4\l  %3 = load i32, i32* %2, align 4\l  store i32 %3, i32* %j, align 4\l  br label %4\l}"];
	Node0x56016d7dc1d0 -> Node0x56016d7dc620;
	Node0x56016d7dc620 [shape=record,label="{%4:\l\l  %5 = load i32, i32* %j, align 4\l  %6 = load i32, i32* %j, align 4\l  %7 = mul nsw i32 %5, %6\l  %8 = load i32, i32* %1, align 4\l  %9 = icmp sle i32 %7, %8\l  br i1 %9, label %10, label %27\l|{<s0>T|<s1>F}}"];
	Node0x56016d7dc620:s0 -> Node0x56016d7dc670;
	Node0x56016d7dc620:s1 -> Node0x56016d7dc970;
	Node0x56016d7dc670 [shape=record,label="{%10:\l\l  %11 = load i32, i32* %1, align 4\l  %12 = load i32, i32* %j, align 4\l  %13 = srem i32 %11, %12\l  %14 = icmp eq i32 %13, 0\l  br i1 %14, label %15, label %23\l|{<s0>T|<s1>F}}"];
	Node0x56016d7dc670:s0 -> Node0x56016d7dcc50;
	Node0x56016d7dc670:s1 -> Node0x56016d7dcca0;
	Node0x56016d7dcc50 [shape=record,label="{%15:\l\l  %16 = load i32, i32* %ans, align 4\l  %17 = load i32, i32* %1, align 4\l  %18 = load i32, i32* %j, align 4\l  %19 = sdiv i32 %17, %18\l  %20 = load i32, i32* %j, align 4\l  %21 = call i32 @_Z6numberii(i32 %19, i32 %20)\l  %22 = add nsw i32 %16, %21\l  store i32 %22, i32* %ans, align 4\l  br label %23\l}"];
	Node0x56016d7dcc50 -> Node0x56016d7dcca0;
	Node0x56016d7dcca0 [shape=record,label="{%23:\l\l  br label %24\l}"];
	Node0x56016d7dcca0 -> Node0x56016d7dd300;
	Node0x56016d7dd300 [shape=record,label="{%24:\l\l  %25 = load i32, i32* %j, align 4\l  %26 = add nsw i32 %25, 1\l  store i32 %26, i32* %j, align 4\l  br label %4\l}"];
	Node0x56016d7dd300 -> Node0x56016d7dc620;
	Node0x56016d7dc970 [shape=record,label="{%27:\l\l  %28 = load i32, i32* %ans, align 4\l  %29 = add nsw i32 %28, 1\l  store i32 %29, i32* %ans, align 4\l  %30 = load i32, i32* %ans, align 4\l  ret i32 %30\l}"];
}
