digraph "Call graph" {
	label="Call graph";

	Node0x557cb18b9e60 [shape=record,label="{external node}"];
	Node0x557cb18b9e60 -> Node0x557cb18be810;
	Node0x557cb18b9e60 -> Node0x557cb18cb3d0;
	Node0x557cb18b9e60 -> Node0x557cb18cb3d0;
	Node0x557cb18b9e60 -> Node0x557cb18cb300;
	Node0x557cb18b9e60 -> Node0x557cb18cb560;
	Node0x557cb18b9e60 -> Node0x557cb18cb5a0;
	Node0x557cb18b9e60 -> Node0x557cb18cb620;
	Node0x557cb18b9e60 -> Node0x557cb18d02b0;
	Node0x557cb18b9e60 -> Node0x557cb18d0330;
	Node0x557cb18b9e60 -> Node0x557cb18d0150;
	Node0x557cb18b9e60 -> Node0x557cb18d0150;
	Node0x557cb18b9e60 -> Node0x557cb18d0690;
	Node0x557cb18d0690 [shape=record,label="{_GLOBAL__sub_I_2290.cpp}"];
	Node0x557cb18d0690 -> Node0x557cb18be790;
	Node0x557cb18be790 [shape=record,label="{__cxx_global_var_init}"];
	Node0x557cb18be790 -> Node0x557cb18be810;
	Node0x557cb18be790 -> Node0x557cb18cb300;
	Node0x557cb18be810 [shape=record,label="{_ZNSt8ios_base4InitC1Ev}"];
	Node0x557cb18be810 -> Node0x557cb18bbd20;
	Node0x557cb18cb3d0 [shape=record,label="{_ZNSt8ios_base4InitD1Ev}"];
	Node0x557cb18cb3d0 -> Node0x557cb18bbd20;
	Node0x557cb18cb300 [shape=record,label="{__cxa_atexit}"];
	Node0x557cb18cb300 -> Node0x557cb18bbd20;
	Node0x557cb18cb560 [shape=record,label="{_Z1fii}"];
	Node0x557cb18cb560 -> Node0x557cb18cb560;
	Node0x557cb18cb5a0 [shape=record,label="{main}"];
	Node0x557cb18cb5a0 -> Node0x557cb18cb620;
	Node0x557cb18cb5a0 -> Node0x557cb18cb620;
	Node0x557cb18cb5a0 -> Node0x557cb18cb560;
	Node0x557cb18cb5a0 -> Node0x557cb18d02b0;
	Node0x557cb18cb5a0 -> Node0x557cb18d0330;
	Node0x557cb18cb620 [shape=record,label="{_ZNSirsERi}"];
	Node0x557cb18cb620 -> Node0x557cb18bbd20;
	Node0x557cb18d02b0 [shape=record,label="{_ZNSolsEi}"];
	Node0x557cb18d02b0 -> Node0x557cb18bbd20;
	Node0x557cb18d0150 [shape=record,label="{_ZSt4endlIcSt11char_traitsIcEERSt13basic_ostreamIT_T0_ES6_}"];
	Node0x557cb18d0150 -> Node0x557cb18bbd20;
	Node0x557cb18d0330 [shape=record,label="{_ZNSolsEPFRSoS_E}"];
	Node0x557cb18d0330 -> Node0x557cb18bbd20;
}
