digraph "CFG for 'main' function" {
	label="CFG for 'main' function";

	Node0x563c9ba71b80 [shape=record,label="{%0:\l  %1 = alloca i32, align 4\l  %n = alloca i32, align 4\l  %x = alloca i32, align 4\l  store i32 0, i32* %1, align 4\l  %2 = call dereferenceable(280) %\"class.std::basic_istream\"*\l... @_ZNSirsERi(%\"class.std::basic_istream\"* @_ZSt3cin, i32* dereferenceable(4)\l... %n)\l  br label %3\l}"];
	Node0x563c9ba71b80 -> Node0x563c9ba72450;
	Node0x563c9ba72450 [shape=record,label="{%3:\l\l  %4 = load i32, i32* %n, align 4\l  %5 = add nsw i32 %4, -1\l  store i32 %5, i32* %n, align 4\l  %6 = icmp ne i32 %4, 0\l  br i1 %6, label %7, label %13\l|{<s0>T|<s1>F}}"];
	Node0x563c9ba72450:s0 -> Node0x563c9ba747a0;
	Node0x563c9ba72450:s1 -> Node0x563c9ba747f0;
	Node0x563c9ba747a0 [shape=record,label="{%7:\l\l  %8 = call dereferenceable(280) %\"class.std::basic_istream\"*\l... @_ZNSirsERi(%\"class.std::basic_istream\"* @_ZSt3cin, i32* dereferenceable(4)\l... %x)\l  %9 = load i32, i32* %x, align 4\l  %10 = call i32 @_Z1fii(i32 %9, i32 2)\l  %11 = call dereferenceable(272) %\"class.std::basic_ostream\"*\l... @_ZNSolsEi(%\"class.std::basic_ostream\"* @_ZSt4cout, i32 %10)\l  %12 = call dereferenceable(272) %\"class.std::basic_ostream\"*\l... @_ZNSolsEPFRSoS_E(%\"class.std::basic_ostream\"* %11,\l... %\"class.std::basic_ostream\"* (%\"class.std::basic_ostream\"*)*\l... @_ZSt4endlIcSt11char_traitsIcEERSt13basic_ostreamIT_T0_ES6_)\l  br label %3\l}"];
	Node0x563c9ba747a0 -> Node0x563c9ba72450;
	Node0x563c9ba747f0 [shape=record,label="{%13:\l\l  %14 = load i32, i32* %1, align 4\l  ret i32 %14\l}"];
}
