digraph "CFG for '_GLOBAL__sub_I_2290.cpp' function" {
	label="CFG for '_GLOBAL__sub_I_2290.cpp' function";

	Node0x563c9ba75710 [shape=record,label="{%0:\l  call void @__cxx_global_var_init()\l  ret void\l}"];
}
