digraph "Call graph" {
	label="Call graph";

	Node0x56341a39e360 [shape=record,label="{external node}"];
	Node0x56341a39e360 -> Node0x56341a39e4a0;
	Node0x56341a39e360 -> Node0x56341a3b5c70;
	Node0x56341a39e360 -> Node0x56341a3b5c70;
	Node0x56341a39e360 -> Node0x56341a39e550;
	Node0x56341a39e360 -> Node0x56341a3b5e00;
	Node0x56341a39e360 -> Node0x56341a3b5d40;
	Node0x56341a39e360 -> Node0x56341a3b5fc0;
	Node0x56341a39e360 -> Node0x56341a3b6040;
	Node0x56341a39e360 -> Node0x56341a3b61b0;
	Node0x56341a3b61b0 [shape=record,label="{_GLOBAL__sub_I_25.cpp}"];
	Node0x56341a3b61b0 -> Node0x56341a39e420;
	Node0x56341a39e420 [shape=record,label="{__cxx_global_var_init}"];
	Node0x56341a39e420 -> Node0x56341a39e4a0;
	Node0x56341a39e420 -> Node0x56341a39e550;
	Node0x56341a39e4a0 [shape=record,label="{_ZNSt8ios_base4InitC1Ev}"];
	Node0x56341a39e4a0 -> Node0x56341a39e3a0;
	Node0x56341a3b5c70 [shape=record,label="{_ZNSt8ios_base4InitD1Ev}"];
	Node0x56341a3b5c70 -> Node0x56341a39e3a0;
	Node0x56341a39e550 [shape=record,label="{__cxa_atexit}"];
	Node0x56341a39e550 -> Node0x56341a39e3a0;
	Node0x56341a3b5e00 [shape=record,label="{main}"];
	Node0x56341a3b5e00 -> Node0x56341a3b5d40;
	Node0x56341a3b5e00 -> Node0x56341a3b5fc0;
	Node0x56341a3b5e00 -> Node0x56341a3b6040;
	Node0x56341a3b5e00 -> Node0x56341a3b6040;
	Node0x56341a3b5d40 [shape=record,label="{gets}"];
	Node0x56341a3b5d40 -> Node0x56341a39e3a0;
	Node0x56341a3b5fc0 [shape=record,label="{strlen}"];
	Node0x56341a3b5fc0 -> Node0x56341a39e3a0;
	Node0x56341a3b6040 [shape=record,label="{printf}"];
	Node0x56341a3b6040 -> Node0x56341a39e3a0;
}
