digraph "Call graph" {
	label="Call graph";

	Node0x55b6115bf4e0 [shape=record,label="{external node}"];
	Node0x55b6115bf4e0 -> Node0x55b6115d4620;
	Node0x55b6115bf4e0 -> Node0x55b6115d47d0;
	Node0x55b6115bf4e0 -> Node0x55b6115d47d0;
	Node0x55b6115bf4e0 -> Node0x55b6115d46d0;
	Node0x55b6115bf4e0 -> Node0x55b6115da5e0;
	Node0x55b6115bf4e0 -> Node0x55b6115d48a0;
	Node0x55b6115bf4e0 -> Node0x55b6115da770;
	Node0x55b6115bf4e0 -> Node0x55b6115da820;
	Node0x55b6115bf4e0 -> Node0x55b6115da8a0;
	Node0x55b6115bf4e0 -> Node0x55b6115e6aa0;
	Node0x55b6115bf4e0 -> Node0x55b6115da620;
	Node0x55b6115da620 [shape=record,label="{_GLOBAL__sub_I_45.cpp}"];
	Node0x55b6115da620 -> Node0x55b6115d45a0;
	Node0x55b6115d45a0 [shape=record,label="{__cxx_global_var_init}"];
	Node0x55b6115d45a0 -> Node0x55b6115d4620;
	Node0x55b6115d45a0 -> Node0x55b6115d46d0;
	Node0x55b6115d4620 [shape=record,label="{_ZNSt8ios_base4InitC1Ev}"];
	Node0x55b6115d4620 -> Node0x55b6115d4520;
	Node0x55b6115d47d0 [shape=record,label="{_ZNSt8ios_base4InitD1Ev}"];
	Node0x55b6115d47d0 -> Node0x55b6115d4520;
	Node0x55b6115d46d0 [shape=record,label="{__cxa_atexit}"];
	Node0x55b6115d46d0 -> Node0x55b6115d4520;
	Node0x55b6115da5e0 [shape=record,label="{_Z6insertPcS_}"];
	Node0x55b6115da5e0 -> Node0x55b6115d48a0;
	Node0x55b6115da5e0 -> Node0x55b6115da770;
	Node0x55b6115da5e0 -> Node0x55b6115da770;
	Node0x55b6115da5e0 -> Node0x55b6115da770;
	Node0x55b6115da5e0 -> Node0x55b6115da770;
	Node0x55b6115d48a0 [shape=record,label="{strlen}"];
	Node0x55b6115d48a0 -> Node0x55b6115d4520;
	Node0x55b6115da770 [shape=record,label="{printf}"];
	Node0x55b6115da770 -> Node0x55b6115d4520;
	Node0x55b6115da820 [shape=record,label="{main}"];
	Node0x55b6115da820 -> Node0x55b6115da8a0;
	Node0x55b6115da820 -> Node0x55b6115da8a0;
	Node0x55b6115da820 -> Node0x55b6115e6aa0;
	Node0x55b6115da820 -> Node0x55b6115da8a0;
	Node0x55b6115da820 -> Node0x55b6115da5e0;
	Node0x55b6115da8a0 [shape=record,label="{getchar}"];
	Node0x55b6115da8a0 -> Node0x55b6115d4520;
	Node0x55b6115e6aa0 [shape=record,label="{scanf}"];
	Node0x55b6115e6aa0 -> Node0x55b6115d4520;
}
