digraph "CFG for 'main' function" {
	label="CFG for 'main' function";

	Node0x56069aa2be00 [shape=record,label="{%0:\l  %1 = alloca i32, align 4\l  %st1 = alloca [50 x [10 x i8]], align 16\l  %st2 = alloca [50 x [4 x i8]], align 16\l  %i = alloca i32, align 4\l  %j = alloca i32, align 4\l  %k = alloca i32, align 4\l  %p = alloca i8, align 1\l  store i32 0, i32* %1, align 4\l  br label %2\l}"];
	Node0x56069aa2be00 -> Node0x56069aa2cf70;
	Node0x56069aa2cf70 [shape=record,label="{%2:\l\l  %3 = call i32 @getchar()\l  %4 = trunc i32 %3 to i8\l  %5 = load i32, i32* %i, align 4\l  %6 = sext i32 %5 to i64\l  %7 = getelementptr inbounds [50 x [10 x i8]], [50 x [10 x i8]]* %st1, i64 0,\l... i64 %6\l  %8 = getelementptr inbounds [10 x i8], [10 x i8]* %7, i64 0, i64 0\l  store i8 %4, i8* %8, align 2\l  %9 = sext i8 %4 to i32\l  %10 = icmp ne i32 %9, -1\l  br i1 %10, label %11, label %46\l|{<s0>T|<s1>F}}"];
	Node0x56069aa2cf70:s0 -> Node0x56069aa2d190;
	Node0x56069aa2cf70:s1 -> Node0x56069aa2d650;
	Node0x56069aa2d190 [shape=record,label="{%11:\l\l  store i32 1, i32* %j, align 4\l  br label %12\l}"];
	Node0x56069aa2d190 -> Node0x56069aa2d7f0;
	Node0x56069aa2d7f0 [shape=record,label="{%12:\l\l  %13 = call i32 @getchar()\l  %14 = trunc i32 %13 to i8\l  store i8 %14, i8* %p, align 1\l  %15 = sext i8 %14 to i32\l  %16 = icmp ne i32 %15, 32\l  br i1 %16, label %17, label %25\l|{<s0>T|<s1>F}}"];
	Node0x56069aa2d7f0:s0 -> Node0x56069aa2d3e0;
	Node0x56069aa2d7f0:s1 -> Node0x56069aa2dc30;
	Node0x56069aa2d3e0 [shape=record,label="{%17:\l\l  %18 = load i8, i8* %p, align 1\l  %19 = load i32, i32* %j, align 4\l  %20 = sext i32 %19 to i64\l  %21 = load i32, i32* %i, align 4\l  %22 = sext i32 %21 to i64\l  %23 = getelementptr inbounds [50 x [10 x i8]], [50 x [10 x i8]]* %st1, i64\l... 0, i64 %22\l  %24 = getelementptr inbounds [10 x i8], [10 x i8]* %23, i64 0, i64 %20\l  store i8 %18, i8* %24, align 1\l  br label %32\l}"];
	Node0x56069aa2d3e0 -> Node0x56069aa2e0f0;
	Node0x56069aa2dc30 [shape=record,label="{%25:\l\l  %26 = load i32, i32* %j, align 4\l  %27 = sext i32 %26 to i64\l  %28 = load i32, i32* %i, align 4\l  %29 = sext i32 %28 to i64\l  %30 = getelementptr inbounds [50 x [10 x i8]], [50 x [10 x i8]]* %st1, i64\l... 0, i64 %29\l  %31 = getelementptr inbounds [10 x i8], [10 x i8]* %30, i64 0, i64 %27\l  store i8 0, i8* %31, align 1\l  br label %36\l}"];
	Node0x56069aa2dc30 -> Node0x56069aa2e4e0;
	Node0x56069aa2e0f0 [shape=record,label="{%32:\l\l  br label %33\l}"];
	Node0x56069aa2e0f0 -> Node0x56069aa2db20;
	Node0x56069aa2db20 [shape=record,label="{%33:\l\l  %34 = load i32, i32* %j, align 4\l  %35 = add nsw i32 %34, 1\l  store i32 %35, i32* %j, align 4\l  br label %12\l}"];
	Node0x56069aa2db20 -> Node0x56069aa2d7f0;
	Node0x56069aa2e4e0 [shape=record,label="{%36:\l\l  %37 = load i32, i32* %i, align 4\l  %38 = sext i32 %37 to i64\l  %39 = getelementptr inbounds [50 x [4 x i8]], [50 x [4 x i8]]* %st2, i64 0,\l... i64 %38\l  %40 = getelementptr inbounds [4 x i8], [4 x i8]* %39, i32 0, i32 0\l  %41 = call i32 (i8*, ...) @scanf(i8* getelementptr inbounds ([3 x i8], [3 x\l... i8]* @.str.2, i32 0, i32 0), i8* %40)\l  %42 = load i32, i32* %i, align 4\l  %43 = add nsw i32 %42, 1\l  store i32 %43, i32* %i, align 4\l  %44 = call i32 @getchar()\l  %45 = trunc i32 %44 to i8\l  store i8 %45, i8* %p, align 1\l  br label %2\l}"];
	Node0x56069aa2e4e0 -> Node0x56069aa2cf70;
	Node0x56069aa2d650 [shape=record,label="{%46:\l\l  %47 = load i32, i32* %i, align 4\l  store i32 %47, i32* %k, align 4\l  store i32 0, i32* %i, align 4\l  br label %48\l}"];
	Node0x56069aa2d650 -> Node0x56069aa2f2a0;
	Node0x56069aa2f2a0 [shape=record,label="{%48:\l\l  %49 = load i32, i32* %i, align 4\l  %50 = load i32, i32* %k, align 4\l  %51 = icmp slt i32 %49, %50\l  br i1 %51, label %52, label %64\l|{<s0>T|<s1>F}}"];
	Node0x56069aa2f2a0:s0 -> Node0x56069aa2f490;
	Node0x56069aa2f2a0:s1 -> Node0x56069aa2f4e0;
	Node0x56069aa2f490 [shape=record,label="{%52:\l\l  %53 = load i32, i32* %i, align 4\l  %54 = sext i32 %53 to i64\l  %55 = getelementptr inbounds [50 x [10 x i8]], [50 x [10 x i8]]* %st1, i64\l... 0, i64 %54\l  %56 = getelementptr inbounds [10 x i8], [10 x i8]* %55, i32 0, i32 0\l  %57 = load i32, i32* %i, align 4\l  %58 = sext i32 %57 to i64\l  %59 = getelementptr inbounds [50 x [4 x i8]], [50 x [4 x i8]]* %st2, i64 0,\l... i64 %58\l  %60 = getelementptr inbounds [4 x i8], [4 x i8]* %59, i32 0, i32 0\l  call void @_Z6insertPcS_(i8* %56, i8* %60)\l  br label %61\l}"];
	Node0x56069aa2f490 -> Node0x56069aa2faf0;
	Node0x56069aa2faf0 [shape=record,label="{%61:\l\l  %62 = load i32, i32* %i, align 4\l  %63 = add nsw i32 %62, 1\l  store i32 %63, i32* %i, align 4\l  br label %48\l}"];
	Node0x56069aa2faf0 -> Node0x56069aa2f2a0;
	Node0x56069aa2f4e0 [shape=record,label="{%64:\l\l  %65 = load i32, i32* %1, align 4\l  ret i32 %65\l}"];
}
